EESchema Schematic File Version 4
EELAYER 30 0
EELAYER END
$Descr USLegal 14000 8500
encoding utf-8
Sheet 1 1
Title "Graviton Control Board"
Date "2020-02-28"
Rev "v02"
Comp "Copperforge"
Comment1 "Part Number: Cu//XXXX"
Comment2 "Schematic Status: Company Private"
Comment3 "Author: Benjamin Ward"
Comment4 ""
$EndDescr
$Comp
L Device:C_Small C14
U 1 1 5E652377
P 10075 1400
F 0 "C14" H 9983 1354 50  0000 R CNN
F 1 "2.2uF" H 9983 1445 50  0000 R CNN
F 2 "Capacitor_SMD:C_0603_1608Metric" H 10075 1400 50  0001 C CNN
F 3 "~" H 10075 1400 50  0001 C CNN
	1    10075 1400
	1    0    0    1   
$EndComp
$Comp
L Device:C_Small C15
U 1 1 5E652E16
P 11150 1400
F 0 "C15" H 11242 1446 50  0000 L CNN
F 1 "2.2uF" H 11242 1355 50  0000 L CNN
F 2 "Capacitor_SMD:C_0603_1608Metric" H 11150 1400 50  0001 C CNN
F 3 "~" H 11150 1400 50  0001 C CNN
	1    11150 1400
	1    0    0    -1  
$EndComp
Wire Wire Line
	9950 1200 9950 1150
Wire Wire Line
	11250 1200 11250 1150
$Comp
L power:GND #PWR0102
U 1 1 5E672CAD
P 10650 1700
F 0 "#PWR0102" H 10650 1450 50  0001 C CNN
F 1 "GND" H 10655 1527 50  0000 C CNN
F 2 "" H 10650 1700 50  0001 C CNN
F 3 "" H 10650 1700 50  0001 C CNN
	1    10650 1700
	1    0    0    -1  
$EndComp
Wire Wire Line
	10650 1650 11150 1650
Connection ~ 10650 1650
Wire Wire Line
	10650 1650 10650 1700
Wire Wire Line
	10650 1650 10075 1650
$Comp
L power:GND #PWR0103
U 1 1 5E68EF65
P 900 2500
F 0 "#PWR0103" H 900 2250 50  0001 C CNN
F 1 "GND" H 905 2327 50  0000 C CNN
F 2 "" H 900 2500 50  0001 C CNN
F 3 "" H 900 2500 50  0001 C CNN
	1    900  2500
	1    0    0    -1  
$EndComp
Wire Wire Line
	750  2400 750  2450
Wire Wire Line
	750  2450 900  2450
Wire Wire Line
	1050 2450 1050 2400
Wire Wire Line
	900  2450 900  2500
Connection ~ 900  2450
Wire Wire Line
	900  2450 1050 2450
Text Label 3200 7050 2    50   ~ 0
PERIPH_SPI_MISO
Wire Wire Line
	2600 7650 2600 7700
Wire Wire Line
	2400 6750 2450 6750
Wire Wire Line
	2400 7250 2450 7250
Wire Wire Line
	2400 6950 2450 6950
Text Label 3200 6850 2    50   ~ 0
PERIPH_SPI_SCK
Text Label 3200 7350 2    50   ~ 0
SD_SENSE
$Comp
L Device:R_Small_US R8
U 1 1 5E62F610
P 2600 7550
F 0 "R8" H 2668 7596 50  0000 L CNN
F 1 "10k" H 2668 7505 50  0000 L CNN
F 2 "Resistor_SMD:R_0603_1608Metric" H 2600 7550 50  0001 C CNN
F 3 "~" H 2600 7550 50  0001 C CNN
	1    2600 7550
	1    0    0    1   
$EndComp
$Comp
L Connector:Micro_SD_Card_Det_Hirose_DM3AT J2
U 1 1 5E3D1ECD
P 1500 6850
F 0 "J2" H 1450 6033 50  0000 C CNN
F 1 "Micro_SD_Card_Det_Hirose_DM3AT" H 1450 6124 50  0000 C CNN
F 2 "Connector_Card:microSD_HC_Hirose_DM3AT-SF-PEJM5" H 3550 7550 50  0001 C CNN
F 3 "https://www.hirose.com/product/en/download_file/key_name/DM3/category/Catalog/doc_file_id/49662/?file_category_id=4&item_id=195&is_series=1" H 1500 6950 50  0001 C CNN
	1    1500 6850
	-1   0    0    -1  
$EndComp
Wire Wire Line
	2450 6750 2450 6350
$Comp
L power:+3.3V #PWR0104
U 1 1 5E7B1715
P 2450 6350
F 0 "#PWR0104" H 2450 6200 50  0001 C CNN
F 1 "+3.3V" H 2465 6523 50  0000 C CNN
F 2 "" H 2450 6350 50  0001 C CNN
F 3 "" H 2450 6350 50  0001 C CNN
	1    2450 6350
	1    0    0    -1  
$EndComp
Wire Wire Line
	2450 6950 2450 7250
$Comp
L power:GND #PWR0105
U 1 1 5E7BA230
P 2450 7450
F 0 "#PWR0105" H 2450 7200 50  0001 C CNN
F 1 "GND" H 2455 7277 50  0000 C CNN
F 2 "" H 2450 7450 50  0001 C CNN
F 3 "" H 2450 7450 50  0001 C CNN
	1    2450 7450
	1    0    0    -1  
$EndComp
Wire Wire Line
	2450 7450 2450 7250
Connection ~ 2450 7250
$Comp
L power:+3.3V #PWR0106
U 1 1 5E7D250D
P 2950 7650
F 0 "#PWR0106" H 2950 7500 50  0001 C CNN
F 1 "+3.3V" H 2965 7823 50  0000 C CNN
F 2 "" H 2950 7650 50  0001 C CNN
F 3 "" H 2950 7650 50  0001 C CNN
	1    2950 7650
	1    0    0    -1  
$EndComp
Text Label 3200 6650 2    50   ~ 0
PERIPH_SPI_MOSI
$Comp
L power:GND #PWR0107
U 1 1 5E7EB89F
P 650 7400
F 0 "#PWR0107" H 650 7150 50  0001 C CNN
F 1 "GND" H 655 7227 50  0000 C CNN
F 2 "" H 650 7400 50  0001 C CNN
F 3 "" H 650 7400 50  0001 C CNN
	1    650  7400
	1    0    0    -1  
$EndComp
Wire Wire Line
	700  7350 650  7350
Wire Wire Line
	650  7350 650  7400
NoConn ~ 2400 7150
NoConn ~ 1250 9250
Wire Wire Line
	2400 6650 3200 6650
Wire Wire Line
	2400 7050 3200 7050
$Comp
L Interface_CAN_LIN:TJA1051T-3 U4
U 1 1 5E864897
P 1550 5400
F 0 "U4" H 1900 5050 50  0000 C CNN
F 1 "TJA1051T-3" H 1550 5400 50  0000 C CNN
F 2 "Package_SO:SOIC-8_3.9x4.9mm_P1.27mm" H 1550 4900 50  0001 C CIN
F 3 "http://www.nxp.com/documents/data_sheet/TJA1051.pdf" H 1550 5400 50  0001 C CNN
	1    1550 5400
	-1   0    0    -1  
$EndComp
$Comp
L Device:C_Small C26
U 1 1 5E8659F8
P 1700 4650
F 0 "C26" H 1792 4696 50  0000 L CNN
F 1 "0.1uF" H 1792 4605 50  0000 L CNN
F 2 "Capacitor_SMD:C_0603_1608Metric" H 1700 4650 50  0001 C CNN
F 3 "~" H 1700 4650 50  0001 C CNN
	1    1700 4650
	1    0    0    -1  
$EndComp
Wire Wire Line
	2400 6850 3200 6850
Text Label 3200 6550 2    50   ~ 0
SD_CS
Wire Wire Line
	2400 6550 2550 6550
Wire Wire Line
	2400 7350 2600 7350
Wire Wire Line
	2600 7350 2600 7450
Connection ~ 2600 7350
Wire Wire Line
	2600 7350 3200 7350
$Comp
L power:GND #PWR0108
U 1 1 5E902454
P 2100 4850
F 0 "#PWR0108" H 2100 4600 50  0001 C CNN
F 1 "GND" H 2105 4677 50  0000 C CNN
F 2 "" H 2100 4850 50  0001 C CNN
F 3 "" H 2100 4850 50  0001 C CNN
	1    2100 4850
	1    0    0    -1  
$EndComp
$Comp
L power:+5V #PWR0109
U 1 1 5E9029F1
P 1550 4450
F 0 "#PWR0109" H 1550 4300 50  0001 C CNN
F 1 "+5V" H 1565 4623 50  0000 C CNN
F 2 "" H 1550 4450 50  0001 C CNN
F 3 "" H 1550 4450 50  0001 C CNN
	1    1550 4450
	1    0    0    -1  
$EndComp
$Comp
L power:GND #PWR0110
U 1 1 5E949641
P 1550 5800
F 0 "#PWR0110" H 1550 5550 50  0001 C CNN
F 1 "GND" H 1555 5627 50  0000 C CNN
F 2 "" H 1550 5800 50  0001 C CNN
F 3 "" H 1550 5800 50  0001 C CNN
	1    1550 5800
	1    0    0    -1  
$EndComp
Text Label 2050 5300 0    50   ~ 0
CAN_RX
Text Label 2050 5200 0    50   ~ 0
CAN_TX
Wire Wire Line
	2050 5300 2475 5300
Entry Wire Line
	2550 5300 2650 5400
Entry Wire Line
	2550 5200 2650 5300
Wire Wire Line
	2550 5200 2400 5200
Wire Bus Line
	2650 5300 2650 5400
Wire Notes Line
	550  6100 3250 6100
Wire Notes Line
	3250 6100 3250 7750
Wire Notes Line
	550  7750 550  6100
Wire Notes Line
	550  7750 3250 7750
Wire Notes Line
	550  4150 2600 4150
Wire Notes Line
	550  6050 2600 6050
Text Notes 2650 6250 0    50   ~ 0
MicroSD Card
$Comp
L Connector_Generic:Conn_01x02 J4
U 1 1 5EB57E17
P 800 4650
F 0 "J4" H 718 4867 50  0000 C CNN
F 1 "Conn_01x02" H 718 4776 50  0000 C CNN
F 2 "Connector_PinHeader_2.54mm:PinHeader_1x02_P2.54mm_Vertical" H 800 4650 50  0001 C CNN
F 3 "~" H 800 4650 50  0001 C CNN
	1    800  4650
	0    1    -1   0   
$EndComp
Wire Wire Line
	700  4850 700  5500
Text Label 1050 5300 2    50   ~ 0
CANH
Text Label 1050 5500 2    50   ~ 0
CANL
Wire Wire Line
	800  5300 800  4850
Wire Wire Line
	800  5300 825  5300
Wire Wire Line
	700  5500 1050 5500
Text Notes 2100 4400 0    50   ~ 0
CANbus\nTransceiver
$Comp
L Device:C_Small C27
U 1 1 5EBD9D08
P 2100 4650
F 0 "C27" H 2192 4696 50  0000 L CNN
F 1 "0.047uF" H 2192 4605 50  0000 L CNN
F 2 "Capacitor_SMD:C_0603_1608Metric" H 2100 4650 50  0001 C CNN
F 3 "~" H 2100 4650 50  0001 C CNN
	1    2100 4650
	1    0    0    -1  
$EndComp
Wire Wire Line
	1550 4500 1700 4500
Wire Wire Line
	1700 4500 1700 4550
Wire Wire Line
	1550 4500 1550 5000
Wire Wire Line
	1700 4500 2100 4500
Wire Wire Line
	2100 4500 2100 4550
Connection ~ 1700 4500
Wire Wire Line
	1700 4750 1700 4800
Wire Wire Line
	1700 4800 2100 4800
Wire Wire Line
	2100 4800 2100 4850
Wire Wire Line
	2100 4800 2100 4750
Connection ~ 2100 4800
Wire Wire Line
	1550 4450 1550 4500
Connection ~ 1550 4500
$Comp
L Device:C_Small C28
U 1 1 5EC42CBD
P 2350 5700
F 0 "C28" H 2350 5800 50  0000 L CNN
F 1 "0.1uF" H 2350 5600 50  0000 L CNN
F 2 "Capacitor_SMD:C_0603_1608Metric" H 2350 5700 50  0001 C CNN
F 3 "~" H 2350 5700 50  0001 C CNN
	1    2350 5700
	1    0    0    -1  
$EndComp
Wire Wire Line
	2350 5550 2350 5600
$Comp
L power:+3.3V #PWR0111
U 1 1 5EC4E5E7
P 2350 5550
F 0 "#PWR0111" H 2350 5400 50  0001 C CNN
F 1 "+3.3V" H 2365 5723 50  0000 C CNN
F 2 "" H 2350 5550 50  0001 C CNN
F 3 "" H 2350 5550 50  0001 C CNN
	1    2350 5550
	1    0    0    -1  
$EndComp
Wire Wire Line
	2050 5500 2250 5500
Wire Wire Line
	2250 5500 2250 5550
$Comp
L power:GND #PWR0112
U 1 1 5EC92386
P 2350 5800
F 0 "#PWR0112" H 2350 5550 50  0001 C CNN
F 1 "GND" H 2355 5627 50  0000 C CNN
F 2 "" H 2350 5800 50  0001 C CNN
F 3 "" H 2350 5800 50  0001 C CNN
	1    2350 5800
	1    0    0    -1  
$EndComp
Text Notes 1700 5900 0    50   ~ 0
Internal pull-\ndown on S
Wire Notes Line
	2600 4150 2600 6050
Wire Notes Line
	550  4150 550  6050
Wire Wire Line
	1650 1400 1750 1400
Wire Wire Line
	1750 1500 1650 1500
Wire Wire Line
	1650 1600 1750 1600
Wire Wire Line
	1750 1700 1650 1700
Text Label 2500 1450 0    50   ~ 0
USB_D-
Text Label 2500 1650 0    50   ~ 0
USB_D+
Entry Wire Line
	2850 1650 2950 1550
Entry Wire Line
	2850 1450 2950 1350
Wire Wire Line
	2950 7700 2950 7650
Wire Wire Line
	2600 7700 2950 7700
$Comp
L power:+3.3V #PWR0113
U 1 1 5F11921F
P 11250 1150
F 0 "#PWR0113" H 11250 1000 50  0001 C CNN
F 1 "+3.3V" H 11265 1323 50  0000 C CNN
F 2 "" H 11250 1150 50  0001 C CNN
F 3 "" H 11250 1150 50  0001 C CNN
	1    11250 1150
	1    0    0    -1  
$EndComp
$Comp
L power:+5V #PWR0114
U 1 1 5F1197E1
P 9950 1150
F 0 "#PWR0114" H 9950 1000 50  0001 C CNN
F 1 "+5V" H 9965 1323 50  0000 C CNN
F 2 "" H 9950 1150 50  0001 C CNN
F 3 "" H 9950 1150 50  0001 C CNN
	1    9950 1150
	1    0    0    -1  
$EndComp
$Comp
L Reference_Voltage:REF3033 U3
U 1 1 5F11ACA0
P 12400 1300
F 0 "U3" H 12600 1050 50  0000 R CNN
F 1 "REF3033" H 12700 1550 50  0000 R CIN
F 2 "Package_TO_SOT_SMD:SOT-23" H 12400 850 50  0001 C CIN
F 3 "http://www.ti.com/lit/ds/symlink/ref3033.pdf" H 12500 950 50  0001 C CIN
	1    12400 1300
	1    0    0    -1  
$EndComp
$Comp
L Device:C_Small C17
U 1 1 5F11BF93
P 12750 1500
F 0 "C17" H 12750 1600 50  0000 L CNN
F 1 "1uF" H 12750 1400 50  0000 L CNN
F 2 "Capacitor_SMD:C_0603_1608Metric" H 12750 1500 50  0001 C CNN
F 3 "~" H 12750 1500 50  0001 C CNN
	1    12750 1500
	1    0    0    -1  
$EndComp
$Comp
L Device:C_Small C18
U 1 1 5F11CBEF
P 12950 1500
F 0 "C18" H 12950 1600 50  0000 L CNN
F 1 "0.1uF" H 12950 1400 50  0000 L CNN
F 2 "Capacitor_SMD:C_0603_1608Metric" H 12950 1500 50  0001 C CNN
F 3 "~" H 12950 1500 50  0001 C CNN
	1    12950 1500
	1    0    0    -1  
$EndComp
$Comp
L Device:C_Small C16
U 1 1 5F11E0D7
P 12050 1300
F 0 "C16" H 12142 1346 50  0000 L CNN
F 1 "0.47uF" H 12142 1255 50  0000 L CNN
F 2 "Capacitor_SMD:C_0603_1608Metric" H 12050 1300 50  0001 C CNN
F 3 "~" H 12050 1300 50  0001 C CNN
	1    12050 1300
	-1   0    0    -1  
$EndComp
$Comp
L power:+5V #PWR0115
U 1 1 5F11E7DC
P 12300 900
F 0 "#PWR0115" H 12300 750 50  0001 C CNN
F 1 "+5V" H 12315 1073 50  0000 C CNN
F 2 "" H 12300 900 50  0001 C CNN
F 3 "" H 12300 900 50  0001 C CNN
	1    12300 900 
	1    0    0    -1  
$EndComp
$Comp
L power:GND #PWR0116
U 1 1 5F11F44F
P 12300 1700
F 0 "#PWR0116" H 12300 1450 50  0001 C CNN
F 1 "GND" H 12305 1527 50  0000 C CNN
F 2 "" H 12300 1700 50  0001 C CNN
F 3 "" H 12300 1700 50  0001 C CNN
	1    12300 1700
	1    0    0    -1  
$EndComp
Wire Wire Line
	12050 1400 12050 1650
Wire Wire Line
	12050 1650 12300 1650
Wire Wire Line
	12300 1700 12300 1650
Connection ~ 12300 1650
Wire Wire Line
	12300 1650 12300 1600
Wire Wire Line
	12750 1650 12750 1600
Wire Wire Line
	12300 1650 12750 1650
Wire Wire Line
	12750 1650 12950 1650
Wire Wire Line
	12950 1650 12950 1600
Connection ~ 12750 1650
Wire Wire Line
	12750 1400 12750 1300
Wire Wire Line
	12750 1300 12700 1300
Wire Wire Line
	12750 1300 12950 1300
Wire Wire Line
	12950 1300 12950 1400
Connection ~ 12750 1300
Wire Wire Line
	12950 1300 13000 1300
Connection ~ 12950 1300
Text Label 13000 1300 0    50   ~ 0
REF_3V3
Wire Wire Line
	12050 1200 12050 950 
Wire Wire Line
	12050 950  12300 950 
Wire Wire Line
	12300 950  12300 1000
Wire Wire Line
	12300 950  12300 900 
Connection ~ 12300 950 
$Comp
L Device:R_Small_US R3
U 1 1 5F396092
P 2300 1800
F 0 "R3" H 2368 1846 50  0000 L CNN
F 1 "1.5k" H 2368 1755 50  0000 L CNN
F 2 "Resistor_SMD:R_0603_1608Metric" H 2300 1800 50  0001 C CNN
F 3 "~" H 2300 1800 50  0001 C CNN
	1    2300 1800
	1    0    0    -1  
$EndComp
$Comp
L Device:R_Small_US R2
U 1 1 5F397363
P 1850 1200
F 0 "R2" V 1750 1300 50  0000 C CNN
F 1 "5.1k" V 1750 1100 50  0000 C CNN
F 2 "Resistor_SMD:R_0603_1608Metric" H 1850 1200 50  0001 C CNN
F 3 "~" H 1850 1200 50  0001 C CNN
	1    1850 1200
	0    -1   -1   0   
$EndComp
$Comp
L Device:R_Small_US R1
U 1 1 5F3999B3
P 1850 1100
F 0 "R1" V 1950 1200 50  0000 C CNN
F 1 "5.1k" V 1950 1000 50  0000 C CNN
F 2 "Resistor_SMD:R_0603_1608Metric" H 1850 1100 50  0001 C CNN
F 3 "~" H 1850 1100 50  0001 C CNN
	1    1850 1100
	0    -1   -1   0   
$EndComp
Wire Wire Line
	1650 1100 1750 1100
Wire Wire Line
	1650 1200 1750 1200
Wire Wire Line
	1950 1200 2050 1200
Wire Wire Line
	1950 1100 2050 1100
Wire Wire Line
	2050 1100 2050 1200
Connection ~ 2050 1200
Wire Wire Line
	2050 1200 2100 1200
$Comp
L power:GND #PWR0117
U 1 1 5F44AF39
P 2100 1200
F 0 "#PWR0117" H 2100 950 50  0001 C CNN
F 1 "GND" H 2105 1027 50  0000 C CNN
F 2 "" H 2100 1200 50  0001 C CNN
F 3 "" H 2100 1200 50  0001 C CNN
	1    2100 1200
	0    -1   -1   0   
$EndComp
Wire Wire Line
	2300 1700 2300 1650
Wire Wire Line
	2300 1650 2850 1650
Wire Wire Line
	2300 1900 2300 1950
NoConn ~ 1650 2000
NoConn ~ 1650 2100
$Comp
L power:+3.3V #PWR0118
U 1 1 5F52F4E4
P 2650 1900
F 0 "#PWR0118" H 2650 1750 50  0001 C CNN
F 1 "+3.3V" H 2665 2073 50  0000 C CNN
F 2 "" H 2650 1900 50  0001 C CNN
F 3 "" H 2650 1900 50  0001 C CNN
	1    2650 1900
	1    0    0    -1  
$EndComp
Wire Wire Line
	2300 1950 2650 1950
Wire Wire Line
	2650 1950 2650 1900
Wire Notes Line
	550  550  550  2800
Wire Notes Line
	2900 550  2900 2800
Text Notes 2400 800  0    50   ~ 0
USB-C\nReceptacle
Text Label 3500 2200 2    50   ~ 0
REF_3V3
Wire Wire Line
	2250 5550 2350 5550
Connection ~ 2350 5550
$Comp
L Device:Ferrite_Bead_Small FB1
U 1 1 60141474
P 3700 2200
F 0 "FB1" V 3900 2200 50  0000 C CNN
F 1 "Ferrite_0603" V 3800 2200 50  0000 C CNN
F 2 "Inductor_SMD:L_0603_1608Metric" V 3630 2200 50  0001 C CNN
F 3 "~" H 3700 2200 50  0001 C CNN
	1    3700 2200
	0    1    1    0   
$EndComp
$Comp
L graviton_control-rescue:SW_Push_Dual_2-3-flip-Copperforge-graviton_control-rescue SW1
U 1 1 60DE69C3
P 3700 1700
F 0 "SW1" H 3700 1985 50  0000 C CNN
F 1 "PTS 645 SK50" H 3700 1894 50  0000 C CNN
F 2 "Copperforge:PTS645SK50SMTR92" H 3700 1900 50  0001 C CNN
F 3 "~" H 3700 1900 50  0001 C CNN
	1    3700 1700
	1    0    0    -1  
$EndComp
Wire Wire Line
	3600 2200 3500 2200
Text Label 3500 2000 2    50   ~ 0
BOOT0
Wire Notes Line
	550  4050 2400 4050
Wire Notes Line
	2400 4050 2400 2900
Wire Notes Line
	2400 2900 550  2900
Wire Notes Line
	550  2900 550  4050
$Comp
L Device:LED D1
U 1 1 618B2539
P 8425 950
F 0 "D1" H 8418 1166 50  0000 C CNN
F 1 "C190KGKT" H 8418 1075 50  0000 C CNN
F 2 "Diode_SMD:D_0603_1608Metric" H 8425 950 50  0001 C CNN
F 3 "~" H 8425 950 50  0001 C CNN
	1    8425 950 
	1    0    0    -1  
$EndComp
Wire Wire Line
	8575 950  8625 950 
Wire Wire Line
	8275 950  8125 950 
$Comp
L Device:C C23
U 1 1 618F8A8C
P 10050 2600
F 0 "C23" H 10165 2646 50  0000 L CNN
F 1 "4.7uF" H 10165 2555 50  0000 L CNN
F 2 "Capacitor_SMD:C_1206_3216Metric" H 10088 2450 50  0001 C CNN
F 3 "~" H 10050 2600 50  0001 C CNN
	1    10050 2600
	1    0    0    -1  
$EndComp
$Comp
L Device:C C24
U 1 1 61CB1EB8
P 10500 2600
F 0 "C24" H 10615 2646 50  0000 L CNN
F 1 "0.1uF" H 10615 2555 50  0000 L CNN
F 2 "Capacitor_SMD:C_0603_1608Metric" H 10538 2450 50  0001 C CNN
F 3 "~" H 10500 2600 50  0001 C CNN
	1    10500 2600
	1    0    0    -1  
$EndComp
$Comp
L Device:LED D2
U 1 1 61CFD2F8
P 8425 1300
F 0 "D2" H 8418 1516 50  0000 C CNN
F 1 "C190KGKT" H 8418 1425 50  0000 C CNN
F 2 "Diode_SMD:D_0603_1608Metric" H 8425 1300 50  0001 C CNN
F 3 "~" H 8425 1300 50  0001 C CNN
	1    8425 1300
	1    0    0    -1  
$EndComp
$Comp
L Device:R_US R6
U 1 1 61CFD2FE
P 8775 1300
F 0 "R6" V 8570 1300 50  0000 C CNN
F 1 "300" V 8661 1300 50  0000 C CNN
F 2 "Resistor_SMD:R_0603_1608Metric" V 8815 1290 50  0001 C CNN
F 3 "~" H 8775 1300 50  0001 C CNN
	1    8775 1300
	0    1    1    0   
$EndComp
Wire Wire Line
	8575 1300 8625 1300
Wire Wire Line
	8275 1300 8125 1300
Wire Wire Line
	8125 1650 8125 1700
$Comp
L power:GND #PWR0125
U 1 1 61CFD307
P 8125 1700
F 0 "#PWR0125" H 8125 1450 50  0001 C CNN
F 1 "GND" H 8130 1527 50  0000 C CNN
F 2 "" H 8125 1700 50  0001 C CNN
F 3 "" H 8125 1700 50  0001 C CNN
	1    8125 1700
	1    0    0    -1  
$EndComp
Wire Wire Line
	8125 950  8125 1300
$Comp
L power:+5V #PWR?
U 1 1 61DE05B4
P 9025 900
AR Path="/618F914E/61DE05B4" Ref="#PWR?"  Part="1" 
AR Path="/61DE05B4" Ref="#PWR0126"  Part="1" 
F 0 "#PWR0126" H 9025 750 50  0001 C CNN
F 1 "+5V" H 9040 1073 50  0000 C CNN
F 2 "" H 9025 900 50  0001 C CNN
F 3 "" H 9025 900 50  0001 C CNN
	1    9025 900 
	1    0    0    -1  
$EndComp
Wire Wire Line
	9025 900  9025 950 
$Comp
L power:+3.3V #PWR0127
U 1 1 6207AA07
P 9025 1250
F 0 "#PWR0127" H 9025 1100 50  0001 C CNN
F 1 "+3.3V" H 9040 1423 50  0000 C CNN
F 2 "" H 9025 1250 50  0001 C CNN
F 3 "" H 9025 1250 50  0001 C CNN
	1    9025 1250
	1    0    0    -1  
$EndComp
Wire Wire Line
	8925 1300 9025 1300
Wire Wire Line
	9025 1300 9025 1250
Wire Wire Line
	8925 950  9025 950 
$Comp
L Connector_Generic:Conn_02x40_Odd_Even J?
U 1 1 62407754
P 12200 4500
AR Path="/618F914E/62407754" Ref="J?"  Part="1" 
AR Path="/62407754" Ref="J3"  Part="1" 
AR Path="/623548EE/62407754" Ref="J?"  Part="1" 
F 0 "J3" H 12750 6400 50  0000 C CNN
F 1 "Input" H 12800 6300 50  0000 C CNN
F 2 "copperforge:M557108042R" H 12200 4500 50  0001 C CNN
F 3 "~" H 12200 4500 50  0001 C CNN
	1    12200 4500
	1    0    0    1   
$EndComp
$Comp
L power:GND #PWR?
U 1 1 62407760
P 11225 2800
AR Path="/618F914E/62407760" Ref="#PWR?"  Part="1" 
AR Path="/62407760" Ref="#PWR0128"  Part="1" 
AR Path="/623548EE/62407760" Ref="#PWR?"  Part="1" 
F 0 "#PWR0128" H 11225 2550 50  0001 C CNN
F 1 "GND" H 11230 2627 50  0000 C CNN
F 2 "" H 11225 2800 50  0001 C CNN
F 3 "" H 11225 2800 50  0001 C CNN
	1    11225 2800
	1    0    0    -1  
$EndComp
Text Label 11950 2900 2    50   ~ 0
SERVO_PWM_IN
Wire Wire Line
	11950 2900 12000 2900
Text Label 11950 3000 2    50   ~ 0
BRAKE_H
Wire Wire Line
	11950 3000 12000 3000
Text Label 11950 3200 2    50   ~ 0
HALL_B
Wire Wire Line
	12000 3200 11950 3200
Text Label 11950 3400 2    50   ~ 0
PF6
Text Label 11950 3500 2    50   ~ 0
MOTOR_ENCODER_B
Text Label 11950 3700 2    50   ~ 0
PD15
Text Label 11950 3800 2    50   ~ 0
PD11
Text Label 11950 4000 2    50   ~ 0
ENCODERSPI_MOSI
Text Label 11950 4100 2    50   ~ 0
ENCODERSPI_SCK
Text Label 11950 4200 2    50   ~ 0
PB11
Text Label 11950 4400 2    50   ~ 0
PHASE_C_H
Text Label 11950 4500 2    50   ~ 0
PHASE_B_H
Text Label 11950 4600 2    50   ~ 0
PHASE_A_H
Text Label 11950 4800 2    50   ~ 0
PB1
Text Label 11950 5200 2    50   ~ 0
POWERSPI_MOSI
Text Label 11950 5400 2    50   ~ 0
POWERSPI_SCK
Text Label 11950 5600 2    50   ~ 0
PA1
Text Label 11950 5900 2    50   ~ 0
PF10
Text Label 11950 6000 2    50   ~ 0
PC15
Text Label 11950 6100 2    50   ~ 0
PC13
Text Label 11950 6200 2    50   ~ 0
PE5
Text Label 11950 6300 2    50   ~ 0
PE3
$Comp
L power:GND #PWR?
U 1 1 62407784
P 11500 6400
AR Path="/618F914E/62407784" Ref="#PWR?"  Part="1" 
AR Path="/62407784" Ref="#PWR0129"  Part="1" 
AR Path="/623548EE/62407784" Ref="#PWR?"  Part="1" 
F 0 "#PWR0129" H 11500 6150 50  0001 C CNN
F 1 "GND" H 11505 6227 50  0000 C CNN
F 2 "" H 11500 6400 50  0001 C CNN
F 3 "" H 11500 6400 50  0001 C CNN
	1    11500 6400
	1    0    0    -1  
$EndComp
Wire Wire Line
	11950 6300 12000 6300
Wire Wire Line
	11950 6200 12000 6200
Wire Wire Line
	11950 6100 12000 6100
Wire Wire Line
	11950 6000 12000 6000
Wire Wire Line
	11950 5900 12000 5900
Wire Wire Line
	11950 5600 12000 5600
Wire Wire Line
	11950 5400 12000 5400
Wire Wire Line
	11950 5200 12000 5200
Wire Wire Line
	11950 4800 12000 4800
Wire Wire Line
	11950 4600 12000 4600
Wire Wire Line
	11950 4500 12000 4500
Wire Wire Line
	11950 4400 12000 4400
Wire Wire Line
	11950 4200 12000 4200
Wire Wire Line
	11950 4100 12000 4100
Wire Wire Line
	11950 4000 12000 4000
Wire Wire Line
	11950 3800 12000 3800
Wire Wire Line
	11950 3400 12000 3400
Wire Wire Line
	12000 3500 11950 3500
Wire Wire Line
	11950 3700 12000 3700
Wire Wire Line
	12500 5600 12550 5600
Wire Wire Line
	12500 5800 12550 5800
Wire Wire Line
	12000 5800 11950 5800
Wire Wire Line
	12500 5900 12550 5900
Wire Wire Line
	12500 6000 12550 6000
Wire Wire Line
	12500 6100 12550 6100
Wire Wire Line
	12500 6200 12550 6200
Wire Wire Line
	12500 6300 12550 6300
Text Label 12550 6300 0    50   ~ 0
PE2
Text Label 12550 6200 0    50   ~ 0
PE4
Text Label 12550 6100 0    50   ~ 0
PE6
Text Label 12550 6000 0    50   ~ 0
PC14
Text Label 12550 5900 0    50   ~ 0
PWM_IN_CH2
Text Label 11950 5800 2    50   ~ 0
PF1
Text Label 12550 5800 0    50   ~ 0
PC1
Text Label 12550 5600 0    50   ~ 0
PA4
Wire Wire Line
	12500 5100 12550 5100
Wire Wire Line
	12500 5200 12550 5200
Wire Wire Line
	12500 5300 12550 5300
Wire Wire Line
	12500 5400 12550 5400
Wire Wire Line
	12000 5500 11950 5500
Text Label 11950 5500 2    50   ~ 0
PB0
Text Label 12550 5400 0    50   ~ 0
PB2
Text Label 12550 5300 0    50   ~ 0
PHASE_A_L
Text Label 12550 5200 0    50   ~ 0
PHASE_B_L
Text Label 12550 5100 0    50   ~ 0
PHASE_C_L
Wire Wire Line
	12550 3500 12500 3500
Text Label 12550 3500 0    50   ~ 0
HALL_A
Wire Wire Line
	12550 3300 12500 3300
Text Label 12550 3300 0    50   ~ 0
HALL_C
Wire Wire Line
	12550 3200 12500 3200
Text Label 12550 3200 0    50   ~ 0
BRAKE_L
Text Label 12550 2900 0    50   ~ 0
PB3
Text Label 12550 3000 0    50   ~ 0
PA15
Wire Wire Line
	12550 2900 12500 2900
Wire Wire Line
	12500 3000 12550 3000
Text Label 12750 5500 0    50   ~ 0
INVERTER_CS
Wire Wire Line
	12500 5500 12750 5500
Text Label 11750 4900 2    50   ~ 0
HALFH_CS
Wire Wire Line
	11750 4900 12000 4900
Text Label 11750 3100 2    50   ~ 0
INVERTER_ENABLE
Wire Wire Line
	11750 3100 12000 3100
Text Label 12775 3400 0    50   ~ 0
INVERTER_FAULT
Wire Wire Line
	12500 3400 12775 3400
Text Label 8850 2625 2    50   ~ 0
REF_3V3_PWR
Text Label 8850 2825 2    50   ~ 0
HALFH_OOS
Text Label 8850 3025 2    50   ~ 0
PHASE_SENSE_A
Text Label 8850 3225 2    50   ~ 0
PHASE_SENSE_B
Text Label 8850 3625 2    50   ~ 0
VBUS_SENSE
Text Label 8850 3825 2    50   ~ 0
BRAKE_SENSE
Text Label 11950 5300 2    50   ~ 0
POWERSPI_MISO
Wire Wire Line
	12000 5300 11950 5300
Wire Wire Line
	11725 3900 12000 3900
Text Label 11725 3900 2    50   ~ 0
HALFH_RESET
Text Label 8850 4025 2    50   ~ 0
VBUS_VOLTAGE
Wire Wire Line
	12500 4200 12550 4200
Text Label 12550 4200 0    50   ~ 0
PC8
Text Label 12550 4400 0    50   ~ 0
MOTOR_THERMISTOR
Wire Wire Line
	12500 4600 12800 4600
Wire Wire Line
	12500 4700 12800 4700
Text Label 12800 4700 0    50   ~ 0
HALFH_DIAG
Text Label 12800 4600 0    50   ~ 0
HALFH_ENABLE
Text Label 12550 4100 0    50   ~ 0
PERIPH_I2C_SDA
Text Label 12550 4000 0    50   ~ 0
PERIPH_I2C_SCL
Wire Wire Line
	12550 3700 12500 3700
Wire Wire Line
	12500 3800 12550 3800
Wire Wire Line
	12550 3900 12500 3900
Text Label 12550 3900 0    50   ~ 0
PERIPH_SPI_SCK
Text Label 12550 3800 0    50   ~ 0
PERIPH_SPI_MISO
Text Label 12550 3700 0    50   ~ 0
PERIPH_SPI_MOSI
Text Label 12550 4300 0    50   ~ 0
MOTOR_ENCODER_A
Text Label 12550 4500 0    50   ~ 0
PWM_IN_CH1
Wire Wire Line
	12500 4300 12550 4300
Wire Wire Line
	12500 4500 12550 4500
Text Label 12550 4800 0    50   ~ 0
ENCODERSPI_MISO
Text Label 12550 4900 0    50   ~ 0
PB12
Text Label 11950 5100 2    50   ~ 0
PB10
Wire Wire Line
	12000 5100 11950 5100
Wire Wire Line
	12500 4900 12550 4900
Wire Wire Line
	12500 4800 12550 4800
Wire Wire Line
	12500 2800 12650 2800
Wire Wire Line
	12650 2800 12650 2775
Wire Wire Line
	12650 2775 11775 2775
Wire Wire Line
	11775 2775 11775 2800
Connection ~ 11775 2800
Wire Wire Line
	11775 2800 12000 2800
Wire Wire Line
	9650 2525 9700 2525
Wire Wire Line
	9700 2525 9700 2500
Wire Wire Line
	9700 2500 9150 2500
Wire Wire Line
	9150 2500 9150 2525
Wire Wire Line
	9650 2725 9700 2725
Wire Wire Line
	9700 2725 9700 2700
Wire Wire Line
	9700 2700 9150 2700
Wire Wire Line
	9150 2700 9150 2725
Wire Wire Line
	9650 2925 9700 2925
Wire Wire Line
	9700 2925 9700 2900
Wire Wire Line
	9700 2900 9150 2900
Wire Wire Line
	9150 2900 9150 2925
Wire Wire Line
	9650 3125 9700 3125
Wire Wire Line
	9700 3125 9700 3100
Wire Wire Line
	9700 3100 9150 3100
Wire Wire Line
	9150 3100 9150 3125
Wire Wire Line
	9650 3325 9700 3325
Wire Wire Line
	9700 3325 9700 3300
Wire Wire Line
	9650 3925 9700 3925
Wire Wire Line
	9700 3925 9700 3900
Wire Wire Line
	9700 3900 9150 3900
Wire Wire Line
	9150 3900 9150 3925
Wire Wire Line
	9650 3725 9700 3725
Wire Wire Line
	9700 3725 9700 3700
Wire Wire Line
	9700 3700 9150 3700
Wire Wire Line
	9150 3700 9150 3725
Wire Wire Line
	9650 3525 9700 3525
Wire Wire Line
	9700 3525 9700 3500
Wire Wire Line
	9700 3500 9150 3500
Wire Wire Line
	9150 3500 9150 3525
Wire Wire Line
	9650 4125 9700 4125
Wire Wire Line
	9700 4125 9700 4100
Wire Wire Line
	9700 4100 9150 4100
Wire Wire Line
	9150 4100 9150 4125
Wire Wire Line
	9650 4325 9700 4325
Wire Wire Line
	9700 4325 9700 4300
Wire Wire Line
	9700 4300 9150 4300
Wire Wire Line
	9150 4300 9150 4325
Wire Wire Line
	12500 2600 12650 2600
Wire Wire Line
	12650 2575 11775 2575
Wire Wire Line
	11775 2575 11775 2600
Wire Wire Line
	11500 6400 11800 6400
Wire Wire Line
	12500 6400 12575 6400
Wire Wire Line
	12575 6400 12575 6375
Wire Wire Line
	12575 6375 11800 6375
Wire Wire Line
	11800 6375 11800 6400
Connection ~ 11800 6400
Wire Wire Line
	11800 6400 12000 6400
Text Label 8850 4225 2    50   ~ 0
PC0
Wire Wire Line
	8850 4225 9150 4225
Text Label 8850 4425 2    50   ~ 0
PF2
Wire Wire Line
	8850 4425 9150 4425
$Comp
L power:GND #PWR?
U 1 1 624078B2
P 11175 4300
AR Path="/618F914E/624078B2" Ref="#PWR?"  Part="1" 
AR Path="/624078B2" Ref="#PWR0140"  Part="1" 
AR Path="/623548EE/624078B2" Ref="#PWR?"  Part="1" 
F 0 "#PWR0140" H 11175 4050 50  0001 C CNN
F 1 "GND" H 11180 4127 50  0000 C CNN
F 2 "" H 11175 4300 50  0001 C CNN
F 3 "" H 11175 4300 50  0001 C CNN
	1    11175 4300
	1    0    0    -1  
$EndComp
Wire Wire Line
	11175 4300 12000 4300
$Comp
L power:GND #PWR?
U 1 1 624078B9
P 11175 3600
AR Path="/618F914E/624078B9" Ref="#PWR?"  Part="1" 
AR Path="/624078B9" Ref="#PWR0141"  Part="1" 
AR Path="/623548EE/624078B9" Ref="#PWR?"  Part="1" 
F 0 "#PWR0141" H 11175 3350 50  0001 C CNN
F 1 "GND" H 11180 3427 50  0000 C CNN
F 2 "" H 11175 3600 50  0001 C CNN
F 3 "" H 11175 3600 50  0001 C CNN
	1    11175 3600
	1    0    0    -1  
$EndComp
$Comp
L power:GND #PWR?
U 1 1 624078BF
P 11175 5000
AR Path="/618F914E/624078BF" Ref="#PWR?"  Part="1" 
AR Path="/624078BF" Ref="#PWR0142"  Part="1" 
AR Path="/623548EE/624078BF" Ref="#PWR?"  Part="1" 
F 0 "#PWR0142" H 11175 4750 50  0001 C CNN
F 1 "GND" H 11180 4827 50  0000 C CNN
F 2 "" H 11175 5000 50  0001 C CNN
F 3 "" H 11175 5000 50  0001 C CNN
	1    11175 5000
	1    0    0    -1  
$EndComp
$Comp
L power:GND #PWR?
U 1 1 624078C5
P 11175 5700
AR Path="/618F914E/624078C5" Ref="#PWR?"  Part="1" 
AR Path="/624078C5" Ref="#PWR0143"  Part="1" 
AR Path="/623548EE/624078C5" Ref="#PWR?"  Part="1" 
F 0 "#PWR0143" H 11175 5450 50  0001 C CNN
F 1 "GND" H 11180 5527 50  0000 C CNN
F 2 "" H 11175 5700 50  0001 C CNN
F 3 "" H 11175 5700 50  0001 C CNN
	1    11175 5700
	1    0    0    -1  
$EndComp
Wire Wire Line
	11175 5700 11850 5700
Wire Wire Line
	11175 5000 11775 5000
Wire Wire Line
	11175 3600 11825 3600
Wire Wire Line
	12500 3600 12675 3600
Wire Wire Line
	12675 3600 12675 3575
Wire Wire Line
	12675 3575 11825 3575
Wire Wire Line
	11825 3575 11825 3600
Connection ~ 11825 3600
Wire Wire Line
	11825 3600 12000 3600
Wire Wire Line
	12500 5000 12825 5000
Wire Wire Line
	12825 5000 12825 4975
Wire Wire Line
	12825 4975 11775 4975
Wire Wire Line
	11775 4975 11775 5000
Connection ~ 11775 5000
Wire Wire Line
	11775 5000 12000 5000
Wire Wire Line
	12500 5700 12850 5700
Wire Wire Line
	12850 5700 12850 5675
Wire Wire Line
	12850 5675 11850 5675
Wire Wire Line
	11850 5675 11850 5700
Connection ~ 11850 5700
Wire Wire Line
	11850 5700 12000 5700
Text Label 12750 3100 0    50   ~ 0
SD_CS
Wire Wire Line
	12500 3100 12750 3100
Text Label 11750 3300 2    50   ~ 0
SD_SENSE
Wire Wire Line
	11750 3300 12000 3300
Text Label 11700 4700 2    50   ~ 0
ADC_CS
Wire Wire Line
	11700 4700 12000 4700
Wire Wire Line
	12550 4400 12500 4400
Wire Wire Line
	10500 2750 10500 2800
Wire Wire Line
	10500 2800 10050 2800
Wire Wire Line
	10050 2800 10050 2750
$Comp
L power:GND #PWR?
U 1 1 62F95B60
P 10500 2850
AR Path="/618F914E/62F95B60" Ref="#PWR?"  Part="1" 
AR Path="/62F95B60" Ref="#PWR0145"  Part="1" 
AR Path="/623548EE/62F95B60" Ref="#PWR?"  Part="1" 
F 0 "#PWR0145" H 10500 2600 50  0001 C CNN
F 1 "GND" H 10505 2677 50  0000 C CNN
F 2 "" H 10500 2850 50  0001 C CNN
F 3 "" H 10500 2850 50  0001 C CNN
	1    10500 2850
	1    0    0    -1  
$EndComp
Wire Notes Line
	13400 2000 13400 600 
Wire Notes Line
	11600 600  11600 2000
Wire Notes Line
	11600 600  13400 600 
Wire Notes Line
	11600 2000 13400 2000
Wire Notes Line
	11500 600  11500 2000
Wire Notes Line
	9725 2000 9725 600 
Text Notes 1950 3150 0    50   ~ 0
MEMS\nOscillator
Text Label 1900 3400 0    50   ~ 0
OSC_IN
Wire Wire Line
	1750 3750 1750 3700
$Comp
L power:GND #PWR0146
U 1 1 61394977
P 1750 3800
F 0 "#PWR0146" H 1750 3550 50  0001 C CNN
F 1 "GND" H 1755 3627 50  0000 C CNN
F 2 "" H 1750 3800 50  0001 C CNN
F 3 "" H 1750 3800 50  0001 C CNN
	1    1750 3800
	1    0    0    -1  
$EndComp
Wire Wire Line
	700  3400 800  3400
Wire Wire Line
	700  3450 700  3400
$Comp
L power:GND #PWR0147
U 1 1 613425D0
P 700 3450
F 0 "#PWR0147" H 700 3200 50  0001 C CNN
F 1 "GND" H 705 3277 50  0000 C CNN
F 2 "" H 700 3450 50  0001 C CNN
F 3 "" H 700 3450 50  0001 C CNN
	1    700  3450
	1    0    0    -1  
$EndComp
Wire Wire Line
	1750 3300 1750 3250
Wire Wire Line
	1650 3300 1750 3300
$Comp
L Device:C_Small C25
U 1 1 610BF556
P 1750 3600
F 0 "C25" H 1750 3700 50  0000 L CNN
F 1 "0.1uF" H 1750 3500 50  0000 L CNN
F 2 "Capacitor_SMD:C_0603_1608Metric" H 1750 3600 50  0001 C CNN
F 3 "~" H 1750 3600 50  0001 C CNN
	1    1750 3600
	1    0    0    -1  
$EndComp
$Comp
L power:+3.3V #PWR0148
U 1 1 610BED55
P 1750 3250
F 0 "#PWR0148" H 1750 3100 50  0001 C CNN
F 1 "+3.3V" H 1765 3423 50  0000 C CNN
F 2 "" H 1750 3250 50  0001 C CNN
F 3 "" H 1750 3250 50  0001 C CNN
	1    1750 3250
	1    0    0    -1  
$EndComp
$Comp
L graviton_control-rescue:DSC1001DI5-Copperforge X1
U 1 1 60FCF025
P 1300 3200
F 0 "X1" H 1225 3365 50  0000 C CNN
F 1 "DSC1001DI5" H 1225 3274 50  0000 C CNN
F 2 "Copperforge:Oscillator_SMD_Micron_4Pin_2.0x2.5mm" H 1300 3200 50  0001 C CNN
F 3 "" H 1300 3200 50  0001 C CNN
	1    1300 3200
	1    0    0    -1  
$EndComp
Text Notes 11050 850  0    50   ~ 0
3.3V\nRegulator
Text Notes 12950 850  0    50   ~ 0
3.3V\nReference
NoConn ~ 2400 6450
Wire Wire Line
	9650 4425 9700 4425
Wire Wire Line
	9700 4425 9700 4400
Wire Wire Line
	9700 4400 9150 4400
Wire Wire Line
	9150 4400 9150 4425
Wire Wire Line
	9650 4225 9700 4225
Wire Wire Line
	9700 4225 9700 4200
Wire Wire Line
	9700 4200 9150 4200
Wire Wire Line
	9150 4200 9150 4225
Wire Wire Line
	9650 4025 9700 4025
Wire Wire Line
	9700 4025 9700 4000
Wire Wire Line
	9700 4000 9150 4000
Wire Wire Line
	9150 4000 9150 4025
Wire Wire Line
	9650 3825 9700 3825
Wire Wire Line
	9700 3825 9700 3800
Wire Wire Line
	9700 3800 9150 3800
Wire Wire Line
	9150 3800 9150 3825
Wire Wire Line
	9650 3625 9700 3625
Wire Wire Line
	9700 3625 9700 3600
Wire Wire Line
	9700 3600 9150 3600
Wire Wire Line
	9150 3600 9150 3625
Wire Wire Line
	9650 3425 9700 3425
Wire Wire Line
	9700 3425 9700 3400
Wire Wire Line
	9700 3400 9150 3400
Wire Wire Line
	9150 3400 9150 3425
Wire Wire Line
	9650 3225 9700 3225
Wire Wire Line
	9700 3225 9700 3200
Wire Wire Line
	9700 3200 9150 3200
Wire Wire Line
	9150 3200 9150 3225
Wire Wire Line
	9650 3025 9700 3025
Wire Wire Line
	9700 3025 9700 3000
Wire Wire Line
	9700 3000 9150 3000
Wire Wire Line
	9150 3000 9150 3025
Wire Wire Line
	9650 2825 9700 2825
Wire Wire Line
	9700 2825 9700 2800
Wire Wire Line
	9700 2800 9150 2800
Wire Wire Line
	9150 2800 9150 2825
Wire Wire Line
	9650 2625 9700 2625
Wire Wire Line
	9700 2625 9700 2600
Wire Wire Line
	9700 2600 9150 2600
Wire Wire Line
	9150 2600 9150 2625
Text Label 8850 3425 2    50   ~ 0
PHASE_SENSE_C
$Comp
L power:PWR_FLAG #FLG01
U 1 1 63A53EED
P 12650 2800
F 0 "#FLG01" H 12650 2875 50  0001 C CNN
F 1 "PWR_FLAG" V 12650 2928 50  0000 L CNN
F 2 "" H 12650 2800 50  0001 C CNN
F 3 "~" H 12650 2800 50  0001 C CNN
	1    12650 2800
	0    1    1    0   
$EndComp
Wire Wire Line
	12550 4000 12500 4000
Wire Wire Line
	12500 4100 12550 4100
$Comp
L Connector:USB_C_Receptacle_USB2.0 J1
U 1 1 5E3D4F5E
P 1050 1500
F 0 "J1" H 1157 2367 50  0000 C CNN
F 1 "2073-USB4085-GF-ACT-ND" H 1157 2276 50  0000 C CNN
F 2 "Copperforge:GCT_USB4085-GF-A_REVA" H 1200 1500 50  0001 C CNN
F 3 "https://www.usb.org/sites/default/files/documents/usb_type-c.zip" H 1200 1500 50  0001 C CNN
	1    1050 1500
	1    0    0    -1  
$EndComp
$Comp
L Device:LED D3
U 1 1 63CF7648
P 8425 1650
F 0 "D3" H 8418 1866 50  0000 C CNN
F 1 "C190KFKT" H 8418 1775 50  0000 C CNN
F 2 "Diode_SMD:D_0603_1608Metric" H 8425 1650 50  0001 C CNN
F 3 "~" H 8425 1650 50  0001 C CNN
	1    8425 1650
	1    0    0    -1  
$EndComp
$Comp
L Device:R_US R7
U 1 1 63CF7BF6
P 8775 1650
F 0 "R7" V 8570 1650 50  0000 C CNN
F 1 "300" V 8661 1650 50  0000 C CNN
F 2 "Resistor_SMD:R_0603_1608Metric" V 8815 1640 50  0001 C CNN
F 3 "~" H 8775 1650 50  0001 C CNN
	1    8775 1650
	0    1    1    0   
$EndComp
Wire Wire Line
	8275 1650 8125 1650
Wire Wire Line
	8125 1300 8125 1650
Connection ~ 8125 1300
Connection ~ 8125 1650
Wire Wire Line
	8925 1650 9025 1650
Wire Wire Line
	8625 1650 8575 1650
Text Label 9025 1650 0    50   ~ 0
STATUS_LED
Wire Wire Line
	8850 2625 9150 2625
Wire Wire Line
	9150 2825 8850 2825
Wire Wire Line
	8850 3025 9150 3025
Wire Wire Line
	9150 3225 8850 3225
Wire Wire Line
	8850 3425 9150 3425
Wire Wire Line
	9150 3625 8850 3625
Wire Wire Line
	8850 3825 9150 3825
Wire Wire Line
	9150 4025 8850 4025
Connection ~ 10500 2800
Wire Wire Line
	4450 6300 5050 6300
Text Label 4450 6300 2    50   ~ 0
PD11
Wire Wire Line
	4950 1700 4950 1800
Wire Wire Line
	4850 1700 4950 1700
Text Label 4850 1700 2    50   ~ 0
NRST
Wire Wire Line
	4450 4100 5050 4100
Wire Wire Line
	5050 4000 4450 4000
Wire Wire Line
	4450 3900 5050 3900
Wire Wire Line
	5050 3800 4450 3800
Wire Wire Line
	4450 3700 5050 3700
Wire Wire Line
	6650 2200 7300 2200
Text Label 5050 3000 2    50   ~ 0
PF2
Text Label 5050 6500 2    50   ~ 0
REF_3V3_PWR
Text Label 6650 5200 0    50   ~ 0
PC0
Wire Wire Line
	6650 5300 7250 5300
Wire Wire Line
	7500 3900 6650 3900
Text Label 7500 3900 0    50   ~ 0
PB3
Wire Wire Line
	7250 3300 6650 3300
Text Label 7250 3300 0    50   ~ 0
PA15
Text Label 6650 6000 0    50   ~ 0
PC8
Text Label 7300 2200 0    50   ~ 0
PA4
Text Label 7250 5300 0    50   ~ 0
PC1
Text Label 6650 6600 0    50   ~ 0
PC14
Text Label 4450 4100 2    50   ~ 0
PE6
Text Label 4450 3900 2    50   ~ 0
PE4
Text Label 4450 3700 2    50   ~ 0
PE2
Text Label 4450 3800 2    50   ~ 0
PE3
Text Label 4450 4000 2    50   ~ 0
PE5
Text Label 6650 6500 0    50   ~ 0
PC13
Text Label 6650 6700 0    50   ~ 0
PC15
Text Label 5050 3300 2    50   ~ 0
PF10
Text Label 5050 2900 2    50   ~ 0
PF1
Wire Wire Line
	7250 1900 6650 1900
Text Label 7250 1900 0    50   ~ 0
PA1
Wire Wire Line
	7250 3500 6650 3500
Text Label 7250 3500 0    50   ~ 0
PB0
Wire Wire Line
	7250 4500 6650 4500
Text Label 7250 4500 0    50   ~ 0
PB10
Text Label 6650 3600 0    50   ~ 0
PB1
Text Label 5050 4200 2    50   ~ 0
ADC_CS
Wire Wire Line
	7250 4600 6650 4600
Text Label 7250 4600 0    50   ~ 0
PB11
Text Label 5050 6700 2    50   ~ 0
PD15
Text Label 5050 3100 2    50   ~ 0
PF6
Wire Wire Line
	7250 4700 6650 4700
Text Label 7250 4700 0    50   ~ 0
PB12
Text Label 6650 3700 0    50   ~ 0
PB2
Wire Wire Line
	4150 2800 5050 2800
Wire Wire Line
	3950 2500 4050 2500
Wire Wire Line
	3950 2550 3950 2500
Connection ~ 4050 2500
Wire Wire Line
	3500 2000 4300 2000
Connection ~ 4050 1800
Wire Wire Line
	4050 1800 3900 1800
Wire Wire Line
	4050 2250 4050 1800
Wire Wire Line
	4500 2500 4300 2500
Connection ~ 4500 2500
Wire Wire Line
	4500 2450 4500 2500
Wire Wire Line
	4300 2500 4050 2500
Connection ~ 4300 2500
Wire Wire Line
	4300 2450 4300 2500
Connection ~ 4750 2500
Wire Wire Line
	4050 2500 4050 2450
Wire Wire Line
	4750 2500 4500 2500
Connection ~ 4300 2000
Connection ~ 4500 2000
Wire Wire Line
	4500 2000 5050 2000
Wire Wire Line
	4300 2000 4500 2000
Wire Wire Line
	4300 2250 4300 2000
$Comp
L Device:R_Small_US R4
U 1 1 6095D4CF
P 4300 2350
F 0 "R4" H 4300 2450 50  0000 L CNN
F 1 "5.1k" H 4300 2250 50  0000 L CNN
F 2 "Resistor_SMD:R_0603_1608Metric" H 4300 2350 50  0001 C CNN
F 3 "~" H 4300 2350 50  0001 C CNN
	1    4300 2350
	1    0    0    -1  
$EndComp
Connection ~ 4950 2200
Wire Wire Line
	5050 2200 4950 2200
$Comp
L Device:C_Small C19
U 1 1 6074ED30
P 4050 2350
F 0 "C19" H 4050 2450 50  0000 L CNN
F 1 "0.1uF" H 4050 2250 50  0000 L CNN
F 2 "Capacitor_SMD:C_0603_1608Metric" H 4050 2350 50  0001 C CNN
F 3 "~" H 4050 2350 50  0001 C CNN
	1    4050 2350
	1    0    0    -1  
$EndComp
Wire Wire Line
	4500 2250 4500 2000
$Comp
L Device:C_Small C20
U 1 1 604F2D10
P 4500 2350
F 0 "C20" H 4500 2450 50  0000 L CNN
F 1 "0.1uF" H 4500 2250 50  0000 L CNN
F 2 "Capacitor_SMD:C_0603_1608Metric" H 4500 2350 50  0001 C CNN
F 3 "~" H 4500 2350 50  0001 C CNN
	1    4500 2350
	1    0    0    -1  
$EndComp
Wire Wire Line
	4750 2500 4950 2500
$Comp
L power:GND #PWR0123
U 1 1 60414241
P 3950 2550
F 0 "#PWR0123" H 3950 2300 50  0001 C CNN
F 1 "GND" H 3955 2377 50  0000 C CNN
F 2 "" H 3950 2550 50  0001 C CNN
F 3 "" H 3950 2550 50  0001 C CNN
	1    3950 2550
	1    0    0    -1  
$EndComp
Wire Wire Line
	4950 2500 4950 2450
Wire Wire Line
	4750 2450 4750 2500
Wire Wire Line
	4750 2200 4950 2200
Connection ~ 4750 2200
Wire Wire Line
	4750 2250 4750 2200
Wire Wire Line
	4950 2250 4950 2200
$Comp
L Device:C_Small C21
U 1 1 60140ACA
P 4750 2350
F 0 "C21" H 4750 2450 50  0000 L CNN
F 1 "1uF" H 4750 2250 50  0000 L CNN
F 2 "Capacitor_SMD:C_0603_1608Metric" H 4750 2350 50  0001 C CNN
F 3 "~" H 4750 2350 50  0001 C CNN
	1    4750 2350
	1    0    0    -1  
$EndComp
$Comp
L Device:C_Small C22
U 1 1 60140515
P 4950 2350
F 0 "C22" H 4950 2450 50  0000 L CNN
F 1 "0.1uF" H 4950 2250 50  0000 L CNN
F 2 "Capacitor_SMD:C_0603_1608Metric" H 4950 2350 50  0001 C CNN
F 3 "~" H 4950 2350 50  0001 C CNN
	1    4950 2350
	1    0    0    -1  
$EndComp
Connection ~ 5750 1450
Wire Wire Line
	5650 1450 5750 1450
Wire Wire Line
	5650 1500 5650 1450
Connection ~ 6500 1000
Wire Wire Line
	6500 950  6500 1000
$Comp
L power:+3.3V #PWR0122
U 1 1 6001C61E
P 6500 950
F 0 "#PWR0122" H 6500 800 50  0001 C CNN
F 1 "+3.3V" H 6515 1123 50  0000 C CNN
F 2 "" H 6500 950 50  0001 C CNN
F 3 "" H 6500 950 50  0001 C CNN
	1    6500 950 
	1    0    0    -1  
$EndComp
$Comp
L power:GND #PWR0120
U 1 1 5FFDA351
P 6500 1350
F 0 "#PWR0120" H 6500 1100 50  0001 C CNN
F 1 "GND" H 6505 1177 50  0000 C CNN
F 2 "" H 6500 1350 50  0001 C CNN
F 3 "" H 6500 1350 50  0001 C CNN
	1    6500 1350
	1    0    0    -1  
$EndComp
Connection ~ 6300 1000
Wire Wire Line
	6500 1000 6500 1050
Wire Wire Line
	6300 1000 6500 1000
Connection ~ 6500 1300
Wire Wire Line
	6500 1300 6500 1350
Wire Wire Line
	6500 1300 6500 1250
Wire Wire Line
	6300 1300 6500 1300
Wire Wire Line
	6300 1250 6300 1300
Wire Wire Line
	6300 1000 6300 1050
Wire Wire Line
	6150 1000 6300 1000
Wire Wire Line
	6150 1500 6150 1000
$Comp
L Device:C_Small C13
U 1 1 5FE9C841
P 6500 1150
F 0 "C13" H 6500 1250 50  0000 L CNN
F 1 "0.01uF" H 6500 1050 50  0000 L CNN
F 2 "Capacitor_SMD:C_0603_1608Metric" H 6500 1150 50  0001 C CNN
F 3 "~" H 6500 1150 50  0001 C CNN
	1    6500 1150
	1    0    0    -1  
$EndComp
$Comp
L Device:C_Small C12
U 1 1 5FE9C4EE
P 6300 1150
F 0 "C12" H 6300 1250 50  0000 L CNN
F 1 "1uF" H 6300 1050 50  0000 L CNN
F 2 "Capacitor_SMD:C_0603_1608Metric" H 6300 1150 50  0001 C CNN
F 3 "~" H 6300 1150 50  0001 C CNN
	1    6300 1150
	1    0    0    -1  
$EndComp
Wire Wire Line
	5775 1250 5775 1300
Wire Wire Line
	5775 1050 5775 1000
Wire Wire Line
	5850 1450 5950 1450
Connection ~ 5850 1450
Wire Wire Line
	5850 1500 5850 1450
Connection ~ 5950 1450
Wire Wire Line
	5750 1450 5850 1450
Wire Wire Line
	5750 1500 5750 1450
Wire Wire Line
	6050 1450 6050 1500
Connection ~ 6050 1450
Wire Wire Line
	5950 1450 6050 1450
Wire Wire Line
	5950 1500 5950 1450
Wire Wire Line
	6050 1000 6050 1450
Entry Wire Line
	7650 2900 7750 2800
Entry Wire Line
	7650 3000 7750 2900
Wire Bus Line
	3950 5400 3950 5300
Entry Wire Line
	3950 5400 4050 5300
Entry Wire Line
	3950 5300 4050 5200
Wire Wire Line
	4050 5200 5050 5200
Wire Wire Line
	4050 5300 5050 5300
Entry Wire Line
	3200 6550 3300 6650
Text Label 6650 4300 0    50   ~ 0
SD_CS
Entry Wire Line
	7600 4300 7700 4400
Wire Wire Line
	4050 5400 5050 5400
Entry Wire Line
	3200 7350 3300 7450
Entry Wire Line
	3200 6650 3300 6750
Entry Wire Line
	3200 7050 3300 7150
Entry Wire Line
	3200 6850 3300 6950
Wire Wire Line
	5750 7050 5850 7050
Connection ~ 5750 7050
Wire Wire Line
	5750 7050 5750 7000
Wire Wire Line
	5850 7050 5950 7050
Connection ~ 5850 7050
Wire Wire Line
	5850 7000 5850 7050
Wire Wire Line
	5950 7000 5950 7050
Wire Wire Line
	5650 7050 5750 7050
Wire Wire Line
	5650 7000 5650 7050
$Comp
L power:GND #PWR0101
U 1 1 5E60E2B4
P 5650 7100
F 0 "#PWR0101" H 5650 6850 50  0001 C CNN
F 1 "GND" H 5655 6927 50  0000 C CNN
F 2 "" H 5650 7100 50  0001 C CNN
F 3 "" H 5650 7100 50  0001 C CNN
	1    5650 7100
	1    0    0    -1  
$EndComp
Entry Wire Line
	3950 5500 4050 5400
Text Label 5050 5400 2    50   ~ 0
SD_SENSE
Entry Wire Line
	7600 6400 7700 6500
Entry Wire Line
	7600 6300 7700 6400
Entry Wire Line
	7600 6200 7700 6300
Text Label 6650 6200 0    50   ~ 0
PERIPH_SPI_SCK
Text Label 6650 6300 0    50   ~ 0
PERIPH_SPI_MISO
Text Label 6650 6400 0    50   ~ 0
PERIPH_SPI_MOSI
Text Label 6650 2500 0    50   ~ 0
POWERSPI_MOSI
Text Label 6650 2400 0    50   ~ 0
POWERSPI_MISO
Text Label 6650 2300 0    50   ~ 0
POWERSPI_SCK
Text Label 6650 2200 0    50   ~ 0
DAC1_OUT1
Text Label 6650 2100 0    50   ~ 0
PHASE_SENSE_C
Text Label 6650 2000 0    50   ~ 0
PHASE_SENSE_B
Text Label 6650 1900 0    50   ~ 0
COMP1_INP
Text Label 6650 1800 0    50   ~ 0
PHASE_SENSE_A
Text Label 6650 3500 0    50   ~ 0
COMP4_INP
$Comp
L MCU_ST_STM32F3:STM32F303VETx U?
U 1 1 5E48A886
P 5850 4200
AR Path="/5E3D8925/5E48A886" Ref="U?"  Part="1" 
AR Path="/5E48A886" Ref="U1"  Part="1" 
F 0 "U1" H 6400 1550 50  0000 C CNN
F 1 "STM32F303VETx" V 5850 4200 50  0000 C CNN
F 2 "Package_QFP:LQFP-100_14x14mm_P0.5mm" H 5250 1600 50  0001 R CNN
F 3 "http://www.st.com/st-web-ui/static/active/en/resource/technical/document/datasheet/DM00118585.pdf" H 5850 4200 50  0001 C CNN
	1    5850 4200
	1    0    0    -1  
$EndComp
Text Label 5050 3200 2    50   ~ 0
PWM_IN_CH2
Text Label 5050 2800 2    50   ~ 0
OSC_IN
Text Label 6650 5000 0    50   ~ 0
ENCODERSPI_MOSI
Text Label 6650 4900 0    50   ~ 0
ENCODERSPI_MISO
Text Label 6650 4800 0    50   ~ 0
ENCODERSPI_SCK
Text Label 6650 4700 0    50   ~ 0
OPAMP4_VOUT
Text Label 6650 4600 0    50   ~ 0
COMP6_INP
Text Label 6650 4500 0    50   ~ 0
OPAMP4_VINM
Text Label 6650 4400 0    50   ~ 0
BRAKE_H
Text Label 6650 4200 0    50   ~ 0
PERIPH_I2C_SDA
Text Label 6650 4100 0    50   ~ 0
PERIPH_I2C_SCL
Text Label 6650 4000 0    50   ~ 0
BRAKE_L
Text Label 6650 3800 0    50   ~ 0
SYS_JTDO-TRACESWO
Text Label 6650 3300 0    50   ~ 0
SYS_JTDI
Text Label 6650 3200 0    50   ~ 0
SYS_JTCK-SWLCK
Text Label 6650 3100 0    50   ~ 0
SYS_JTMS-SWDIO
Text Label 6650 3000 0    50   ~ 0
USB_D+
Text Label 6650 2900 0    50   ~ 0
USB_D-
Text Label 6650 2800 0    50   ~ 0
USART1_RX
Text Label 6650 2700 0    50   ~ 0
USART1_TX
Text Label 6650 2600 0    50   ~ 0
LEDCONTROLLER_I2C_SCL
Text Label 6650 6100 0    50   ~ 0
LEDCONTROLLER_I2C_SDA
Text Label 6650 5900 0    50   ~ 0
MOTOR_ENCODER_B
Text Label 6650 5800 0    50   ~ 0
MOTOR_ENCODER_A
Text Label 6650 5700 0    50   ~ 0
HALFH_CS
Text Label 6650 5600 0    50   ~ 0
INVERTER_CS
Text Label 6650 5500 0    50   ~ 0
BRAKE_SENSE
Text Label 6650 5400 0    50   ~ 0
VBUS_SENSE
Text Label 6650 5300 0    50   ~ 0
COMP7_INP
Text Label 5050 6600 2    50   ~ 0
MOTOR_THERMISTOR
Text Label 5050 6400 2    50   ~ 0
PWM_IN_CH1
Text Label 5050 6300 2    50   ~ 0
OPAMP4_VINP
Text Label 5050 6200 2    50   ~ 0
HALFH_ENABLE
Text Label 5050 6100 2    50   ~ 0
HALFH_RESET
Text Label 5050 6000 2    50   ~ 0
HALFH_DIAG
Text Label 5050 5900 2    50   ~ 0
HALL_C
Text Label 5050 5800 2    50   ~ 0
INVERTER_ENABLE
Text Label 5050 5700 2    50   ~ 0
INVERTER_FAULT
Text Label 5050 5600 2    50   ~ 0
HALL_B
Text Label 5050 5500 2    50   ~ 0
HALL_A
Text Label 5050 5300 2    50   ~ 0
CAN_TX
Text Label 5050 5200 2    50   ~ 0
CAN_RX
Text Label 5050 5000 2    50   ~ 0
HALFH_OOS
Text Label 5050 4900 2    50   ~ 0
VBUS_VOLTAGE
Text Label 5050 4800 2    50   ~ 0
PHASE_C_H
Text Label 5050 4700 2    50   ~ 0
PHASE_C_L
Text Label 5050 4600 2    50   ~ 0
PHASE_B_H
Text Label 5050 4500 2    50   ~ 0
PHASE_B_L
Text Label 5050 4400 2    50   ~ 0
PHASE_A_H
Text Label 5050 4300 2    50   ~ 0
PHASE_A_L
Text Label 5050 4100 2    50   ~ 0
SYS_TRACED3
Text Label 5050 4000 2    50   ~ 0
SYS_TRACED2
Text Label 5050 3900 2    50   ~ 0
SYS_TRACED1
Text Label 5050 3800 2    50   ~ 0
SYS_TRACED0
Text Label 5050 3700 2    50   ~ 0
SYS_TRACECK
Text Label 5050 3600 2    50   ~ 0
SERVO_PWM_IN
Text Label 5050 3500 2    50   ~ 0
STATUS_LED
Wire Wire Line
	1650 3400 4150 3400
Wire Bus Line
	2650 5400 3950 5400
Wire Bus Line
	3950 5500 3950 7500
Wire Bus Line
	3300 7500 3950 7500
Wire Wire Line
	6650 4300 7600 4300
Wire Wire Line
	6650 2900 7650 2900
Wire Wire Line
	6650 3000 7650 3000
Connection ~ 2300 1650
Wire Wire Line
	1750 1600 1750 1650
Connection ~ 1750 1650
Wire Wire Line
	1750 1650 1750 1700
Wire Wire Line
	1750 1650 1800 1650
Wire Wire Line
	1750 1400 1750 1450
Wire Wire Line
	1800 1700 1800 1650
Connection ~ 1800 1650
Wire Wire Line
	2000 1700 2000 1450
Connection ~ 1750 1450
Wire Wire Line
	1750 1450 1750 1500
Text Notes 2300 2300 0    50   ~ 0
STM32F3: no\ninternal USB \npullup
Wire Notes Line
	550  2800 2900 2800
Wire Notes Line
	550  550  2900 550 
Wire Bus Line
	2950 650  7750 650 
Wire Wire Line
	10950 2800 10950 2750
Wire Wire Line
	10500 2450 10500 2400
Wire Wire Line
	10050 2400 10050 2450
Connection ~ 10050 2400
Wire Wire Line
	10050 2400 10500 2400
$Comp
L power:PWR_FLAG #FLG0101
U 1 1 64F49466
P 3800 2075
F 0 "#FLG0101" H 3800 2150 50  0001 C CNN
F 1 "PWR_FLAG" V 3800 2202 50  0000 L CNN
F 2 "" H 3800 2075 50  0001 C CNN
F 3 "~" H 3800 2075 50  0001 C CNN
	1    3800 2075
	0    -1   -1   0   
$EndComp
Connection ~ 12650 2800
Wire Wire Line
	6650 6200 7600 6200
Wire Wire Line
	6650 6300 7600 6300
Wire Wire Line
	6650 6400 7600 6400
Wire Wire Line
	3800 2200 3900 2200
Connection ~ 3900 2200
Wire Wire Line
	3900 2200 4750 2200
$Comp
L power:PWR_FLAG #FLG0102
U 1 1 65211008
P 1650 900
F 0 "#FLG0102" H 1650 975 50  0001 C CNN
F 1 "PWR_FLAG" V 1650 1028 50  0000 L CNN
F 2 "" H 1650 900 50  0001 C CNN
F 3 "~" H 1650 900 50  0001 C CNN
	1    1650 900 
	0    1    1    0   
$EndComp
Wire Bus Line
	3950 7500 7700 7500
Connection ~ 3950 7500
$Comp
L power:GND #PWR?
U 1 1 654317F8
P 15825 5225
AR Path="/618F914E/654317F8" Ref="#PWR?"  Part="1" 
AR Path="/654317F8" Ref="#PWR03"  Part="1" 
AR Path="/623548EE/654317F8" Ref="#PWR?"  Part="1" 
F 0 "#PWR03" H 15825 4975 50  0001 C CNN
F 1 "GND" H 15830 5052 50  0000 C CNN
F 2 "" H 15825 5225 50  0001 C CNN
F 3 "" H 15825 5225 50  0001 C CNN
	1    15825 5225
	-1   0    0    -1  
$EndComp
Wire Wire Line
	15825 5175 15725 5175
$Comp
L power:+5V #PWR01
U 1 1 6547A0E2
P 15825 4825
F 0 "#PWR01" H 15825 4675 50  0001 C CNN
F 1 "+5V" H 15840 4998 50  0000 C CNN
F 2 "" H 15825 4825 50  0001 C CNN
F 3 "" H 15825 4825 50  0001 C CNN
	1    15825 4825
	-1   0    0    -1  
$EndComp
Wire Wire Line
	15825 4825 15825 4875
Wire Wire Line
	15825 4875 15725 4875
Wire Wire Line
	15825 5225 15825 5175
$Comp
L Connector_Generic:Conn_01x04 J7
U 1 1 6570437B
P 15525 4975
F 0 "J7" H 15605 4967 50  0000 L CNN
F 1 "LED Matrix" H 15605 4876 50  0000 L CNN
F 2 "Connector_PinHeader_2.54mm:PinHeader_1x04_P2.54mm_Vertical" H 15525 4975 50  0001 C CNN
F 3 "~" H 15525 4975 50  0001 C CNN
	1    15525 4975
	-1   0    0    -1  
$EndComp
Text Label 16400 4975 0    50   ~ 0
LEDCONTROLLER_I2C_SDA
Text Label 16400 5075 0    50   ~ 0
LEDCONTROLLER_I2C_SCL
Wire Notes Line
	9625 600  7975 600 
Wire Notes Line
	7975 600  7975 2000
Wire Notes Line
	7975 2000 9625 2000
Wire Notes Line
	9625 2000 9625 600 
Text Notes 9275 850  0    50   ~ 0
STATUS\nLEDs
Text Notes 14175 8775 0    50   ~ 0
DONE: STM32 caps. Why so many?
Text Notes 14175 8675 0    50   ~ 0
DONE: USB-C connector & resistors
Text Notes 14175 8575 0    50   ~ 0
DONE: CANbus hardware
Text Notes 14175 8475 0    50   ~ 0
DONE: Pinout from IOC
Text Notes 14175 8375 0    50   ~ 0
DONE: microSD card
Text Notes 14175 7975 0    50   ~ 0
DONE: Power LED
Text Notes 14175 8075 0    50   ~ 0
DONE: JTAG hardware, boot/reset components
Text Notes 14175 8275 0    50   ~ 0
DONE: 3.3V LDO & precise reference
Text Notes 14175 7675 0    50   ~ 0
DONE: LED Indication (Vector Accelerator header)\n
Text Notes 14175 7875 0    50   ~ 0
DONE: TVS diodes
Text Notes 14175 7775 0    50   ~ 0
DONE: nice MEMs osc
Connection ~ 4950 1800
Wire Wire Line
	4950 1800 5050 1800
Wire Wire Line
	4050 1800 4950 1800
Wire Wire Line
	3800 2075 3900 2075
Wire Wire Line
	3900 2075 3900 2200
Connection ~ 11775 2600
Wire Wire Line
	11775 2600 12000 2600
Wire Wire Line
	11650 2600 11775 2600
Wire Wire Line
	11225 2800 11450 2800
Wire Wire Line
	10950 2450 10950 2400
$Comp
L graviton_control-rescue:D_TVS-Copperforge D6
U 1 1 64C88858
P 10950 2600
F 0 "D6" V 10904 2679 50  0000 L CNN
F 1 "SMAJ5.0" V 10995 2679 50  0000 L CNN
F 2 "Diode_SMD:D_SMA" H 10950 2400 50  0001 C CNN
F 3 "" H 10900 2600 50  0001 C CNN
	1    10950 2600
	0    1    1    0   
$EndComp
$Comp
L power:GND #PWR?
U 1 1 6648E239
P 10950 2800
AR Path="/618F914E/6648E239" Ref="#PWR?"  Part="1" 
AR Path="/6648E239" Ref="#PWR0152"  Part="1" 
AR Path="/623548EE/6648E239" Ref="#PWR?"  Part="1" 
F 0 "#PWR0152" H 10950 2550 50  0001 C CNN
F 1 "GND" H 10955 2627 50  0000 C CNN
F 2 "" H 10950 2800 50  0001 C CNN
F 3 "" H 10950 2800 50  0001 C CNN
	1    10950 2800
	1    0    0    -1  
$EndComp
Wire Wire Line
	10500 2800 10500 2850
Connection ~ 10500 2400
Wire Wire Line
	10950 2400 11650 2400
Wire Wire Line
	3500 1700 3500 1800
Connection ~ 3500 1800
Wire Wire Line
	3500 1800 3500 1900
Wire Wire Line
	3900 1700 3900 1800
Connection ~ 3900 1800
Wire Wire Line
	3900 1800 3900 1900
$Comp
L Connector:TestPoint TP4
U 1 1 6695CAD7
P 11650 2400
F 0 "TP4" H 11708 2472 50  0001 L CNN
F 1 "TestPoint" H 11708 2427 50  0001 L CNN
F 2 "Connector_PinHeader_2.54mm:PinHeader_1x01_P2.54mm_Vertical" H 11850 2400 50  0001 C CNN
F 3 "~" H 11850 2400 50  0001 C CNN
	1    11650 2400
	1    0    0    -1  
$EndComp
$Comp
L Connector:TestPoint TP1
U 1 1 669A7E52
P 11250 1200
F 0 "TP1" H 11308 1272 50  0001 L CNN
F 1 "TestPoint" H 11308 1227 50  0001 L CNN
F 2 "Connector_PinHeader_2.54mm:PinHeader_1x01_P2.54mm_Vertical" H 11450 1200 50  0001 C CNN
F 3 "~" H 11450 1200 50  0001 C CNN
	1    11250 1200
	0    1    1    0   
$EndComp
Wire Wire Line
	11150 1300 11150 1200
Connection ~ 11150 1200
Wire Wire Line
	11150 1200 11250 1200
Wire Wire Line
	11150 1500 11150 1650
Wire Wire Line
	10075 1500 10075 1650
Wire Wire Line
	10075 1200 10075 1300
$Comp
L Connector:TestPoint TP2
U 1 1 66BB3EFD
P 12950 1300
F 0 "TP2" H 13008 1372 50  0001 L CNN
F 1 "TestPoint" H 13008 1327 50  0001 L CNN
F 2 "Connector_PinHeader_2.54mm:PinHeader_1x01_P2.54mm_Vertical" H 13150 1300 50  0001 C CNN
F 3 "~" H 13150 1300 50  0001 C CNN
	1    12950 1300
	1    0    0    -1  
$EndComp
Wire Wire Line
	11650 2400 11650 2600
Connection ~ 11650 2400
Text Label 10450 3800 2    50   ~ 0
SYS_TRACED3
Text Label 10450 3700 2    50   ~ 0
SYS_TRACED2
Text Label 10450 3600 2    50   ~ 0
SYS_TRACED1
Text Label 10450 3500 2    50   ~ 0
SYS_TRACED0
Text Label 10450 3400 2    50   ~ 0
SYS_TRACECK
$Comp
L Connector:TestPoint TP5
U 1 1 66E66D99
P 11450 2800
F 0 "TP5" H 11508 2872 50  0001 L CNN
F 1 "TestPoint" H 11508 2827 50  0001 L CNN
F 2 "Connector_PinHeader_2.54mm:PinHeader_1x01_P2.54mm_Vertical" H 11650 2800 50  0001 C CNN
F 3 "~" H 11650 2800 50  0001 C CNN
	1    11450 2800
	1    0    0    -1  
$EndComp
Connection ~ 11450 2800
Wire Wire Line
	11450 2800 11775 2800
Wire Wire Line
	9100 2525 9100 2725
Wire Wire Line
	9150 3300 9150 3325
Wire Wire Line
	9150 3300 9700 3300
Connection ~ 9150 4025
Connection ~ 9150 4225
Wire Wire Line
	9100 2525 9150 2525
Connection ~ 9150 2525
Connection ~ 9150 2625
Connection ~ 9150 2825
Connection ~ 9150 3025
Connection ~ 9150 3225
Connection ~ 9150 3425
Connection ~ 9150 3625
Connection ~ 9150 3825
Connection ~ 9150 4425
$Comp
L Connector_Generic:Conn_02x20_Odd_Even J?
U 1 1 624078E0
P 9350 3425
AR Path="/618F914E/624078E0" Ref="J?"  Part="1" 
AR Path="/624078E0" Ref="J5"  Part="1" 
AR Path="/623548EE/624078E0" Ref="J?"  Part="1" 
F 0 "J5" H 9475 4550 50  0000 C CNN
F 1 "Analog Header" H 9500 4450 50  0000 C CNN
F 2 "copperforge:M55-7104042R" H 9350 3425 50  0001 C CNN
F 3 "~" H 9350 3425 50  0001 C CNN
	1    9350 3425
	1    0    0    -1  
$EndComp
Wire Wire Line
	9150 2725 9100 2725
Connection ~ 9150 2725
Connection ~ 9100 2725
Wire Wire Line
	9100 2725 9100 2925
Wire Wire Line
	9150 2925 9100 2925
Connection ~ 9150 2925
Connection ~ 9100 2925
Wire Wire Line
	9100 2925 9100 3125
Wire Wire Line
	9150 3125 9100 3125
Connection ~ 9150 3125
Connection ~ 9100 3125
Wire Wire Line
	9100 3125 9100 3325
Wire Wire Line
	9150 3325 9100 3325
Connection ~ 9150 3325
Connection ~ 9100 3325
Wire Wire Line
	9100 3325 9100 3525
Wire Wire Line
	9150 3525 9100 3525
Connection ~ 9150 3525
Connection ~ 9100 3525
Wire Wire Line
	9100 3525 9100 3725
Wire Wire Line
	9150 3725 9100 3725
Connection ~ 9150 3725
Connection ~ 9100 3725
Wire Wire Line
	9100 3725 9100 3925
Wire Wire Line
	9150 3925 9100 3925
Connection ~ 9150 3925
Connection ~ 9100 3925
Wire Wire Line
	9100 3925 9100 4125
Wire Wire Line
	9150 4125 9100 4125
Connection ~ 9150 4125
Connection ~ 9100 4125
Wire Wire Line
	9100 4125 9100 4325
Wire Wire Line
	9150 4325 9100 4325
Connection ~ 9150 4325
Connection ~ 9100 4325
Wire Wire Line
	9100 4325 9100 4475
Wire Wire Line
	12650 2600 12650 2575
Wire Wire Line
	12500 2700 12650 2700
Wire Wire Line
	12650 2700 12650 2600
Connection ~ 12650 2600
Wire Wire Line
	12650 2575 12650 2500
Wire Wire Line
	12650 2500 12500 2500
Connection ~ 12650 2575
Wire Wire Line
	12000 2500 11775 2500
Wire Wire Line
	11775 2500 11775 2575
Connection ~ 11775 2575
Wire Wire Line
	11775 2600 11775 2700
Wire Wire Line
	11775 2700 12000 2700
$Comp
L Connector:TestPoint TP3
U 1 1 5E690318
P 1650 800
F 0 "TP3" H 1708 872 50  0001 L CNN
F 1 "TestPoint" H 1708 827 50  0001 L CNN
F 2 "TestPoint:TestPoint_Pad_1.0x1.0mm" H 1850 800 50  0001 C CNN
F 3 "~" H 1850 800 50  0001 C CNN
	1    1650 800 
	0    1    1    0   
$EndComp
Wire Wire Line
	1650 800  1650 900 
Connection ~ 1650 900 
$Comp
L Device:R_Small_US R9
U 1 1 5E6E2199
P 2550 6450
F 0 "R9" H 2618 6496 50  0000 L CNN
F 1 "10k" H 2618 6405 50  0000 L CNN
F 2 "Resistor_SMD:R_0603_1608Metric" H 2550 6450 50  0001 C CNN
F 3 "~" H 2550 6450 50  0001 C CNN
	1    2550 6450
	1    0    0    -1  
$EndComp
Connection ~ 2550 6550
Wire Wire Line
	2550 6550 3200 6550
Connection ~ 2450 6350
Wire Wire Line
	2450 6350 2550 6350
$Comp
L Connector:TestPoint TP6
U 1 1 5E7D366D
P 2050 5600
F 0 "TP6" V 2050 5788 50  0001 L CNN
F 1 "TestPoint" V 2095 5788 50  0001 L CNN
F 2 "TestPoint:TestPoint_Pad_1.0x1.0mm" H 2250 5600 50  0001 C CNN
F 3 "~" H 2250 5600 50  0001 C CNN
	1    2050 5600
	0    1    1    0   
$EndComp
Text Notes 1100 3600 0    50   ~ 0
16 MHz
$Comp
L power:GND #PWR0124
U 1 1 5E82673E
P 3100 1850
F 0 "#PWR0124" H 3100 1600 50  0001 C CNN
F 1 "GND" H 3105 1677 50  0000 C CNN
F 2 "" H 3100 1850 50  0001 C CNN
F 3 "" H 3100 1850 50  0001 C CNN
	1    3100 1850
	1    0    0    -1  
$EndComp
Wire Wire Line
	3100 1800 3100 1850
Wire Wire Line
	3100 1800 3500 1800
Text Notes 3450 1300 0    50   ~ 0
TODO: Check cap on NRST
Text Notes 3000 2550 0    50   ~ 0
PSRR of LDO \n@ 500kHz
Wire Wire Line
	10500 2400 10950 2400
Connection ~ 10950 2400
Connection ~ 4775 1300
Wire Wire Line
	4775 1350 4775 1300
Connection ~ 5275 1300
Connection ~ 5275 1000
$Comp
L Device:C_Small C2
U 1 1 5F800B9B
P 5025 1150
F 0 "C2" H 5025 1250 50  0000 L CNN
F 1 "0.1uF" H 5025 1050 50  0000 L CNN
F 2 "Capacitor_SMD:C_0603_1608Metric" H 5025 1150 50  0001 C CNN
F 3 "~" H 5025 1150 50  0001 C CNN
	1    5025 1150
	1    0    0    -1  
$EndComp
$Comp
L Device:C_Small C3
U 1 1 5F801995
P 5275 1150
F 0 "C3" H 5275 1250 50  0000 L CNN
F 1 "0.1uF" H 5275 1050 50  0000 L CNN
F 2 "Capacitor_SMD:C_0603_1608Metric" H 5275 1150 50  0001 C CNN
F 3 "~" H 5275 1150 50  0001 C CNN
	1    5275 1150
	1    0    0    -1  
$EndComp
$Comp
L Device:C_Small C1
U 1 1 5F833D31
P 4775 1150
F 0 "C1" H 4775 1250 50  0000 L CNN
F 1 "4.7uF" H 4775 1050 50  0000 L CNN
F 2 "Capacitor_SMD:C_0603_1608Metric" H 4775 1150 50  0001 C CNN
F 3 "~" H 4775 1150 50  0001 C CNN
	1    4775 1150
	1    0    0    -1  
$EndComp
Wire Wire Line
	4775 1050 4775 1000
Wire Wire Line
	4775 1000 5025 1000
Wire Wire Line
	4775 1250 4775 1300
Wire Wire Line
	5025 1250 5025 1300
Connection ~ 5025 1300
Wire Wire Line
	5025 1300 4775 1300
Wire Wire Line
	5025 1050 5025 1000
Connection ~ 5025 1000
Wire Wire Line
	5025 1000 5275 1000
Wire Wire Line
	5275 1000 5275 1050
Wire Wire Line
	5275 1250 5275 1300
Wire Wire Line
	5275 1300 5025 1300
$Comp
L power:+3.3V #PWR0121
U 1 1 5FFDB8E5
P 4775 950
F 0 "#PWR0121" H 4775 800 50  0001 C CNN
F 1 "+3.3V" H 4790 1123 50  0000 C CNN
F 2 "" H 4775 950 50  0001 C CNN
F 3 "" H 4775 950 50  0001 C CNN
	1    4775 950 
	1    0    0    -1  
$EndComp
Wire Wire Line
	4775 950  4775 1000
Connection ~ 4775 1000
$Comp
L Device:C_Small C4
U 1 1 5F832821
P 5525 1150
F 0 "C4" H 5525 1250 50  0000 L CNN
F 1 "0.1uF" H 5525 1050 50  0000 L CNN
F 2 "Capacitor_SMD:C_0603_1608Metric" H 5525 1150 50  0001 C CNN
F 3 "~" H 5525 1150 50  0001 C CNN
	1    5525 1150
	1    0    0    -1  
$EndComp
$Comp
L Device:C_Small C5
U 1 1 5F832A59
P 5775 1150
F 0 "C5" H 5775 1250 50  0000 L CNN
F 1 "0.1uF" H 5775 1050 50  0000 L CNN
F 2 "Capacitor_SMD:C_0603_1608Metric" H 5775 1150 50  0001 C CNN
F 3 "~" H 5775 1150 50  0001 C CNN
	1    5775 1150
	1    0    0    -1  
$EndComp
Wire Wire Line
	5275 1000 5525 1000
Wire Wire Line
	5525 1250 5525 1300
Connection ~ 5525 1300
Wire Wire Line
	5525 1300 5275 1300
Wire Wire Line
	5525 1050 5525 1000
Connection ~ 5525 1000
Wire Wire Line
	5525 1000 5775 1000
Wire Wire Line
	5775 1300 5525 1300
$Comp
L power:GND #PWR0119
U 1 1 5FFD96A1
P 4775 1350
F 0 "#PWR0119" H 4775 1100 50  0001 C CNN
F 1 "GND" H 4780 1177 50  0000 C CNN
F 2 "" H 4775 1350 50  0001 C CNN
F 3 "" H 4775 1350 50  0001 C CNN
	1    4775 1350
	1    0    0    -1  
$EndComp
Text Notes 5075 900  0    50   ~ 0
VBat connected to VDD, no caps
Wire Wire Line
	5775 1000 6050 1000
Connection ~ 5775 1000
Connection ~ 10075 1200
Wire Wire Line
	9950 1200 10075 1200
Wire Notes Line
	9725 2000 11500 2000
Wire Notes Line
	9725 600  11500 600 
$Comp
L Device:Net-Tie_2 NT1
U 1 1 5E6EBF2E
P 6300 7150
F 0 "NT1" H 6300 7325 50  0000 C CNN
F 1 "VSSA_Tie" H 6300 7225 50  0000 C CNN
F 2 "NetTie:NetTie-2_SMD_Pad0.5mm" H 6300 7150 50  0001 C CNN
F 3 "~" H 6300 7150 50  0001 C CNN
	1    6300 7150
	1    0    0    1   
$EndComp
$Comp
L power:GND #PWR04
U 1 1 5E7790D2
P 6600 7200
F 0 "#PWR04" H 6600 6950 50  0001 C CNN
F 1 "GND" H 6605 7027 50  0000 C CNN
F 2 "" H 6600 7200 50  0001 C CNN
F 3 "" H 6600 7200 50  0001 C CNN
	1    6600 7200
	1    0    0    -1  
$EndComp
Connection ~ 5650 7050
Wire Wire Line
	5650 7050 5650 7100
$Comp
L power:GNDA #PWR06
U 1 1 5EC80D75
P 9100 4475
F 0 "#PWR06" H 9100 4225 50  0001 C CNN
F 1 "GNDA" H 9105 4302 50  0000 C CNN
F 2 "" H 9100 4475 50  0001 C CNN
F 3 "" H 9100 4475 50  0001 C CNN
	1    9100 4475
	1    0    0    -1  
$EndComp
Wire Wire Line
	10050 2300 10050 2325
$Comp
L power:PWR_FLAG #FLG03
U 1 1 63A575D9
P 10075 2325
F 0 "#FLG03" H 10075 2400 50  0001 C CNN
F 1 "PWR_FLAG" V 10075 2452 50  0000 L CNN
F 2 "" H 10075 2325 50  0001 C CNN
F 3 "~" H 10075 2325 50  0001 C CNN
	1    10075 2325
	0    1    1    0   
$EndComp
$Comp
L power:+5V #PWR0144
U 1 1 62DB72B5
P 10050 2300
F 0 "#PWR0144" H 10050 2150 50  0001 C CNN
F 1 "+5V" H 10065 2473 50  0000 C CNN
F 2 "" H 10050 2300 50  0001 C CNN
F 3 "" H 10050 2300 50  0001 C CNN
	1    10050 2300
	1    0    0    -1  
$EndComp
Wire Wire Line
	10075 2325 10050 2325
Connection ~ 10050 2325
Wire Wire Line
	10050 2325 10050 2400
$Comp
L Connector_Generic:Conn_01x07 J9
U 1 1 5EEC9A63
P 10650 3600
F 0 "J9" H 10730 3642 50  0000 L CNN
F 1 "Trace Header" H 10150 4025 50  0000 L CNN
F 2 "Connector_PinHeader_2.54mm:PinHeader_1x07_P2.54mm_Vertical" H 10650 3600 50  0001 C CNN
F 3 "~" H 10650 3600 50  0001 C CNN
	1    10650 3600
	1    0    0    -1  
$EndComp
$Comp
L power:GND #PWR010
U 1 1 5FD14635
P 10350 3950
F 0 "#PWR010" H 10350 3700 50  0001 C CNN
F 1 "GND" H 10355 3777 50  0000 C CNN
F 2 "" H 10350 3950 50  0001 C CNN
F 3 "" H 10350 3950 50  0001 C CNN
	1    10350 3950
	1    0    0    -1  
$EndComp
Wire Wire Line
	10450 3900 10350 3900
Wire Wire Line
	10350 3900 10350 3950
Text Notes 14175 8875 0    50   ~ 0
DONE: Reduce STM caps
Text Notes 14175 8975 0    50   ~ 0
DONE: Match JTAG header, seperate TRACE header
$Comp
L power:PWR_FLAG #FLG0103
U 1 1 5FE4831F
P 6200 7050
F 0 "#FLG0103" H 6200 7125 50  0001 C CNN
F 1 "PWR_FLAG" V 6200 7177 50  0000 L CNN
F 2 "" H 6200 7050 50  0001 C CNN
F 3 "~" H 6200 7050 50  0001 C CNN
	1    6200 7050
	0    1    1    0   
$EndComp
$Comp
L power:GNDA #PWR0130
U 1 1 60183034
P 6050 7200
F 0 "#PWR0130" H 6050 6950 50  0001 C CNN
F 1 "GNDA" H 6055 7027 50  0000 C CNN
F 2 "" H 6050 7200 50  0001 C CNN
F 3 "" H 6050 7200 50  0001 C CNN
	1    6050 7200
	1    0    0    -1  
$EndComp
Wire Wire Line
	6050 7200 6050 7150
Wire Wire Line
	6050 7150 6150 7150
Connection ~ 6050 7150
Wire Wire Line
	6050 7150 6050 7000
Wire Wire Line
	6200 7050 6150 7050
Wire Wire Line
	6150 7050 6150 7150
Connection ~ 6150 7150
Wire Wire Line
	6150 7150 6200 7150
Wire Wire Line
	6400 7150 6600 7150
Wire Wire Line
	6600 7150 6600 7200
$Comp
L Device:C_Small C6
U 1 1 6090DF40
P 2000 3600
F 0 "C6" H 2000 3700 50  0000 L CNN
F 1 "0.01uF" H 2000 3500 50  0000 L CNN
F 2 "Capacitor_SMD:C_0603_1608Metric" H 2000 3600 50  0001 C CNN
F 3 "~" H 2000 3600 50  0001 C CNN
	1    2000 3600
	1    0    0    -1  
$EndComp
Wire Wire Line
	1750 3300 1750 3450
Connection ~ 1750 3300
Wire Wire Line
	1750 3450 2000 3450
Wire Wire Line
	2000 3450 2000 3500
Connection ~ 1750 3450
Wire Wire Line
	1750 3450 1750 3500
Wire Wire Line
	2000 3700 2000 3750
Wire Wire Line
	2000 3750 1750 3750
Wire Wire Line
	4150 3400 4150 2800
Wire Wire Line
	1750 3800 1750 3750
Connection ~ 1750 3750
$Comp
L Connector:TestPoint TP7
U 1 1 5E71DDBA
P 800 3300
F 0 "TP7" H 858 3372 50  0001 L CNN
F 1 "TestPoint" H 858 3327 50  0001 L CNN
F 2 "TestPoint:TestPoint_Pad_1.0x1.0mm" H 1000 3300 50  0001 C CNN
F 3 "~" H 1000 3300 50  0001 C CNN
	1    800  3300
	0    -1   -1   0   
$EndComp
Wire Wire Line
	5050 3600 4450 3600
Wire Wire Line
	4450 3600 4450 3575
$Comp
L Device:R_US R5
U 1 1 618B3503
P 8775 950
F 0 "R5" V 8570 950 50  0000 C CNN
F 1 "600" V 8661 950 50  0000 C CNN
F 2 "Resistor_SMD:R_0603_1608Metric" V 8815 940 50  0001 C CNN
F 3 "~" H 8775 950 50  0001 C CNN
	1    8775 950 
	0    1    1    0   
$EndComp
$Comp
L power:+3V3 #PWR0131
U 1 1 5E88B6BC
P 10025 3300
F 0 "#PWR0131" H 10025 3150 50  0001 C CNN
F 1 "+3V3" H 10040 3473 50  0000 C CNN
F 2 "" H 10025 3300 50  0001 C CNN
F 3 "" H 10025 3300 50  0001 C CNN
	1    10025 3300
	1    0    0    -1  
$EndComp
Wire Wire Line
	10025 3300 10450 3300
Text Notes 14275 2600 0    50   ~ 0
JTAG + Trace:\n\nJTDO\nJTDI\nJTCK\nJTMS\n\nTRACECK\nTRACED0\nTRACED1\nTRACED2\nTRACED3
Text Notes 15050 1975 0    50   ~ 0
SW:\n\nSWCLK\nSWDIO
Text Notes 15450 2225 0    50   ~ 0
JTAG-5\n\nJTRST\nJTDO\nJTDI\nJTCK\nJTMS
$Comp
L Connector_Generic:Conn_01x04 J10
U 1 1 5EB58FE1
P 15700 2825
F 0 "J10" H 15780 2817 50  0000 L CNN
F 1 "Conn_01x04" H 15780 2726 50  0000 L CNN
F 2 "Connector_PinHeader_2.54mm:PinHeader_1x04_P2.54mm_Vertical" H 15700 2825 50  0001 C CNN
F 3 "~" H 15700 2825 50  0001 C CNN
	1    15700 2825
	1    0    0    -1  
$EndComp
$Comp
L power:+3V3 #PWR0133
U 1 1 5EB5ACF2
P 15500 2725
F 0 "#PWR0133" H 15500 2575 50  0001 C CNN
F 1 "+3V3" H 15515 2898 50  0000 C CNN
F 2 "" H 15500 2725 50  0001 C CNN
F 3 "" H 15500 2725 50  0001 C CNN
	1    15500 2725
	1    0    0    -1  
$EndComp
$Comp
L power:GND #PWR0134
U 1 1 5EB5BB96
P 15500 3025
F 0 "#PWR0134" H 15500 2775 50  0001 C CNN
F 1 "GND" H 15505 2852 50  0000 C CNN
F 2 "" H 15500 3025 50  0001 C CNN
F 3 "" H 15500 3025 50  0001 C CNN
	1    15500 3025
	1    0    0    -1  
$EndComp
$Comp
L Connector_Generic:Conn_01x07 J11
U 1 1 5EB5CD3E
P 17825 3100
F 0 "J11" H 17905 3142 50  0000 L CNN
F 1 "Conn_01x07" H 17905 3051 50  0000 L CNN
F 2 "Connector_PinHeader_2.54mm:PinHeader_1x07_P2.54mm_Vertical" H 17825 3100 50  0001 C CNN
F 3 "~" H 17825 3100 50  0001 C CNN
	1    17825 3100
	1    0    0    -1  
$EndComp
$Comp
L power:+3V3 #PWR0135
U 1 1 5EB5CD46
P 17625 2800
F 0 "#PWR0135" H 17625 2650 50  0001 C CNN
F 1 "+3V3" H 17640 2973 50  0000 C CNN
F 2 "" H 17625 2800 50  0001 C CNN
F 3 "" H 17625 2800 50  0001 C CNN
	1    17625 2800
	1    0    0    -1  
$EndComp
$Comp
L power:GND #PWR0136
U 1 1 5EB5CD4C
P 17625 3400
F 0 "#PWR0136" H 17625 3150 50  0001 C CNN
F 1 "GND" H 17630 3227 50  0000 C CNN
F 2 "" H 17625 3400 50  0001 C CNN
F 3 "" H 17625 3400 50  0001 C CNN
	1    17625 3400
	1    0    0    -1  
$EndComp
$Comp
L Connector_Generic:Conn_01x04 J6
U 1 1 5EBFED8C
P 15675 3600
F 0 "J6" H 15755 3592 50  0000 L CNN
F 1 "Conn_01x04" H 15755 3501 50  0000 L CNN
F 2 "Connector_PinHeader_2.54mm:PinHeader_1x04_P2.54mm_Vertical" H 15675 3600 50  0001 C CNN
F 3 "~" H 15675 3600 50  0001 C CNN
	1    15675 3600
	1    0    0    -1  
$EndComp
Text Label 15475 3600 2    50   ~ 0
NRST
Text Label 15475 3700 2    50   ~ 0
BOOT0
$Comp
L power:+3V3 #PWR0137
U 1 1 5EBFED94
P 15475 3500
F 0 "#PWR0137" H 15475 3350 50  0001 C CNN
F 1 "+3V3" H 15490 3673 50  0000 C CNN
F 2 "" H 15475 3500 50  0001 C CNN
F 3 "" H 15475 3500 50  0001 C CNN
	1    15475 3500
	1    0    0    -1  
$EndComp
$Comp
L power:GND #PWR0138
U 1 1 5EBFED9A
P 15475 3800
F 0 "#PWR0138" H 15475 3550 50  0001 C CNN
F 1 "GND" H 15480 3627 50  0000 C CNN
F 2 "" H 15475 3800 50  0001 C CNN
F 3 "" H 15475 3800 50  0001 C CNN
	1    15475 3800
	1    0    0    -1  
$EndComp
Text Label 15500 2825 2    50   ~ 0
SYS_JTCK-SWLCK
Text Label 15500 2925 2    50   ~ 0
SYS_JTMS-SWDIO
Text Label 6650 3900 0    50   ~ 0
SYS_NJTRST
Text Label 17550 3000 2    50   ~ 0
SYS_JTDO-TRACESWO
Text Label 17550 3100 2    50   ~ 0
SYS_JTDI
Text Label 17550 3200 2    50   ~ 0
SYS_JTCK-SWLCK
Text Label 17550 3300 2    50   ~ 0
SYS_JTMS-SWDIO
Wire Wire Line
	17550 2900 17625 2900
Wire Wire Line
	17625 3000 17550 3000
Wire Wire Line
	17550 3100 17625 3100
Wire Wire Line
	17625 3200 17550 3200
Wire Wire Line
	17550 3300 17625 3300
$Comp
L Device:R_Small_US R10
U 1 1 5F2F3104
P 15975 4825
F 0 "R10" H 15907 4779 50  0000 R CNN
F 1 "4.7k" H 15907 4870 50  0000 R CNN
F 2 "Resistor_SMD:R_0603_1608Metric" H 15975 4825 50  0001 C CNN
F 3 "~" H 15975 4825 50  0001 C CNN
	1    15975 4825
	-1   0    0    1   
$EndComp
$Comp
L power:+3V3 #PWR0139
U 1 1 5F4C324B
P 16050 4725
F 0 "#PWR0139" H 16050 4575 50  0001 C CNN
F 1 "+3V3" H 16065 4898 50  0000 C CNN
F 2 "" H 16050 4725 50  0001 C CNN
F 3 "" H 16050 4725 50  0001 C CNN
	1    16050 4725
	1    0    0    -1  
$EndComp
Wire Wire Line
	15975 4725 16050 4725
$Comp
L Device:R_Small_US R12
U 1 1 5F5114E3
P 16275 4825
F 0 "R12" V 16070 4825 50  0000 C CNN
F 1 "4.7k" V 16161 4825 50  0000 C CNN
F 2 "Resistor_SMD:R_0603_1608Metric" H 16275 4825 50  0001 C CNN
F 3 "~" H 16275 4825 50  0001 C CNN
	1    16275 4825
	-1   0    0    1   
$EndComp
Wire Wire Line
	16275 4725 16050 4725
Connection ~ 16050 4725
Wire Wire Line
	16400 5075 16275 5075
Wire Wire Line
	16275 4925 16275 5075
Connection ~ 16275 5075
Wire Wire Line
	16275 5075 15725 5075
Wire Wire Line
	15725 4975 15975 4975
Wire Wire Line
	15975 4925 15975 4975
Connection ~ 15975 4975
Wire Wire Line
	15975 4975 16400 4975
$Comp
L Connector_Generic:Conn_01x06 J14
U 1 1 5F8CB552
P 18550 7275
F 0 "J14" H 18630 7267 50  0000 L CNN
F 1 "Motor Encoder" H 18630 7176 50  0000 L CNN
F 2 "Connector_PinHeader_2.54mm:PinHeader_1x06_P2.54mm_Vertical" H 18550 7275 50  0001 C CNN
F 3 "~" H 18550 7275 50  0001 C CNN
	1    18550 7275
	1    0    0    -1  
$EndComp
$Comp
L power:+5V #PWR0149
U 1 1 5F8CC619
P 18275 7075
F 0 "#PWR0149" H 18275 6925 50  0001 C CNN
F 1 "+5V" H 18290 7248 50  0000 C CNN
F 2 "" H 18275 7075 50  0001 C CNN
F 3 "" H 18275 7075 50  0001 C CNN
	1    18275 7075
	1    0    0    -1  
$EndComp
Wire Wire Line
	18275 7075 18350 7075
$Comp
L power:GND #PWR0150
U 1 1 5F91CE05
P 18275 7575
F 0 "#PWR0150" H 18275 7325 50  0001 C CNN
F 1 "GND" H 18280 7402 50  0000 C CNN
F 2 "" H 18275 7575 50  0001 C CNN
F 3 "" H 18275 7575 50  0001 C CNN
	1    18275 7575
	1    0    0    -1  
$EndComp
Wire Wire Line
	18275 7575 18350 7575
$Comp
L Connector_Generic:Conn_01x02 J18
U 1 1 5FA5ECFE
P 21625 7550
F 0 "J18" H 21705 7542 50  0000 L CNN
F 1 "Motor Thermistor" H 21705 7451 50  0000 L CNN
F 2 "Connector_PinHeader_2.54mm:PinHeader_1x02_P2.54mm_Vertical" H 21625 7550 50  0001 C CNN
F 3 "~" H 21625 7550 50  0001 C CNN
	1    21625 7550
	1    0    0    -1  
$EndComp
$Comp
L power:GND #PWR0151
U 1 1 5FA5ED0B
P 21425 7975
F 0 "#PWR0151" H 21425 7725 50  0001 C CNN
F 1 "GND" H 21430 7802 50  0000 C CNN
F 2 "" H 21425 7975 50  0001 C CNN
F 3 "" H 21425 7975 50  0001 C CNN
	1    21425 7975
	1    0    0    -1  
$EndComp
$Comp
L power:+3V3 #PWR0153
U 1 1 5FC414D3
P 21425 7550
F 0 "#PWR0153" H 21425 7400 50  0001 C CNN
F 1 "+3V3" H 21440 7723 50  0000 C CNN
F 2 "" H 21425 7550 50  0001 C CNN
F 3 "" H 21425 7550 50  0001 C CNN
	1    21425 7550
	1    0    0    -1  
$EndComp
$Comp
L Device:R_Small_US R17
U 1 1 5FC92359
P 21425 7825
F 0 "R17" H 21493 7871 50  0000 L CNN
F 1 "10k" H 21493 7780 50  0000 L CNN
F 2 "Resistor_SMD:R_0603_1608Metric" H 21425 7825 50  0001 C CNN
F 3 "~" H 21425 7825 50  0001 C CNN
	1    21425 7825
	1    0    0    -1  
$EndComp
Wire Wire Line
	21425 7725 21425 7650
Connection ~ 21425 7650
$Comp
L Connector_Generic:Conn_01x06 J17
U 1 1 5FE75CDB
P 21150 4500
F 0 "J17" H 21230 4492 50  0000 L CNN
F 1 "Hall Encoder" H 21230 4401 50  0000 L CNN
F 2 "Connector_PinHeader_2.54mm:PinHeader_1x06_P2.54mm_Vertical" H 21150 4500 50  0001 C CNN
F 3 "~" H 21150 4500 50  0001 C CNN
	1    21150 4500
	1    0    0    -1  
$EndComp
$Comp
L power:+5V #PWR0154
U 1 1 5FE75CE1
P 20875 4300
F 0 "#PWR0154" H 20875 4150 50  0001 C CNN
F 1 "+5V" H 20890 4473 50  0000 C CNN
F 2 "" H 20875 4300 50  0001 C CNN
F 3 "" H 20875 4300 50  0001 C CNN
	1    20875 4300
	1    0    0    -1  
$EndComp
Wire Wire Line
	20875 4300 20950 4300
$Comp
L power:GND #PWR0155
U 1 1 5FE75CE8
P 20875 4800
F 0 "#PWR0155" H 20875 4550 50  0001 C CNN
F 1 "GND" H 20880 4627 50  0000 C CNN
F 2 "" H 20875 4800 50  0001 C CNN
F 3 "" H 20875 4800 50  0001 C CNN
	1    20875 4800
	1    0    0    -1  
$EndComp
Wire Wire Line
	20875 4800 20950 4800
Text Label 19825 4500 2    50   ~ 0
HALL_A
Text Label 19825 4600 2    50   ~ 0
HALL_B
$Comp
L power:+5V #PWR0156
U 1 1 5FEC7DD8
P 21400 6000
F 0 "#PWR0156" H 21400 5850 50  0001 C CNN
F 1 "+5V" H 21415 6173 50  0000 C CNN
F 2 "" H 21400 6000 50  0001 C CNN
F 3 "" H 21400 6000 50  0001 C CNN
	1    21400 6000
	1    0    0    -1  
$EndComp
Wire Wire Line
	21400 6000 21475 6000
$Comp
L power:GND #PWR0157
U 1 1 5FEC7DDF
P 21400 6500
F 0 "#PWR0157" H 21400 6250 50  0001 C CNN
F 1 "GND" H 21405 6327 50  0000 C CNN
F 2 "" H 21400 6500 50  0001 C CNN
F 3 "" H 21400 6500 50  0001 C CNN
	1    21400 6500
	1    0    0    -1  
$EndComp
Wire Wire Line
	21400 6500 21475 6500
Text Label 20650 6200 2    50   ~ 0
ENCODERSPI_MOSI
Text Label 20650 6300 2    50   ~ 0
ENCODERSPI_MISO
Text Label 20650 6400 2    50   ~ 0
ENCODERSPI_SCK
$Comp
L power:+3V3 #PWR0158
U 1 1 601ACA49
P 21225 6100
F 0 "#PWR0158" H 21225 5950 50  0001 C CNN
F 1 "+3V3" H 21240 6273 50  0000 C CNN
F 2 "" H 21225 6100 50  0001 C CNN
F 3 "" H 21225 6100 50  0001 C CNN
	1    21225 6100
	1    0    0    -1  
$EndComp
Wire Wire Line
	21225 6100 21475 6100
$Comp
L Connector_Generic:Conn_01x06 J19
U 1 1 5FEC7DD2
P 21675 6200
F 0 "J19" H 21755 6192 50  0000 L CNN
F 1 "SPI Encoder" H 21755 6101 50  0000 L CNN
F 2 "Connector_PinHeader_2.54mm:PinHeader_1x06_P2.54mm_Vertical" H 21675 6200 50  0001 C CNN
F 3 "~" H 21675 6200 50  0001 C CNN
	1    21675 6200
	1    0    0    -1  
$EndComp
$Comp
L power:+3V3 #PWR0159
U 1 1 603A178D
P 20725 4125
F 0 "#PWR0159" H 20725 3975 50  0001 C CNN
F 1 "+3V3" H 20740 4298 50  0000 C CNN
F 2 "" H 20725 4125 50  0001 C CNN
F 3 "" H 20725 4125 50  0001 C CNN
	1    20725 4125
	1    0    0    -1  
$EndComp
Wire Wire Line
	20725 4400 20950 4400
$Comp
L power:+3V3 #PWR0160
U 1 1 603F4CF9
P 18100 7175
F 0 "#PWR0160" H 18100 7025 50  0001 C CNN
F 1 "+3V3" H 18115 7348 50  0000 C CNN
F 2 "" H 18100 7175 50  0001 C CNN
F 3 "" H 18100 7175 50  0001 C CNN
	1    18100 7175
	1    0    0    -1  
$EndComp
Wire Wire Line
	18100 7175 18350 7175
Text Label 19825 4700 2    50   ~ 0
HALL_C
$Comp
L Connector_Generic:Conn_01x02 J13
U 1 1 6059A3C2
P 18550 6400
F 0 "J13" H 18630 6392 50  0000 L CNN
F 1 "Servo PWM" H 18630 6301 50  0000 L CNN
F 2 "Connector_PinHeader_2.54mm:PinHeader_1x02_P2.54mm_Vertical" H 18550 6400 50  0001 C CNN
F 3 "~" H 18550 6400 50  0001 C CNN
	1    18550 6400
	1    0    0    -1  
$EndComp
Text Label 17675 6400 2    50   ~ 0
SERVO_PWM_IN
Text Label 17525 7275 2    50   ~ 0
MOTOR_ENCODER_A
Text Label 17525 7375 2    50   ~ 0
MOTOR_ENCODER_B
Text Label 21300 7650 2    50   ~ 0
MOTOR_THERMISTOR
$Comp
L power:+3V3 #PWR0161
U 1 1 607F6A4E
P 20200 2200
F 0 "#PWR0161" H 20200 2050 50  0001 C CNN
F 1 "+3V3" H 20215 2373 50  0000 C CNN
F 2 "" H 20200 2200 50  0001 C CNN
F 3 "" H 20200 2200 50  0001 C CNN
	1    20200 2200
	1    0    0    -1  
$EndComp
Wire Wire Line
	20200 2200 20275 2200
$Comp
L power:+3V3 #PWR0162
U 1 1 6084C6EC
P 20825 2200
F 0 "#PWR0162" H 20825 2050 50  0001 C CNN
F 1 "+3V3" H 20840 2373 50  0000 C CNN
F 2 "" H 20825 2200 50  0001 C CNN
F 3 "" H 20825 2200 50  0001 C CNN
	1    20825 2200
	1    0    0    -1  
$EndComp
Wire Wire Line
	20825 2200 20775 2200
Text Label 20200 2900 2    50   ~ 0
NRST
Wire Wire Line
	20200 2900 20275 2900
$Comp
L power:GND #PWR0163
U 1 1 608FB261
P 20900 3150
F 0 "#PWR0163" H 20900 2900 50  0001 C CNN
F 1 "GND" H 20905 2977 50  0000 C CNN
F 2 "" H 20900 3150 50  0001 C CNN
F 3 "" H 20900 3150 50  0001 C CNN
	1    20900 3150
	1    0    0    -1  
$EndComp
Wire Wire Line
	20900 3150 20900 3100
Wire Wire Line
	20900 3100 20775 3100
Wire Wire Line
	20775 3100 20775 3000
Connection ~ 20775 2400
Wire Wire Line
	20775 2400 20775 2300
Connection ~ 20775 2500
Wire Wire Line
	20775 2500 20775 2400
Connection ~ 20775 2600
Wire Wire Line
	20775 2600 20775 2500
Connection ~ 20775 2700
Wire Wire Line
	20775 2700 20775 2600
Connection ~ 20775 2800
Wire Wire Line
	20775 2800 20775 2700
Connection ~ 20775 2900
Wire Wire Line
	20775 2900 20775 2800
Connection ~ 20775 3000
Wire Wire Line
	20775 3000 20775 2900
Wire Wire Line
	20200 2300 20275 2300
Wire Wire Line
	20200 2400 20275 2400
Wire Wire Line
	20200 2500 20275 2500
Wire Wire Line
	20200 2600 20275 2600
Wire Wire Line
	20200 2800 20275 2800
Connection ~ 20775 3100
$Comp
L Connector_Generic:Conn_02x10_Odd_Even J16
U 1 1 607F450E
P 20475 2600
F 0 "J16" H 20525 3217 50  0000 C CNN
F 1 "ST-Link" H 20525 3126 50  0000 C CNN
F 2 "Connector_PinHeader_2.54mm:PinHeader_2x10_P2.54mm_Vertical" H 20475 2600 50  0001 C CNN
F 3 "~" H 20475 2600 50  0001 C CNN
	1    20475 2600
	1    0    0    -1  
$EndComp
NoConn ~ 20275 3000
NoConn ~ 20275 3100
Text Label 20200 2300 2    50   ~ 0
SYS_NJTRST
Text Label 20200 2600 2    50   ~ 0
SYS_JTCK-SWLCK
NoConn ~ 20275 2700
Text Label 20200 2500 2    50   ~ 0
SYS_JTMS-SWDIO
Text Label 20200 2400 2    50   ~ 0
SYS_JTDI
Text Label 17550 2900 2    50   ~ 0
SYS_NJTRST
$Comp
L Device:R_Small_US R15
U 1 1 610BCE61
P 20250 4325
F 0 "R15" H 20318 4371 50  0000 L CNN
F 1 "10k" H 20318 4280 50  0000 L CNN
F 2 "Resistor_SMD:R_0603_1608Metric" H 20250 4325 50  0001 C CNN
F 3 "~" H 20250 4325 50  0001 C CNN
	1    20250 4325
	1    0    0    -1  
$EndComp
$Comp
L Device:R_Small_US R16
U 1 1 610BCF45
P 20500 4325
F 0 "R16" H 20568 4371 50  0000 L CNN
F 1 "10k" H 20568 4280 50  0000 L CNN
F 2 "Resistor_SMD:R_0603_1608Metric" H 20500 4325 50  0001 C CNN
F 3 "~" H 20500 4325 50  0001 C CNN
	1    20500 4325
	1    0    0    -1  
$EndComp
$Comp
L Device:R_Small_US R14
U 1 1 611155D9
P 20000 4325
F 0 "R14" H 20068 4371 50  0000 L CNN
F 1 "10k" H 20068 4280 50  0000 L CNN
F 2 "Resistor_SMD:R_0603_1608Metric" H 20000 4325 50  0001 C CNN
F 3 "~" H 20000 4325 50  0001 C CNN
	1    20000 4325
	1    0    0    -1  
$EndComp
Wire Wire Line
	19825 4500 20000 4500
Wire Wire Line
	20725 4125 20725 4225
Wire Wire Line
	20725 4225 20500 4225
Connection ~ 20725 4225
Wire Wire Line
	20725 4225 20725 4400
Connection ~ 20250 4225
Wire Wire Line
	20250 4225 20000 4225
Connection ~ 20500 4225
Wire Wire Line
	20500 4225 20250 4225
Wire Wire Line
	20000 4425 20000 4500
Connection ~ 20000 4500
Wire Wire Line
	20000 4500 20300 4500
Wire Wire Line
	19825 4600 20250 4600
Wire Wire Line
	19825 4700 20500 4700
Wire Wire Line
	20250 4425 20250 4600
Connection ~ 20250 4600
Wire Wire Line
	20250 4600 20400 4600
Wire Wire Line
	20500 4425 20500 4700
Connection ~ 20500 4700
Wire Wire Line
	20500 4700 20950 4700
Text Notes 21900 4650 0    50   ~ 0
PD3\nPD4\nPD7
Text Notes 19200 7400 0    50   ~ 0
PC6\nPC7
$Comp
L power:GND #PWR0132
U 1 1 5E9A1A3E
P 17625 4225
F 0 "#PWR0132" H 17625 3975 50  0001 C CNN
F 1 "GND" H 17630 4052 50  0000 C CNN
F 2 "" H 17625 4225 50  0001 C CNN
F 3 "" H 17625 4225 50  0001 C CNN
	1    17625 4225
	1    0    0    -1  
$EndComp
Text Label 17625 4125 2    50   ~ 0
USART1_RX
Text Label 17625 4025 2    50   ~ 0
USART1_TX
$Comp
L Connector_Generic:Conn_01x03 J8
U 1 1 5E974AB7
P 17825 4125
F 0 "J8" H 17905 4117 50  0000 L CNN
F 1 "SERIAL" H 17905 4026 50  0000 L CNN
F 2 "Connector_PinHeader_2.54mm:PinHeader_1x03_P2.54mm_Vertical" H 17825 4125 50  0001 C CNN
F 3 "~" H 17825 4125 50  0001 C CNN
	1    17825 4125
	1    0    0    -1  
$EndComp
Text Notes 19200 7475 0    50   ~ 0
PD12
Text Notes 18950 6400 0    50   ~ 0
PE1
$Comp
L power:GND #PWR?
U 1 1 61AAD2C8
P 15650 6275
AR Path="/618F914E/61AAD2C8" Ref="#PWR?"  Part="1" 
AR Path="/61AAD2C8" Ref="#PWR0164"  Part="1" 
AR Path="/623548EE/61AAD2C8" Ref="#PWR?"  Part="1" 
F 0 "#PWR0164" H 15650 6025 50  0001 C CNN
F 1 "GND" H 15655 6102 50  0000 C CNN
F 2 "" H 15650 6275 50  0001 C CNN
F 3 "" H 15650 6275 50  0001 C CNN
	1    15650 6275
	-1   0    0    -1  
$EndComp
Wire Wire Line
	15650 6275 15650 6225
$Comp
L Connector_Generic:Conn_01x05 J12
U 1 1 61AAD2D8
P 15375 6025
F 0 "J12" H 15455 6017 50  0000 L CNN
F 1 "I2C" H 15455 5926 50  0000 L CNN
F 2 "Connector_PinHeader_2.54mm:PinHeader_1x05_P2.54mm_Vertical" H 15375 6025 50  0001 C CNN
F 3 "~" H 15375 6025 50  0001 C CNN
	1    15375 6025
	-1   0    0    -1  
$EndComp
$Comp
L Device:R_Small_US R11
U 1 1 61AAD2E0
P 16075 5875
F 0 "R11" H 16007 5829 50  0000 R CNN
F 1 "4.7k" H 16007 5920 50  0000 R CNN
F 2 "Resistor_SMD:R_0603_1608Metric" H 16075 5875 50  0001 C CNN
F 3 "~" H 16075 5875 50  0001 C CNN
	1    16075 5875
	-1   0    0    1   
$EndComp
$Comp
L power:+3V3 #PWR0165
U 1 1 61AAD2E6
P 16150 5775
F 0 "#PWR0165" H 16150 5625 50  0001 C CNN
F 1 "+3V3" H 16165 5948 50  0000 C CNN
F 2 "" H 16150 5775 50  0001 C CNN
F 3 "" H 16150 5775 50  0001 C CNN
	1    16150 5775
	1    0    0    -1  
$EndComp
Wire Wire Line
	16075 5775 16150 5775
$Comp
L Device:R_Small_US R13
U 1 1 61AAD2ED
P 16375 5875
F 0 "R13" V 16170 5875 50  0000 C CNN
F 1 "4.7k" V 16261 5875 50  0000 C CNN
F 2 "Resistor_SMD:R_0603_1608Metric" H 16375 5875 50  0001 C CNN
F 3 "~" H 16375 5875 50  0001 C CNN
	1    16375 5875
	-1   0    0    1   
$EndComp
Wire Wire Line
	16375 5775 16150 5775
Connection ~ 16150 5775
Wire Wire Line
	16500 6125 16375 6125
Wire Wire Line
	16375 5975 16375 6125
Connection ~ 16375 6125
Wire Wire Line
	16075 5975 16075 6025
Connection ~ 16075 6025
Wire Wire Line
	16075 6025 16500 6025
Text Label 16500 6125 0    50   ~ 0
PERIPH_I2C_SDA
Text Label 16500 6025 0    50   ~ 0
PERIPH_I2C_SCL
$Comp
L power:+5V #PWR0166
U 1 1 61D934DD
P 15675 5825
F 0 "#PWR0166" H 15675 5675 50  0001 C CNN
F 1 "+5V" H 15690 5998 50  0000 C CNN
F 2 "" H 15675 5825 50  0001 C CNN
F 3 "" H 15675 5825 50  0001 C CNN
	1    15675 5825
	-1   0    0    -1  
$EndComp
$Comp
L power:+3V3 #PWR0167
U 1 1 61D93854
P 15850 5925
F 0 "#PWR0167" H 15850 5775 50  0001 C CNN
F 1 "+3V3" H 15865 6098 50  0000 C CNN
F 2 "" H 15850 5925 50  0001 C CNN
F 3 "" H 15850 5925 50  0001 C CNN
	1    15850 5925
	1    0    0    -1  
$EndComp
Wire Wire Line
	15675 5825 15575 5825
Wire Wire Line
	15575 5925 15850 5925
Wire Wire Line
	15575 6025 16075 6025
Wire Wire Line
	15575 6225 15650 6225
Wire Wire Line
	15575 6125 16375 6125
Wire Wire Line
	16375 6200 16375 6125
Wire Wire Line
	16075 6200 16075 6025
Text Notes 17325 6100 0    50   ~ 0
PB6\nPB7
$Comp
L Power_Protection:SP0502BAHT D5
U 1 1 6226E41B
P 1900 1900
F 0 "D5" H 2105 1946 50  0000 L CNN
F 1 "SP0502BAHT" H 2105 1855 50  0001 L CNN
F 2 "Package_TO_SOT_SMD:SOT-23" H 2125 1850 50  0001 L CNN
F 3 "http://www.littelfuse.com/~/media/files/littelfuse/technical%20resources/documents/data%20sheets/sp05xxba.pdf" H 2025 2025 50  0001 C CNN
	1    1900 1900
	-1   0    0    -1  
$EndComp
Text Notes 1600 2500 0    50   ~ 0
SP0502BAHT\n(2.0 FS rated)
$Comp
L power:GND #PWR0168
U 1 1 623E6F1F
P 1900 2125
F 0 "#PWR0168" H 1900 1875 50  0001 C CNN
F 1 "GND" H 1905 1952 50  0000 C CNN
F 2 "" H 1900 2125 50  0001 C CNN
F 3 "" H 1900 2125 50  0001 C CNN
	1    1900 2125
	1    0    0    -1  
$EndComp
Wire Wire Line
	1900 2125 1900 2100
Connection ~ 2000 1450
Wire Wire Line
	1750 1450 2000 1450
Wire Wire Line
	900  5550 825  5550
Wire Wire Line
	825  5550 825  5300
Connection ~ 825  5300
Wire Wire Line
	825  5300 1050 5300
Wire Wire Line
	700  5500 700  5550
Connection ~ 700  5500
$Comp
L power:GND #PWR0169
U 1 1 625645B2
P 800 5950
F 0 "#PWR0169" H 800 5700 50  0001 C CNN
F 1 "GND" H 805 5777 50  0000 C CNN
F 2 "" H 800 5950 50  0001 C CNN
F 3 "" H 800 5950 50  0001 C CNN
	1    800  5950
	1    0    0    -1  
$EndComp
Text Notes -1050 5975 0    50   ~ 0
Not technically for\nCAN but keep away from\nEMI and we're fine
$Comp
L Power_Protection:SP0502BAHT D7
U 1 1 625702C5
P 16225 6400
F 0 "D7" H 16430 6446 50  0000 L CNN
F 1 "SP0502BAHT" H 16430 6355 50  0001 L CNN
F 2 "Package_TO_SOT_SMD:SOT-23" H 16450 6350 50  0001 L CNN
F 3 "http://www.littelfuse.com/~/media/files/littelfuse/technical%20resources/documents/data%20sheets/sp05xxba.pdf" H 16350 6525 50  0001 C CNN
	1    16225 6400
	1    0    0    -1  
$EndComp
Wire Wire Line
	16075 6200 16125 6200
Wire Wire Line
	16325 6200 16375 6200
$Comp
L power:GND #PWR?
U 1 1 6274B013
P 16225 6600
AR Path="/618F914E/6274B013" Ref="#PWR?"  Part="1" 
AR Path="/6274B013" Ref="#PWR0170"  Part="1" 
AR Path="/623548EE/6274B013" Ref="#PWR?"  Part="1" 
F 0 "#PWR0170" H 16225 6350 50  0001 C CNN
F 1 "GND" H 16230 6427 50  0000 C CNN
F 2 "" H 16225 6600 50  0001 C CNN
F 3 "" H 16225 6600 50  0001 C CNN
	1    16225 6600
	-1   0    0    -1  
$EndComp
$Comp
L Power_Protection:SP0504BAHT D9
U 1 1 6274FF00
P 20300 4975
F 0 "D9" H 20605 4975 50  0000 L CNN
F 1 "SP0504BAHT" H 20605 4930 50  0001 L CNN
F 2 "Package_TO_SOT_SMD:SOT-23-5" H 20600 4925 50  0001 L CNN
F 3 "http://www.littelfuse.com/~/media/files/littelfuse/technical%20resources/documents/data%20sheets/sp05xxba.pdf" H 20425 5100 50  0001 C CNN
	1    20300 4975
	1    0    0    -1  
$EndComp
Wire Wire Line
	20500 4775 20500 4700
Wire Wire Line
	20400 4775 20400 4600
Connection ~ 20400 4600
Wire Wire Line
	20400 4600 20950 4600
Wire Wire Line
	20300 4775 20300 4500
Connection ~ 20300 4500
Wire Wire Line
	20300 4500 20950 4500
$Comp
L power:GND #PWR0171
U 1 1 628D542D
P 20300 5175
F 0 "#PWR0171" H 20300 4925 50  0001 C CNN
F 1 "GND" H 20305 5002 50  0000 C CNN
F 2 "" H 20300 5175 50  0001 C CNN
F 3 "" H 20300 5175 50  0001 C CNN
	1    20300 5175
	1    0    0    -1  
$EndComp
$Comp
L Power_Protection:SP0504BAHT D8
U 1 1 62CA1447
P 17775 7750
F 0 "D8" H 18080 7750 50  0000 L CNN
F 1 "SP0504BAHT" H 18080 7705 50  0001 L CNN
F 2 "Package_TO_SOT_SMD:SOT-23-5" H 18075 7700 50  0001 L CNN
F 3 "http://www.littelfuse.com/~/media/files/littelfuse/technical%20resources/documents/data%20sheets/sp05xxba.pdf" H 17900 7875 50  0001 C CNN
	1    17775 7750
	1    0    0    -1  
$EndComp
Wire Wire Line
	17525 7275 17775 7275
Wire Wire Line
	17525 7375 17875 7375
Wire Wire Line
	17525 7475 17975 7475
Wire Wire Line
	17975 7550 17975 7475
Connection ~ 17975 7475
Wire Wire Line
	17975 7475 18350 7475
Wire Wire Line
	17875 7550 17875 7375
Connection ~ 17875 7375
Wire Wire Line
	17875 7375 18350 7375
Wire Wire Line
	17775 7550 17775 7275
Connection ~ 17775 7275
Wire Wire Line
	17775 7275 18350 7275
$Comp
L power:GND #PWR0172
U 1 1 630CBBDB
P 17775 7950
F 0 "#PWR0172" H 17775 7700 50  0001 C CNN
F 1 "GND" H 17780 7777 50  0000 C CNN
F 2 "" H 17775 7950 50  0001 C CNN
F 3 "" H 17775 7950 50  0001 C CNN
	1    17775 7950
	1    0    0    -1  
$EndComp
Wire Wire Line
	18275 6500 18350 6500
$Comp
L power:GND #PWR0173
U 1 1 6059A3CF
P 18275 6500
F 0 "#PWR0173" H 18275 6250 50  0001 C CNN
F 1 "GND" H 18280 6327 50  0000 C CNN
F 2 "" H 18275 6500 50  0001 C CNN
F 3 "" H 18275 6500 50  0001 C CNN
	1    18275 6500
	1    0    0    -1  
$EndComp
$Comp
L Power_Protection:SP0504BAHT D10
U 1 1 63690B7E
P 20925 6675
F 0 "D10" H 20720 6675 50  0000 R CNN
F 1 "SP0504BAHT" H 21230 6630 50  0001 L CNN
F 2 "Package_TO_SOT_SMD:SOT-23-5" H 21225 6625 50  0001 L CNN
F 3 "http://www.littelfuse.com/~/media/files/littelfuse/technical%20resources/documents/data%20sheets/sp05xxba.pdf" H 21050 6800 50  0001 C CNN
	1    20925 6675
	-1   0    0    -1  
$EndComp
Wire Wire Line
	20650 6400 21025 6400
Wire Wire Line
	20650 6200 20825 6200
Wire Wire Line
	20650 6300 20925 6300
Wire Wire Line
	21025 6475 21025 6400
Connection ~ 21025 6400
Wire Wire Line
	21025 6400 21475 6400
Wire Wire Line
	20925 6475 20925 6300
Connection ~ 20925 6300
Wire Wire Line
	20925 6300 21475 6300
Wire Wire Line
	20825 6475 20825 6200
Connection ~ 20825 6200
Wire Wire Line
	20825 6200 21475 6200
$Comp
L power:GND #PWR0174
U 1 1 63AD3211
P 20925 6875
F 0 "#PWR0174" H 20925 6625 50  0001 C CNN
F 1 "GND" H 20930 6702 50  0000 C CNN
F 2 "" H 20925 6875 50  0001 C CNN
F 3 "" H 20925 6875 50  0001 C CNN
	1    20925 6875
	1    0    0    -1  
$EndComp
Text Label 20725 6475 2    50   ~ 0
MOTOR_THERMISTOR
Wire Wire Line
	21425 7925 21425 7975
Wire Wire Line
	21300 7650 21425 7650
Text Label 20200 2800 2    50   ~ 0
SYS_JTDO-TRACESWO
$Comp
L Power_Protection:SP0502BAHT D11
U 1 1 63F68158
P 17900 6600
F 0 "D11" H 18105 6646 50  0000 L CNN
F 1 "SP0502BAHT" H 18105 6555 50  0001 L CNN
F 2 "Package_TO_SOT_SMD:SOT-23" H 18125 6550 50  0001 L CNN
F 3 "http://www.littelfuse.com/~/media/files/littelfuse/technical%20resources/documents/data%20sheets/sp05xxba.pdf" H 18025 6725 50  0001 C CNN
	1    17900 6600
	1    0    0    -1  
$EndComp
$Comp
L power:GND #PWR0177
U 1 1 63F68F3C
P 17900 6800
F 0 "#PWR0177" H 17900 6550 50  0001 C CNN
F 1 "GND" H 17905 6627 50  0000 C CNN
F 2 "" H 17900 6800 50  0001 C CNN
F 3 "" H 17900 6800 50  0001 C CNN
	1    17900 6800
	1    0    0    -1  
$EndComp
Wire Wire Line
	18000 6400 18350 6400
Wire Wire Line
	17675 6400 17800 6400
Connection ~ 18000 6400
Connection ~ 17800 6400
Wire Wire Line
	17800 6400 18000 6400
$Comp
L Power_Protection:SP0502BAHT D4
U 1 1 624A3E34
P 800 5750
F 0 "D4" H 1005 5796 50  0000 L CNN
F 1 "SP0502BAHT" H 1005 5705 50  0001 L CNN
F 2 "Package_TO_SOT_SMD:SOT-23" H 1025 5700 50  0001 L CNN
F 3 "http://www.littelfuse.com/~/media/files/littelfuse/technical%20resources/documents/data%20sheets/sp05xxba.pdf" H 925 5875 50  0001 C CNN
	1    800  5750
	-1   0    0    -1  
$EndComp
$Comp
L Regulator_Linear:AZ1117-3.3 U2
U 1 1 64319CBD
P 10650 1200
F 0 "U2" H 10650 1442 50  0000 C CNN
F 1 "AZ1117-3.3" H 10650 1351 50  0000 C CNN
F 2 "Package_TO_SOT_SMD:SOT-223-3_TabPin2" H 10650 1450 50  0001 C CIN
F 3 "https://www.diodes.com/assets/Datasheets/AZ1117.pdf" H 10650 1200 50  0001 C CNN
	1    10650 1200
	1    0    0    -1  
$EndComp
Wire Wire Line
	10650 1500 10650 1650
Wire Wire Line
	10950 1200 11150 1200
Wire Wire Line
	10075 1200 10350 1200
Text Label 17525 7475 2    50   ~ 0
PWM_IN_CH1
$Comp
L Connector:TestPoint TP11
U 1 1 64605250
P 2400 5200
F 0 "TP11" H 2458 5272 50  0001 L CNN
F 1 "TestPoint" H 2458 5227 50  0001 L CNN
F 2 "Connector_PinHeader_2.54mm:PinHeader_1x01_P2.54mm_Vertical" H 2600 5200 50  0001 C CNN
F 3 "~" H 2600 5200 50  0001 C CNN
	1    2400 5200
	1    0    0    -1  
$EndComp
Connection ~ 2400 5200
Wire Wire Line
	2400 5200 2050 5200
$Comp
L Connector:TestPoint TP12
U 1 1 64606AA8
P 2475 5300
F 0 "TP12" H 2533 5372 50  0001 L CNN
F 1 "TestPoint" H 2533 5327 50  0001 L CNN
F 2 "Connector_PinHeader_2.54mm:PinHeader_1x01_P2.54mm_Vertical" H 2675 5300 50  0001 C CNN
F 3 "~" H 2675 5300 50  0001 C CNN
	1    2475 5300
	1    0    0    -1  
$EndComp
Connection ~ 2475 5300
Wire Wire Line
	2475 5300 2550 5300
Wire Wire Line
	1800 1650 2300 1650
Wire Wire Line
	2000 1450 2850 1450
Wire Bus Line
	7750 650  7750 2900
Wire Bus Line
	2950 650  2950 1550
Wire Bus Line
	7700 4400 7700 7500
Wire Bus Line
	3300 6650 3300 7500
$EndSCHEMATC
