EESchema Schematic File Version 4
EELAYER 30 0
EELAYER END
$Descr A4 11693 8268
encoding utf-8
Sheet 4 5
Title ""
Date ""
Rev ""
Comp ""
Comment1 ""
Comment2 ""
Comment3 ""
Comment4 ""
$EndDescr
Text HLabel 2725 4150 0    50   Input ~ 0
Vbus
Text HLabel 3300 4150 2    50   Output ~ 0
3v3
$EndSCHEMATC
