EESchema Schematic File Version 4
EELAYER 30 0
EELAYER END
$Descr A4 11693 8268
encoding utf-8
Sheet 2 6
Title ""
Date ""
Rev ""
Comp ""
Comment1 ""
Comment2 ""
Comment3 ""
Comment4 ""
$EndDescr
Text HLabel 1875 3175 0    50   Input ~ 0
Vbus
Text HLabel 8250 3325 2    50   Output ~ 0
5v0
$Comp
L copperforge:LM73606 U3
U 1 1 5E3F1E55
P 4575 3475
F 0 "U3" H 4625 4040 50  0000 C CNN
F 1 "LM73606" H 4625 3949 50  0000 C CNN
F 2 "copperforge:WFQFN-30" H 4925 3925 50  0001 C CNN
F 3 "" H 4925 3925 50  0001 C CNN
	1    4575 3475
	1    0    0    -1  
$EndComp
$Comp
L power:GND #PWR0120
U 1 1 5E3F5506
P 4625 4425
F 0 "#PWR0120" H 4625 4175 50  0001 C CNN
F 1 "GND" H 4630 4252 50  0000 C CNN
F 2 "" H 4625 4425 50  0001 C CNN
F 3 "" H 4625 4425 50  0001 C CNN
	1    4625 4425
	1    0    0    -1  
$EndComp
Wire Wire Line
	4625 4425 4625 4400
Wire Wire Line
	4525 4325 4525 4400
Wire Wire Line
	4525 4400 4625 4400
Connection ~ 4625 4400
Wire Wire Line
	4625 4400 4625 4325
$Comp
L power:GND #PWR0121
U 1 1 5E3F5ECA
P 5225 4125
F 0 "#PWR0121" H 5225 3875 50  0001 C CNN
F 1 "GND" H 5230 3952 50  0000 C CNN
F 2 "" H 5225 4125 50  0001 C CNN
F 3 "" H 5225 4125 50  0001 C CNN
	1    5225 4125
	1    0    0    -1  
$EndComp
Wire Wire Line
	5225 4125 5125 4125
$Comp
L power:GND #PWR0122
U 1 1 5E3F61AF
P 3625 3475
F 0 "#PWR0122" H 3625 3225 50  0001 C CNN
F 1 "GND" H 3630 3302 50  0000 C CNN
F 2 "" H 3625 3475 50  0001 C CNN
F 3 "" H 3625 3475 50  0001 C CNN
	1    3625 3475
	1    0    0    -1  
$EndComp
Wire Wire Line
	3625 3475 4125 3475
Wire Wire Line
	4125 3925 3650 3925
Wire Wire Line
	3650 3925 3650 4325
$Comp
L power:GND #PWR0123
U 1 1 5E3F69BD
P 3650 4350
F 0 "#PWR0123" H 3650 4100 50  0001 C CNN
F 1 "GND" H 3655 4177 50  0000 C CNN
F 2 "" H 3650 4350 50  0001 C CNN
F 3 "" H 3650 4350 50  0001 C CNN
	1    3650 4350
	1    0    0    -1  
$EndComp
$Comp
L Device:C_Small C21
U 1 1 5E3F6BA0
P 3875 4175
F 0 "C21" H 3967 4221 50  0000 L CNN
F 1 "2.2u" H 3967 4130 50  0000 L CNN
F 2 "Capacitor_SMD:C_0603_1608Metric" H 3875 4175 50  0001 C CNN
F 3 "~" H 3875 4175 50  0001 C CNN
	1    3875 4175
	1    0    0    -1  
$EndComp
Wire Wire Line
	3875 4075 4125 4075
Wire Wire Line
	3875 4275 3875 4325
Wire Wire Line
	3875 4325 3650 4325
Connection ~ 3650 4325
Wire Wire Line
	3650 4325 3650 4350
$Comp
L Device:C_Small C22
U 1 1 5E3F7618
P 5425 3325
F 0 "C22" V 5196 3325 50  0000 C CNN
F 1 "470n" V 5287 3325 50  0000 C CNN
F 2 "Capacitor_SMD:C_0603_1608Metric" H 5425 3325 50  0001 C CNN
F 3 "~" H 5425 3325 50  0001 C CNN
	1    5425 3325
	0    1    1    0   
$EndComp
Wire Wire Line
	5125 3325 5325 3325
Wire Wire Line
	5125 3175 5250 3175
Wire Wire Line
	5250 3175 5250 3025
Wire Wire Line
	5250 3025 5625 3025
Wire Wire Line
	5625 3025 5625 3325
Wire Wire Line
	5625 3325 5525 3325
$Comp
L Device:L L1
U 1 1 5E3F8006
P 5775 3325
F 0 "L1" V 5965 3325 50  0000 C CNN
F 1 "4.7u" V 5874 3325 50  0000 C CNN
F 2 "copperforge:ETQ-P8M4R7JFA" H 5775 3325 50  0001 C CNN
F 3 "~" H 5775 3325 50  0001 C CNN
	1    5775 3325
	0    -1   -1   0   
$EndComp
Connection ~ 5625 3325
Wire Wire Line
	5125 3475 5925 3475
Wire Wire Line
	5925 3475 5925 3325
Wire Wire Line
	5925 3325 6050 3325
Connection ~ 5925 3325
$Comp
L Device:C_Small C23
U 1 1 5E3F8B85
P 6050 3425
F 0 "C23" H 6142 3471 50  0000 L CNN
F 1 "1u" H 6142 3380 50  0000 L CNN
F 2 "Capacitor_SMD:C_0603_1608Metric" H 6050 3425 50  0001 C CNN
F 3 "~" H 6050 3425 50  0001 C CNN
	1    6050 3425
	1    0    0    -1  
$EndComp
$Comp
L Device:C_Small C24
U 1 1 5E3F8F16
P 6350 3425
F 0 "C24" H 6442 3471 50  0000 L CNN
F 1 "13p" H 6442 3380 50  0000 L CNN
F 2 "Capacitor_SMD:C_0603_1608Metric" H 6350 3425 50  0001 C CNN
F 3 "~" H 6350 3425 50  0001 C CNN
	1    6350 3425
	1    0    0    -1  
$EndComp
Wire Wire Line
	6350 3325 6050 3325
Connection ~ 6050 3325
$Comp
L power:GND #PWR0124
U 1 1 5E3F9447
P 6050 3525
F 0 "#PWR0124" H 6050 3275 50  0001 C CNN
F 1 "GND" H 6055 3352 50  0000 C CNN
F 2 "" H 6050 3525 50  0001 C CNN
F 3 "" H 6050 3525 50  0001 C CNN
	1    6050 3525
	1    0    0    -1  
$EndComp
Wire Wire Line
	6350 3525 6350 3875
Wire Wire Line
	6350 3875 5125 3875
$Comp
L Device:R_Small_US R7
U 1 1 5E3F9F43
P 6675 3775
F 0 "R7" H 6743 3821 50  0000 L CNN
F 1 "100k" H 6743 3730 50  0000 L CNN
F 2 "Resistor_SMD:R_0603_1608Metric" H 6675 3775 50  0001 C CNN
F 3 "~" H 6675 3775 50  0001 C CNN
	1    6675 3775
	1    0    0    -1  
$EndComp
$Comp
L Device:R_Small_US R8
U 1 1 5E3FA504
P 6675 3975
F 0 "R8" H 6743 4021 50  0000 L CNN
F 1 "24.9k" H 6743 3930 50  0000 L CNN
F 2 "Resistor_SMD:R_0603_1608Metric" H 6675 3975 50  0001 C CNN
F 3 "~" H 6675 3975 50  0001 C CNN
	1    6675 3975
	1    0    0    -1  
$EndComp
Wire Wire Line
	6675 3875 6350 3875
Connection ~ 6675 3875
Connection ~ 6350 3875
Wire Wire Line
	6350 3325 6675 3325
Wire Wire Line
	6675 3325 6675 3675
Connection ~ 6350 3325
$Comp
L power:GND #PWR0125
U 1 1 5E3FB4B6
P 6675 4075
F 0 "#PWR0125" H 6675 3825 50  0001 C CNN
F 1 "GND" H 6680 3902 50  0000 C CNN
F 2 "" H 6675 4075 50  0001 C CNN
F 3 "" H 6675 4075 50  0001 C CNN
	1    6675 4075
	1    0    0    -1  
$EndComp
$Comp
L Device:C_Small C25
U 1 1 5E3FBE36
P 6975 3425
F 0 "C25" H 7067 3471 50  0000 L CNN
F 1 "470n" H 7067 3380 50  0000 L CNN
F 2 "Capacitor_SMD:C_0603_1608Metric" H 6975 3425 50  0001 C CNN
F 3 "~" H 6975 3425 50  0001 C CNN
	1    6975 3425
	1    0    0    -1  
$EndComp
$Comp
L Device:CP1_Small C27
U 1 1 5E3FC54E
P 7625 3425
F 0 "C27" H 7716 3471 50  0000 L CNN
F 1 "68u" H 7716 3380 50  0000 L CNN
F 2 "Capacitor_SMD:CP_Elec_6.3x5.8" H 7625 3425 50  0001 C CNN
F 3 "~" H 7625 3425 50  0001 C CNN
	1    7625 3425
	1    0    0    -1  
$EndComp
$Comp
L Device:CP1_Small C28
U 1 1 5E3FCCAD
P 7950 3425
F 0 "C28" H 8041 3471 50  0000 L CNN
F 1 "68u" H 8041 3380 50  0000 L CNN
F 2 "Capacitor_SMD:CP_Elec_6.3x5.8" H 7950 3425 50  0001 C CNN
F 3 "~" H 7950 3425 50  0001 C CNN
	1    7950 3425
	1    0    0    -1  
$EndComp
$Comp
L Device:C_Small C26
U 1 1 5E3FCE02
P 7325 3425
F 0 "C26" H 7417 3471 50  0000 L CNN
F 1 "22u" H 7417 3380 50  0000 L CNN
F 2 "Capacitor_SMD:C_0603_1608Metric" H 7325 3425 50  0001 C CNN
F 3 "~" H 7325 3425 50  0001 C CNN
	1    7325 3425
	1    0    0    -1  
$EndComp
Wire Wire Line
	8250 3325 7950 3325
Connection ~ 6675 3325
Wire Wire Line
	6975 3525 7325 3525
Connection ~ 7325 3525
Wire Wire Line
	7325 3525 7475 3525
Connection ~ 7625 3525
Wire Wire Line
	7625 3525 7950 3525
$Comp
L power:GND #PWR0126
U 1 1 5E3FEB47
P 7475 3525
F 0 "#PWR0126" H 7475 3275 50  0001 C CNN
F 1 "GND" H 7480 3352 50  0000 C CNN
F 2 "" H 7475 3525 50  0001 C CNN
F 3 "" H 7475 3525 50  0001 C CNN
	1    7475 3525
	1    0    0    -1  
$EndComp
Connection ~ 7475 3525
Wire Wire Line
	7475 3525 7625 3525
Connection ~ 6975 3325
Connection ~ 7325 3325
Connection ~ 7625 3325
Connection ~ 7950 3325
Wire Wire Line
	6675 3325 6975 3325
Wire Wire Line
	6975 3325 7325 3325
Wire Wire Line
	7325 3325 7625 3325
Wire Wire Line
	7625 3325 7950 3325
$Comp
L Device:C_Small C20
U 1 1 5E400220
P 2825 3275
F 0 "C20" H 2917 3321 50  0000 L CNN
F 1 "47n" H 2917 3230 50  0000 L CNN
F 2 "Capacitor_SMD:C_0603_1608Metric" H 2825 3275 50  0001 C CNN
F 3 "~" H 2825 3275 50  0001 C CNN
	1    2825 3275
	1    0    0    -1  
$EndComp
$Comp
L Device:C_Small C19
U 1 1 5E400474
P 2500 3275
F 0 "C19" H 2592 3321 50  0000 L CNN
F 1 "10u" H 2592 3230 50  0000 L CNN
F 2 "Capacitor_SMD:C_1206_3216Metric" H 2500 3275 50  0001 C CNN
F 3 "~" H 2500 3275 50  0001 C CNN
	1    2500 3275
	1    0    0    -1  
$EndComp
$Comp
L Device:CP1_Small C18
U 1 1 5E400884
P 2150 3275
F 0 "C18" H 2241 3321 50  0000 L CNN
F 1 "47u" H 2241 3230 50  0000 L CNN
F 2 "Capacitor_SMD:CP_Elec_6.3x7.7" H 2150 3275 50  0001 C CNN
F 3 "~" H 2150 3275 50  0001 C CNN
	1    2150 3275
	1    0    0    -1  
$EndComp
Wire Wire Line
	2150 3175 2500 3175
Connection ~ 2500 3175
Wire Wire Line
	2500 3175 2825 3175
Connection ~ 2825 3175
Connection ~ 2500 3375
Wire Wire Line
	2500 3375 2150 3375
Wire Wire Line
	2825 3375 2625 3375
Wire Wire Line
	2150 3175 1875 3175
Connection ~ 2150 3175
$Comp
L Connector:TestPoint_Alt TP?
U 1 1 5EF4B2D6
P 5625 3025
AR Path="/5EF4B2D6" Ref="TP?"  Part="1" 
AR Path="/5E3FC3A3/5EF4B2D6" Ref="TP?"  Part="1" 
AR Path="/5E3DE86F/5EF4B2D6" Ref="TP7"  Part="1" 
F 0 "TP7" H 5683 3097 50  0001 L CNN
F 1 "TestPoint_Alt" H 5683 3052 50  0001 L CNN
F 2 "TestPoint:TestPoint_Pad_1.0x1.0mm" H 5825 3025 50  0001 C CNN
F 3 "~" H 5825 3025 50  0001 C CNN
	1    5625 3025
	1    0    0    -1  
$EndComp
$Comp
L Connector:TestPoint_Alt TP?
U 1 1 5EF4C778
P 6675 3325
AR Path="/5EF4C778" Ref="TP?"  Part="1" 
AR Path="/5E3FC3A3/5EF4C778" Ref="TP?"  Part="1" 
AR Path="/5E3DE86F/5EF4C778" Ref="TP17"  Part="1" 
F 0 "TP17" H 6733 3397 50  0001 L CNN
F 1 "TestPoint_Alt" H 6733 3352 50  0001 L CNN
F 2 "TestPoint:TestPoint_Pad_1.0x1.0mm" H 6875 3325 50  0001 C CNN
F 3 "~" H 6875 3325 50  0001 C CNN
	1    6675 3325
	1    0    0    -1  
$EndComp
$Comp
L Device:R_Small_US R42
U 1 1 5E481C07
P 5525 3650
F 0 "R42" V 5425 3650 50  0000 C CNN
F 1 "95.3k" V 5600 3650 50  0000 C CNN
F 2 "Resistor_SMD:R_0603_1608Metric" H 5525 3650 50  0001 C CNN
F 3 "~" H 5525 3650 50  0001 C CNN
	1    5525 3650
	0    1    1    0   
$EndComp
$Comp
L power:GND #PWR0179
U 1 1 5E482D7C
P 5825 3650
F 0 "#PWR0179" H 5825 3400 50  0001 C CNN
F 1 "GND" H 5830 3477 50  0000 C CNN
F 2 "" H 5825 3650 50  0001 C CNN
F 3 "" H 5825 3650 50  0001 C CNN
	1    5825 3650
	1    0    0    -1  
$EndComp
Wire Wire Line
	5825 3650 5625 3650
Wire Wire Line
	5425 3650 5250 3650
Wire Wire Line
	5250 3650 5250 3675
Wire Wire Line
	5250 3675 5125 3675
$Comp
L Device:R_Small_US R41
U 1 1 5E487202
P 3250 3750
F 0 "R41" V 3045 3750 50  0000 C CNN
F 1 "105k" V 3136 3750 50  0000 C CNN
F 2 "Resistor_SMD:R_0603_1608Metric" H 3250 3750 50  0001 C CNN
F 3 "~" H 3250 3750 50  0001 C CNN
	1    3250 3750
	0    1    1    0   
$EndComp
Text HLabel 2950 3650 1    50   Output ~ 0
5v0
Wire Wire Line
	2950 3750 3150 3750
Wire Wire Line
	3350 3750 3475 3750
Wire Wire Line
	3750 3750 3750 3625
Wire Wire Line
	3750 3625 4125 3625
Text Notes 5850 3100 0    50   ~ 0
ETQ-P8M4R7JFA
$Comp
L Connector:TestPoint_Alt TP?
U 1 1 5E4D7413
P 3475 3750
AR Path="/5E4D7413" Ref="TP?"  Part="1" 
AR Path="/5E3FC3A3/5E4D7413" Ref="TP?"  Part="1" 
AR Path="/5E3DE86F/5E4D7413" Ref="TP53"  Part="1" 
F 0 "TP53" H 3533 3822 50  0001 L CNN
F 1 "TestPoint_Alt" H 3533 3777 50  0001 L CNN
F 2 "TestPoint:TestPoint_Pad_1.0x1.0mm" H 3675 3750 50  0001 C CNN
F 3 "~" H 3675 3750 50  0001 C CNN
	1    3475 3750
	-1   0    0    1   
$EndComp
Connection ~ 3475 3750
Wire Wire Line
	3475 3750 3750 3750
Wire Wire Line
	2625 3475 2625 3375
Connection ~ 2625 3375
Wire Wire Line
	2625 3375 2500 3375
Text Notes 7800 3700 0    50   ~ 0
Elec: UUD1A680MCL1GS
Text Notes 1750 3025 0    50   ~ 0
Elec: UCZ1H470MCL6GS\n
$Comp
L Connector:TestPoint TP?
U 1 1 5E5B71EB
P 5575 4400
AR Path="/5E5B71EB" Ref="TP?"  Part="1" 
AR Path="/5E53FE8F/5E5B71EB" Ref="TP?"  Part="1" 
AR Path="/5E3DE86F/5E5B71EB" Ref="TP64"  Part="1" 
F 0 "TP64" H 5633 4472 50  0001 L CNN
F 1 "TestPoint" H 5633 4427 50  0001 L CNN
F 2 "copperforge:TestPoint_Keystone_5019_Minature-3dmodel" H 5775 4400 50  0001 C CNN
F 3 "~" H 5775 4400 50  0001 C CNN
	1    5575 4400
	1    0    0    -1  
$EndComp
$Comp
L power:GND #PWR?
U 1 1 5E5B71F1
P 5575 4400
AR Path="/5E53FE8F/5E5B71F1" Ref="#PWR?"  Part="1" 
AR Path="/5E3DE86F/5E5B71F1" Ref="#PWR0197"  Part="1" 
F 0 "#PWR0197" H 5575 4150 50  0001 C CNN
F 1 "GND" H 5580 4227 50  0000 C CNN
F 2 "" H 5575 4400 50  0001 C CNN
F 3 "" H 5575 4400 50  0001 C CNN
	1    5575 4400
	1    0    0    -1  
$EndComp
Text Notes 7975 3275 0    50   ~ 0
5v 6a
$Comp
L Device:R_Small_US R36
U 1 1 5E5DFD49
P 3950 3325
F 0 "R36" V 4155 3325 50  0000 C CNN
F 1 "10k" V 4064 3325 50  0000 C CNN
F 2 "Resistor_SMD:R_0603_1608Metric" H 3950 3325 50  0001 C CNN
F 3 "~" H 3950 3325 50  0001 C CNN
	1    3950 3325
	0    -1   -1   0   
$EndComp
$Comp
L power:GND #PWR0162
U 1 1 5E5E1489
P 2625 3475
F 0 "#PWR0162" H 2625 3225 50  0001 C CNN
F 1 "GND" H 2630 3302 50  0000 C CNN
F 2 "" H 2625 3475 50  0001 C CNN
F 3 "" H 2625 3475 50  0001 C CNN
	1    2625 3475
	1    0    0    -1  
$EndComp
Wire Wire Line
	2825 3175 3750 3175
Wire Wire Line
	3850 3325 3750 3325
Wire Wire Line
	3750 3325 3750 3175
Connection ~ 3750 3175
Wire Wire Line
	3750 3175 4125 3175
Wire Wire Line
	4050 3325 4125 3325
Wire Wire Line
	2950 3650 2950 3750
$EndSCHEMATC
