EESchema Schematic File Version 4
EELAYER 30 0
EELAYER END
$Descr A4 11693 8268
encoding utf-8
Sheet 6 6
Title ""
Date ""
Rev ""
Comp ""
Comment1 ""
Comment2 ""
Comment3 ""
Comment4 ""
$EndDescr
$Comp
L Analog_ADC:MCP3008 U13
U 1 1 5E7818A9
P 5125 3300
F 0 "U13" H 5825 3675 50  0000 C CNN
F 1 "MCP3008" H 5925 3600 50  0000 C CNN
F 2 "Package_SO:SOIC-16_3.9x9.9mm_P1.27mm" H 5225 3400 50  0001 C CNN
F 3 "http://ww1.microchip.com/downloads/en/DeviceDoc/21295d.pdf" H 5225 3400 50  0001 C CNN
	1    5125 3300
	1    0    0    -1  
$EndComp
Text HLabel 5025 2275 0    50   Input ~ 0
REF_3V3
Text HLabel 5325 2550 0    50   Input ~ 0
3v3
Wire Wire Line
	5325 2550 5325 2650
$Comp
L Device:C_Small C73
U 1 1 5E7829C0
P 5600 2525
F 0 "C73" H 5692 2571 50  0000 L CNN
F 1 "1u" H 5692 2480 50  0000 L CNN
F 2 "Capacitor_SMD:C_0603_1608Metric" H 5600 2525 50  0001 C CNN
F 3 "~" H 5600 2525 50  0001 C CNN
	1    5600 2525
	1    0    0    -1  
$EndComp
$Comp
L power:GND #PWR0201
U 1 1 5E782BC0
P 5600 2625
F 0 "#PWR0201" H 5600 2375 50  0001 C CNN
F 1 "GND" H 5605 2452 50  0000 C CNN
F 2 "" H 5600 2625 50  0001 C CNN
F 3 "" H 5600 2625 50  0001 C CNN
	1    5600 2625
	1    0    0    -1  
$EndComp
Wire Wire Line
	5600 2425 5450 2425
Wire Wire Line
	5450 2425 5450 2650
Wire Wire Line
	5450 2650 5325 2650
Connection ~ 5325 2650
Wire Wire Line
	5325 2650 5325 2800
$Comp
L power:GND #PWR0202
U 1 1 5E783FE3
P 5200 3900
F 0 "#PWR0202" H 5200 3650 50  0001 C CNN
F 1 "GND" H 5205 3727 50  0000 C CNN
F 2 "" H 5200 3900 50  0001 C CNN
F 3 "" H 5200 3900 50  0001 C CNN
	1    5200 3900
	1    0    0    -1  
$EndComp
Wire Wire Line
	5325 3900 5200 3900
Connection ~ 5200 3900
Wire Wire Line
	5200 3900 5025 3900
Text HLabel 5925 3500 2    50   Input ~ 0
CS
Text HLabel 5925 3400 2    50   Input ~ 0
MOSI
Text HLabel 5925 3300 2    50   Output ~ 0
MISO
Text HLabel 5925 3200 2    50   Input ~ 0
SCK
Wire Wire Line
	5925 3500 5825 3500
Wire Wire Line
	5725 3400 5925 3400
Wire Wire Line
	5725 3300 5925 3300
Wire Wire Line
	5725 3200 5925 3200
$Comp
L power:GND #PWR0203
U 1 1 5E788CBA
P 3100 4725
F 0 "#PWR0203" H 3100 4475 50  0001 C CNN
F 1 "GND" H 3105 4552 50  0000 C CNN
F 2 "" H 3100 4725 50  0001 C CNN
F 3 "" H 3100 4725 50  0001 C CNN
	1    3100 4725
	1    0    0    -1  
$EndComp
Wire Wire Line
	3100 4525 3425 4525
Wire Wire Line
	3425 4725 3100 4725
$Comp
L Device:R_Small_US R38
U 1 1 5E789BDB
P 3100 4625
F 0 "R38" H 3168 4671 50  0000 L CNN
F 1 "10k" H 3168 4580 50  0000 L CNN
F 2 "Resistor_SMD:R_0603_1608Metric" H 3100 4625 50  0001 C CNN
F 3 "~" H 3100 4625 50  0001 C CNN
	1    3100 4625
	1    0    0    -1  
$EndComp
Connection ~ 3100 4725
Wire Wire Line
	5025 2275 5025 2725
Text HLabel 3225 3000 0    50   Input ~ 0
REF_3V3
Wire Wire Line
	3225 3000 3225 3100
Wire Wire Line
	3225 3700 3525 3700
Wire Wire Line
	3525 3600 3225 3600
Connection ~ 3225 3600
Wire Wire Line
	3225 3600 3225 3700
Wire Wire Line
	3225 3500 3525 3500
Connection ~ 3225 3500
Wire Wire Line
	3225 3500 3225 3600
Wire Wire Line
	3525 3400 3225 3400
Connection ~ 3225 3400
Wire Wire Line
	3225 3400 3225 3500
Wire Wire Line
	3225 3300 3525 3300
Connection ~ 3225 3300
Wire Wire Line
	3225 3300 3225 3400
Wire Wire Line
	3525 3200 3225 3200
Connection ~ 3225 3200
Wire Wire Line
	3225 3200 3225 3300
Wire Wire Line
	3225 3100 3525 3100
Connection ~ 3225 3100
Wire Wire Line
	3225 3100 3225 3200
Wire Wire Line
	3525 3000 3225 3000
Wire Wire Line
	4275 3000 4525 3000
Wire Wire Line
	4525 3100 4275 3100
Wire Wire Line
	4275 3200 4525 3200
Wire Wire Line
	4525 3300 4275 3300
Wire Wire Line
	4525 3400 4275 3400
Wire Wire Line
	4275 3500 4525 3500
Wire Wire Line
	4525 3600 4275 3600
Wire Wire Line
	4275 3700 4525 3700
Text Label 4300 3000 0    50   ~ 0
TH1
Text Label 4300 3100 0    50   ~ 0
TH2
Text Label 4300 3200 0    50   ~ 0
TH3
Text Label 4300 3300 0    50   ~ 0
TH4
Text Label 4300 3400 0    50   ~ 0
TH5
Text Label 4300 3500 0    50   ~ 0
TH6
Text Label 4300 3600 0    50   ~ 0
TH7
Text Label 4300 3700 0    50   ~ 0
TH8
Text Label 3100 4525 2    50   ~ 0
TH1
$Comp
L power:GND #PWR0204
U 1 1 5E79EC07
P 3100 5475
F 0 "#PWR0204" H 3100 5225 50  0001 C CNN
F 1 "GND" H 3105 5302 50  0000 C CNN
F 2 "" H 3100 5475 50  0001 C CNN
F 3 "" H 3100 5475 50  0001 C CNN
	1    3100 5475
	1    0    0    -1  
$EndComp
Wire Wire Line
	3100 5275 3425 5275
Wire Wire Line
	3425 5475 3100 5475
$Comp
L Device:R_Small_US R39
U 1 1 5E79EC15
P 3100 5375
F 0 "R39" H 3168 5421 50  0000 L CNN
F 1 "10k" H 3168 5330 50  0000 L CNN
F 2 "Resistor_SMD:R_0603_1608Metric" H 3100 5375 50  0001 C CNN
F 3 "~" H 3100 5375 50  0001 C CNN
	1    3100 5375
	1    0    0    -1  
$EndComp
Connection ~ 3100 5475
Text Label 3100 5275 2    50   ~ 0
TH3
$Comp
L power:GND #PWR0205
U 1 1 5E79F8D3
P 3100 6225
F 0 "#PWR0205" H 3100 5975 50  0001 C CNN
F 1 "GND" H 3105 6052 50  0000 C CNN
F 2 "" H 3100 6225 50  0001 C CNN
F 3 "" H 3100 6225 50  0001 C CNN
	1    3100 6225
	1    0    0    -1  
$EndComp
Wire Wire Line
	3100 6025 3425 6025
Wire Wire Line
	3425 6225 3100 6225
$Comp
L Device:R_Small_US R40
U 1 1 5E79F8E1
P 3100 6125
F 0 "R40" H 3168 6171 50  0000 L CNN
F 1 "10k" H 3168 6080 50  0000 L CNN
F 2 "Resistor_SMD:R_0603_1608Metric" H 3100 6125 50  0001 C CNN
F 3 "~" H 3100 6125 50  0001 C CNN
	1    3100 6125
	1    0    0    -1  
$EndComp
Connection ~ 3100 6225
Text Label 3100 6025 2    50   ~ 0
TH5
$Comp
L power:GND #PWR0206
U 1 1 5E7A1044
P 3100 6975
F 0 "#PWR0206" H 3100 6725 50  0001 C CNN
F 1 "GND" H 3105 6802 50  0000 C CNN
F 2 "" H 3100 6975 50  0001 C CNN
F 3 "" H 3100 6975 50  0001 C CNN
	1    3100 6975
	1    0    0    -1  
$EndComp
Wire Wire Line
	3100 6775 3425 6775
Wire Wire Line
	3425 6975 3100 6975
$Comp
L Device:R_Small_US R43
U 1 1 5E7A1052
P 3100 6875
F 0 "R43" H 3168 6921 50  0000 L CNN
F 1 "10k" H 3168 6830 50  0000 L CNN
F 2 "Resistor_SMD:R_0603_1608Metric" H 3100 6875 50  0001 C CNN
F 3 "~" H 3100 6875 50  0001 C CNN
	1    3100 6875
	1    0    0    -1  
$EndComp
Connection ~ 3100 6975
Text Label 3100 6775 2    50   ~ 0
TH7
$Comp
L power:GND #PWR0207
U 1 1 5E7A6DDA
P 4100 4725
F 0 "#PWR0207" H 4100 4475 50  0001 C CNN
F 1 "GND" H 4105 4552 50  0000 C CNN
F 2 "" H 4100 4725 50  0001 C CNN
F 3 "" H 4100 4725 50  0001 C CNN
	1    4100 4725
	1    0    0    -1  
$EndComp
Wire Wire Line
	4100 4525 4425 4525
Wire Wire Line
	4425 4725 4100 4725
$Comp
L Device:R_Small_US R44
U 1 1 5E7A6DE8
P 4100 4625
F 0 "R44" H 4168 4671 50  0000 L CNN
F 1 "10k" H 4168 4580 50  0000 L CNN
F 2 "Resistor_SMD:R_0603_1608Metric" H 4100 4625 50  0001 C CNN
F 3 "~" H 4100 4625 50  0001 C CNN
	1    4100 4625
	1    0    0    -1  
$EndComp
Connection ~ 4100 4725
Text Label 4100 4525 2    50   ~ 0
TH2
$Comp
L power:GND #PWR0208
U 1 1 5E7A6DF0
P 4100 5475
F 0 "#PWR0208" H 4100 5225 50  0001 C CNN
F 1 "GND" H 4105 5302 50  0000 C CNN
F 2 "" H 4100 5475 50  0001 C CNN
F 3 "" H 4100 5475 50  0001 C CNN
	1    4100 5475
	1    0    0    -1  
$EndComp
Wire Wire Line
	4100 5275 4425 5275
Wire Wire Line
	4425 5475 4100 5475
$Comp
L Device:R_Small_US R45
U 1 1 5E7A6DFE
P 4100 5375
F 0 "R45" H 4168 5421 50  0000 L CNN
F 1 "10k" H 4168 5330 50  0000 L CNN
F 2 "Resistor_SMD:R_0603_1608Metric" H 4100 5375 50  0001 C CNN
F 3 "~" H 4100 5375 50  0001 C CNN
	1    4100 5375
	1    0    0    -1  
$EndComp
Connection ~ 4100 5475
Text Label 4100 5275 2    50   ~ 0
TH4
$Comp
L power:GND #PWR0209
U 1 1 5E7A6E06
P 4100 6225
F 0 "#PWR0209" H 4100 5975 50  0001 C CNN
F 1 "GND" H 4105 6052 50  0000 C CNN
F 2 "" H 4100 6225 50  0001 C CNN
F 3 "" H 4100 6225 50  0001 C CNN
	1    4100 6225
	1    0    0    -1  
$EndComp
Wire Wire Line
	4100 6025 4425 6025
Wire Wire Line
	4425 6225 4100 6225
$Comp
L Device:R_Small_US R46
U 1 1 5E7A6E14
P 4100 6125
F 0 "R46" H 4168 6171 50  0000 L CNN
F 1 "10k" H 4168 6080 50  0000 L CNN
F 2 "Resistor_SMD:R_0603_1608Metric" H 4100 6125 50  0001 C CNN
F 3 "~" H 4100 6125 50  0001 C CNN
	1    4100 6125
	1    0    0    -1  
$EndComp
Connection ~ 4100 6225
Text Label 4100 6025 2    50   ~ 0
TH6
$Comp
L power:GND #PWR0210
U 1 1 5E7A6E1C
P 4100 6975
F 0 "#PWR0210" H 4100 6725 50  0001 C CNN
F 1 "GND" H 4105 6802 50  0000 C CNN
F 2 "" H 4100 6975 50  0001 C CNN
F 3 "" H 4100 6975 50  0001 C CNN
	1    4100 6975
	1    0    0    -1  
$EndComp
Wire Wire Line
	4100 6775 4425 6775
Wire Wire Line
	4425 6975 4100 6975
$Comp
L Device:R_Small_US R47
U 1 1 5E7A6E2A
P 4100 6875
F 0 "R47" H 4168 6921 50  0000 L CNN
F 1 "10k" H 4168 6830 50  0000 L CNN
F 2 "Resistor_SMD:R_0603_1608Metric" H 4100 6875 50  0001 C CNN
F 3 "~" H 4100 6875 50  0001 C CNN
	1    4100 6875
	1    0    0    -1  
$EndComp
Connection ~ 4100 6975
Text Label 4100 6775 2    50   ~ 0
TH8
Text HLabel 3525 3000 2    50   Input ~ 0
TH1_A
Text HLabel 4275 3000 0    50   Input ~ 0
TH1_B
Text HLabel 3525 3100 2    50   Input ~ 0
TH2_A
Text HLabel 3525 3200 2    50   Input ~ 0
TH3_A
Text HLabel 3525 3300 2    50   Input ~ 0
TH4_A
Text HLabel 3525 3400 2    50   Input ~ 0
TH5_A
Text HLabel 3525 3500 2    50   Input ~ 0
TH6_A
Text HLabel 3525 3600 2    50   Input ~ 0
TH7_A
Text HLabel 3525 3700 2    50   Input ~ 0
TH8_A
Text HLabel 4275 3100 0    50   Input ~ 0
TH2_B
Text HLabel 4275 3200 0    50   Input ~ 0
TH3_B
Text HLabel 4275 3300 0    50   Input ~ 0
TH4_B
Text HLabel 4275 3400 0    50   Input ~ 0
TH5_B
Text HLabel 4275 3500 0    50   Input ~ 0
TH6_B
Text HLabel 4275 3600 0    50   Input ~ 0
TH7_B
Text HLabel 4275 3700 0    50   Input ~ 0
TH8_B
$Comp
L Device:C_Small C74
U 1 1 5F1953E0
P 4925 2725
F 0 "C74" V 4696 2725 50  0000 C CNN
F 1 "1u" V 4787 2725 50  0000 C CNN
F 2 "Capacitor_SMD:C_0603_1608Metric" H 4925 2725 50  0001 C CNN
F 3 "~" H 4925 2725 50  0001 C CNN
	1    4925 2725
	0    1    1    0   
$EndComp
Connection ~ 5025 2725
Wire Wire Line
	5025 2725 5025 2800
$Comp
L power:GND #PWR0211
U 1 1 5F196D67
P 4625 2675
F 0 "#PWR0211" H 4625 2425 50  0001 C CNN
F 1 "GND" H 4630 2502 50  0000 C CNN
F 2 "" H 4625 2675 50  0001 C CNN
F 3 "" H 4625 2675 50  0001 C CNN
	1    4625 2675
	1    0    0    -1  
$EndComp
Wire Wire Line
	4625 2675 4750 2675
Wire Wire Line
	4750 2675 4750 2725
Wire Wire Line
	4750 2725 4825 2725
$Comp
L Connector:TestPoint_Alt TP?
U 1 1 5F66CC90
P 5825 3500
AR Path="/5F66CC90" Ref="TP?"  Part="1" 
AR Path="/5E3FC3A3/5F66CC90" Ref="TP?"  Part="1" 
AR Path="/5E780C12/5F66CC90" Ref="TP62"  Part="1" 
F 0 "TP62" H 5883 3572 50  0001 L CNN
F 1 "TestPoint_Alt" H 5883 3527 50  0001 L CNN
F 2 "TestPoint:TestPoint_Pad_1.0x1.0mm" H 6025 3500 50  0001 C CNN
F 3 "~" H 6025 3500 50  0001 C CNN
	1    5825 3500
	1    0    0    -1  
$EndComp
Connection ~ 5825 3500
Wire Wire Line
	5825 3500 5725 3500
$Comp
L Device:R_Small_US R37
U 1 1 5E6445C8
P 5825 3700
F 0 "R37" H 5893 3746 50  0000 L CNN
F 1 "10k" H 5893 3655 50  0000 L CNN
F 2 "Resistor_SMD:R_0603_1608Metric" H 5825 3700 50  0001 C CNN
F 3 "~" H 5825 3700 50  0001 C CNN
	1    5825 3700
	1    0    0    -1  
$EndComp
Wire Wire Line
	5825 3600 5825 3500
Text HLabel 6200 3750 1    50   Input ~ 0
3v3
Wire Wire Line
	6200 3750 6200 3800
Wire Wire Line
	5825 3800 6200 3800
$EndSCHEMATC
