EESchema Schematic File Version 4
EELAYER 30 0
EELAYER END
$Descr A4 11693 8268
encoding utf-8
Sheet 5 6
Title ""
Date ""
Rev ""
Comp ""
Comment1 ""
Comment2 ""
Comment3 ""
Comment4 ""
$EndDescr
$Comp
L copperforge:A4928 U7
U 1 1 5E3E20F9
P 5025 2675
F 0 "U7" H 5125 1625 50  0000 C CNN
F 1 "A4928" H 5200 1550 50  0000 C CNN
F 2 "Package_SO:HTSSOP-24-1EP_4.4x7.8mm_P0.65mm_EP3.2x5mm" H 5375 1425 50  0001 C CNN
F 3 "" H 5375 1425 50  0001 C CNN
	1    5025 2675
	1    0    0    -1  
$EndComp
Text HLabel 8125 3875 2    50   Output ~ 0
AUX_A
Text HLabel 5250 2325 2    50   Input ~ 0
VBUS
$Comp
L Device:Q_NMOS_GSD Q8
U 1 1 5E3EE733
P 6525 4075
F 0 "Q8" H 6729 4121 50  0000 L CNN
F 1 "NVMFSC0D9N04C" H 6729 4030 50  0000 L CNN
F 2 "copperforge:8-DFN_5.1x6.15" H 6725 4175 50  0001 C CNN
F 3 "~" H 6525 4075 50  0001 C CNN
	1    6525 4075
	1    0    0    -1  
$EndComp
$Comp
L Device:Q_NMOS_GSD Q7
U 1 1 5E3EF875
P 6525 3675
F 0 "Q7" H 6729 3721 50  0000 L CNN
F 1 "NVMFSC0D9N04C" H 6729 3630 50  0000 L CNN
F 2 "copperforge:8-DFN_5.1x6.15" H 6725 3775 50  0001 C CNN
F 3 "~" H 6525 3675 50  0001 C CNN
	1    6525 3675
	1    0    0    -1  
$EndComp
Wire Wire Line
	5825 3875 6025 3875
Connection ~ 6625 3875
Text HLabel 8125 3950 2    50   Output ~ 0
AUX_B
$Comp
L power:GND #PWR0138
U 1 1 5E3F0018
P 8075 4000
F 0 "#PWR0138" H 8075 3750 50  0001 C CNN
F 1 "GND" H 8080 3827 50  0000 C CNN
F 2 "" H 8075 4000 50  0001 C CNN
F 3 "" H 8075 4000 50  0001 C CNN
	1    8075 4000
	1    0    0    -1  
$EndComp
Wire Wire Line
	8075 4000 8075 3950
Wire Wire Line
	8075 3950 8125 3950
Wire Wire Line
	6625 3875 7600 3875
$Comp
L Device:C_Small C49
U 1 1 5E3F285F
P 5925 3550
F 0 "C49" V 5696 3550 50  0000 C CNN
F 1 "200n" V 5787 3550 50  0000 C CNN
F 2 "Capacitor_SMD:C_0603_1608Metric" H 5925 3550 50  0001 C CNN
F 3 "~" H 5925 3550 50  0001 C CNN
	1    5925 3550
	0    1    1    0   
$EndComp
Connection ~ 6025 3875
Wire Wire Line
	6025 3875 6625 3875
$Comp
L Device:C_Small C47
U 1 1 5E3F4C80
P 4875 2425
F 0 "C47" H 4967 2471 50  0000 L CNN
F 1 "100n" H 4967 2380 50  0000 L CNN
F 2 "Capacitor_SMD:C_0603_1608Metric" H 4875 2425 50  0001 C CNN
F 3 "~" H 4875 2425 50  0001 C CNN
	1    4875 2425
	1    0    0    -1  
$EndComp
$Comp
L Device:C_Small C46
U 1 1 5E3F4F95
P 4525 2425
F 0 "C46" H 4617 2471 50  0000 L CNN
F 1 "10u" H 4617 2380 50  0000 L CNN
F 2 "Capacitor_SMD:C_1206_3216Metric" H 4525 2425 50  0001 C CNN
F 3 "~" H 4525 2425 50  0001 C CNN
	1    4525 2425
	1    0    0    -1  
$EndComp
$Comp
L power:GND #PWR0139
U 1 1 5E3F578E
P 4700 2600
F 0 "#PWR0139" H 4700 2350 50  0001 C CNN
F 1 "GND" H 4705 2427 50  0000 C CNN
F 2 "" H 4700 2600 50  0001 C CNN
F 3 "" H 4700 2600 50  0001 C CNN
	1    4700 2600
	1    0    0    -1  
$EndComp
Wire Wire Line
	4525 2525 4525 2600
Wire Wire Line
	4525 2600 4700 2600
Wire Wire Line
	4875 2600 4875 2525
Connection ~ 4700 2600
Wire Wire Line
	4700 2600 4875 2600
Wire Wire Line
	4525 2325 4875 2325
Wire Wire Line
	5175 2325 5175 2725
Connection ~ 4875 2325
Wire Wire Line
	4875 2325 5175 2325
Wire Wire Line
	5250 2325 5175 2325
Connection ~ 5175 2325
$Comp
L Device:C_Small C48
U 1 1 5E3F69B7
P 5500 2650
F 0 "C48" V 5271 2650 50  0000 C CNN
F 1 "470n" V 5362 2650 50  0000 C CNN
F 2 "Capacitor_SMD:C_0603_1608Metric" H 5500 2650 50  0001 C CNN
F 3 "~" H 5500 2650 50  0001 C CNN
	1    5500 2650
	0    1    1    0   
$EndComp
Wire Wire Line
	5425 2725 5425 2700
Wire Wire Line
	5425 2700 5400 2700
Wire Wire Line
	5400 2700 5400 2650
Wire Wire Line
	5575 2725 5575 2700
Wire Wire Line
	5575 2700 5600 2700
Text HLabel 6725 3150 2    50   Input ~ 0
VBUS
Wire Wire Line
	6625 3150 6625 3375
Wire Wire Line
	6725 3150 6625 3150
$Comp
L power:GND #PWR0140
U 1 1 5E3FC508
P 5250 4925
F 0 "#PWR0140" H 5250 4675 50  0001 C CNN
F 1 "GND" H 5255 4752 50  0000 C CNN
F 2 "" H 5250 4925 50  0001 C CNN
F 3 "" H 5250 4925 50  0001 C CNN
	1    5250 4925
	1    0    0    -1  
$EndComp
Wire Wire Line
	5175 4875 5175 4925
Wire Wire Line
	5175 4925 5250 4925
Wire Wire Line
	5325 4925 5325 4875
Connection ~ 5250 4925
Wire Wire Line
	5250 4925 5325 4925
$Comp
L Device:C_Small C51
U 1 1 5E3FD612
P 6025 3125
F 0 "C51" V 6254 3125 50  0000 C CNN
F 1 "10u" V 6163 3125 50  0000 C CNN
F 2 "Capacitor_SMD:C_1206_3216Metric" H 6025 3125 50  0001 C CNN
F 3 "~" H 6025 3125 50  0001 C CNN
	1    6025 3125
	0    -1   -1   0   
$EndComp
$Comp
L power:GND #PWR0141
U 1 1 5E3FE142
P 6250 3125
F 0 "#PWR0141" H 6250 2875 50  0001 C CNN
F 1 "GND" H 6255 2952 50  0000 C CNN
F 2 "" H 6250 3125 50  0001 C CNN
F 3 "" H 6250 3125 50  0001 C CNN
	1    6250 3125
	1    0    0    -1  
$EndComp
Wire Wire Line
	6250 3125 6125 3125
Wire Wire Line
	5925 3125 5825 3125
Wire Wire Line
	5825 3275 6150 3275
Wire Wire Line
	6150 3275 6150 3375
Wire Wire Line
	6150 3375 6625 3375
Connection ~ 6625 3375
Wire Wire Line
	6625 3375 6625 3475
$Comp
L Device:R_Shunt_US R33
U 1 1 5E4039E5
P 6625 4500
F 0 "R33" H 6537 4546 50  0000 R CNN
F 1 "500u" H 6537 4455 50  0000 R CNN
F 2 "copperforge:CSS4J-4026" V 6555 4500 50  0001 C CNN
F 3 "~" H 6625 4500 50  0001 C CNN
	1    6625 4500
	-1   0    0    -1  
$EndComp
Wire Wire Line
	5825 4275 6625 4275
Wire Wire Line
	6625 4300 6625 4275
Connection ~ 6625 4275
$Comp
L Device:R_Small_US R31
U 1 1 5E405CCC
P 6300 4400
F 0 "R31" V 6225 4500 50  0000 C CNN
F 1 "0" V 6225 4400 50  0000 C CNN
F 2 "Resistor_SMD:R_0603_1608Metric" H 6300 4400 50  0001 C CNN
F 3 "~" H 6300 4400 50  0001 C CNN
	1    6300 4400
	0    1    1    0   
$EndComp
$Comp
L Device:R_Small_US R32
U 1 1 5E405F64
P 6300 4600
F 0 "R32" V 6200 4700 50  0000 C CNN
F 1 "0" V 6200 4600 50  0000 C CNN
F 2 "Resistor_SMD:R_0603_1608Metric" H 6300 4600 50  0001 C CNN
F 3 "~" H 6300 4600 50  0001 C CNN
	1    6300 4600
	0    1    1    0   
$EndComp
Wire Wire Line
	6400 4400 6475 4400
Wire Wire Line
	6475 4600 6400 4600
$Comp
L Device:C_Small C50
U 1 1 5E4089E7
P 6000 4500
F 0 "C50" H 6092 4546 50  0000 L CNN
F 1 "DNP" H 6092 4455 50  0000 L CNN
F 2 "Capacitor_SMD:C_0603_1608Metric" H 6000 4500 50  0001 C CNN
F 3 "~" H 6000 4500 50  0001 C CNN
	1    6000 4500
	1    0    0    -1  
$EndComp
Wire Wire Line
	5825 4475 5875 4475
Wire Wire Line
	5875 4475 5875 4400
Wire Wire Line
	5875 4400 6000 4400
Connection ~ 6000 4400
Wire Wire Line
	6000 4400 6200 4400
Wire Wire Line
	6200 4600 6000 4600
Wire Wire Line
	5925 4600 5925 4575
Wire Wire Line
	5925 4575 5825 4575
Connection ~ 6000 4600
Wire Wire Line
	6000 4600 5925 4600
Text HLabel 6175 4875 0    50   Output ~ 0
ISense_BrakeResis
Wire Wire Line
	6175 4875 6275 4875
Wire Wire Line
	6275 4875 6275 4675
Wire Wire Line
	6275 4675 5825 4675
$Comp
L power:GND #PWR0142
U 1 1 5E40C244
P 6625 4725
F 0 "#PWR0142" H 6625 4475 50  0001 C CNN
F 1 "GND" H 6630 4552 50  0000 C CNN
F 2 "" H 6625 4725 50  0001 C CNN
F 3 "" H 6625 4725 50  0001 C CNN
	1    6625 4725
	1    0    0    -1  
$EndComp
Wire Wire Line
	6625 4725 6625 4700
Wire Wire Line
	6025 3550 6025 3875
Wire Wire Line
	5825 3550 5825 3475
Wire Wire Line
	4500 4025 4575 4025
$Comp
L Device:C_Small C42
U 1 1 5E47E03C
P 2650 1850
F 0 "C42" H 2558 1804 50  0000 R CNN
F 1 "100n" H 2558 1895 50  0000 R CNN
F 2 "Capacitor_SMD:C_0603_1608Metric" H 2650 1850 50  0001 C CNN
F 3 "~" H 2650 1850 50  0001 C CNN
	1    2650 1850
	-1   0    0    1   
$EndComp
Text HLabel 2375 1750 0    50   Input ~ 0
3v3
$Comp
L power:GND #PWR0143
U 1 1 5E48629A
P 2650 1950
F 0 "#PWR0143" H 2650 1700 50  0001 C CNN
F 1 "GND" H 2655 1777 50  0000 C CNN
F 2 "" H 2650 1950 50  0001 C CNN
F 3 "" H 2650 1950 50  0001 C CNN
	1    2650 1950
	1    0    0    -1  
$EndComp
Wire Wire Line
	2375 1750 2500 1750
Wire Wire Line
	2500 1750 2500 2275
Wire Wire Line
	2500 2275 2600 2275
Wire Wire Line
	2650 1750 2500 1750
Connection ~ 2500 1750
$Comp
L Device:C_Small C44
U 1 1 5E48C46A
P 3425 1850
F 0 "C44" H 3333 1804 50  0000 R CNN
F 1 "100n" H 3333 1895 50  0000 R CNN
F 2 "Capacitor_SMD:C_0603_1608Metric" H 3425 1850 50  0001 C CNN
F 3 "~" H 3425 1850 50  0001 C CNN
	1    3425 1850
	1    0    0    1   
$EndComp
Text HLabel 3700 1750 2    50   Input ~ 0
5v0
$Comp
L power:GND #PWR0144
U 1 1 5E48C475
P 3425 1950
F 0 "#PWR0144" H 3425 1700 50  0001 C CNN
F 1 "GND" H 3430 1777 50  0000 C CNN
F 2 "" H 3425 1950 50  0001 C CNN
F 3 "" H 3425 1950 50  0001 C CNN
	1    3425 1950
	-1   0    0    -1  
$EndComp
Wire Wire Line
	3700 1750 3575 1750
Wire Wire Line
	3575 1750 3575 2275
Wire Wire Line
	3425 1750 3575 1750
Connection ~ 3575 1750
Wire Wire Line
	3500 2275 3575 2275
$Comp
L power:GND #PWR0145
U 1 1 5E492D3C
P 3100 3375
F 0 "#PWR0145" H 3100 3125 50  0001 C CNN
F 1 "GND" H 3105 3202 50  0000 C CNN
F 2 "" H 3100 3375 50  0001 C CNN
F 3 "" H 3100 3375 50  0001 C CNN
	1    3100 3375
	1    0    0    -1  
$EndComp
Wire Wire Line
	3100 3375 3100 3175
$Comp
L copperforge:TXB0106 U5
U 1 1 5E47B6D5
P 2950 2325
F 0 "U5" H 3050 2640 50  0000 C CNN
F 1 "TXB0106" H 3050 2549 50  0000 C CNN
F 2 "Package_SO:TSSOP-16-1EP_4.4x5mm_P0.65mm" H 3350 2525 50  0001 C CNN
F 3 "" H 3350 2525 50  0001 C CNN
	1    2950 2325
	1    0    0    -1  
$EndComp
$Comp
L Device:R_Small_US R27
U 1 1 5E496D26
P 2800 3275
F 0 "R27" H 2868 3321 50  0000 L CNN
F 1 "50k" H 2868 3230 50  0000 L CNN
F 2 "Resistor_SMD:R_0603_1608Metric" H 2800 3275 50  0001 C CNN
F 3 "~" H 2800 3275 50  0001 C CNN
	1    2800 3275
	1    0    0    -1  
$EndComp
Text HLabel 2725 3175 0    50   Input ~ 0
3v3
Wire Wire Line
	2725 3175 2800 3175
Connection ~ 2800 3175
Wire Wire Line
	2800 3175 3000 3175
Wire Wire Line
	2800 3375 3100 3375
Connection ~ 3100 3375
$Comp
L Device:C_Small C43
U 1 1 5E4AA63C
P 2650 3850
F 0 "C43" H 2558 3804 50  0000 R CNN
F 1 "100n" H 2558 3895 50  0000 R CNN
F 2 "Capacitor_SMD:C_0603_1608Metric" H 2650 3850 50  0001 C CNN
F 3 "~" H 2650 3850 50  0001 C CNN
	1    2650 3850
	-1   0    0    1   
$EndComp
Text HLabel 2375 3750 0    50   Input ~ 0
3v3
$Comp
L power:GND #PWR0146
U 1 1 5E4AA643
P 2650 3950
F 0 "#PWR0146" H 2650 3700 50  0001 C CNN
F 1 "GND" H 2655 3777 50  0000 C CNN
F 2 "" H 2650 3950 50  0001 C CNN
F 3 "" H 2650 3950 50  0001 C CNN
	1    2650 3950
	1    0    0    -1  
$EndComp
Wire Wire Line
	2375 3750 2500 3750
Wire Wire Line
	2500 3750 2500 4275
Wire Wire Line
	2500 4275 2600 4275
Wire Wire Line
	2650 3750 2500 3750
Connection ~ 2500 3750
$Comp
L Device:C_Small C45
U 1 1 5E4AA64E
P 3425 3850
F 0 "C45" H 3333 3804 50  0000 R CNN
F 1 "100n" H 3333 3895 50  0000 R CNN
F 2 "Capacitor_SMD:C_0603_1608Metric" H 3425 3850 50  0001 C CNN
F 3 "~" H 3425 3850 50  0001 C CNN
	1    3425 3850
	1    0    0    1   
$EndComp
Text HLabel 3700 3750 2    50   Input ~ 0
5v0
$Comp
L power:GND #PWR0147
U 1 1 5E4AA655
P 3425 3950
F 0 "#PWR0147" H 3425 3700 50  0001 C CNN
F 1 "GND" H 3430 3777 50  0000 C CNN
F 2 "" H 3425 3950 50  0001 C CNN
F 3 "" H 3425 3950 50  0001 C CNN
	1    3425 3950
	-1   0    0    -1  
$EndComp
Wire Wire Line
	3700 3750 3575 3750
Wire Wire Line
	3575 3750 3575 4275
Wire Wire Line
	3425 3750 3575 3750
Connection ~ 3575 3750
Wire Wire Line
	3500 4275 3575 4275
$Comp
L power:GND #PWR0148
U 1 1 5E4AA660
P 3100 5375
F 0 "#PWR0148" H 3100 5125 50  0001 C CNN
F 1 "GND" H 3105 5202 50  0000 C CNN
F 2 "" H 3100 5375 50  0001 C CNN
F 3 "" H 3100 5375 50  0001 C CNN
	1    3100 5375
	1    0    0    -1  
$EndComp
Wire Wire Line
	3100 5375 3100 5175
$Comp
L copperforge:TXB0106 U6
U 1 1 5E4AA667
P 2950 4325
F 0 "U6" H 3050 4640 50  0000 C CNN
F 1 "TXB0106" H 3050 4549 50  0000 C CNN
F 2 "Package_SO:TSSOP-16-1EP_4.4x5mm_P0.65mm" H 3350 4525 50  0001 C CNN
F 3 "" H 3350 4525 50  0001 C CNN
	1    2950 4325
	1    0    0    -1  
$EndComp
$Comp
L Device:R_Small_US R28
U 1 1 5E4AA66D
P 2800 5275
F 0 "R28" H 2868 5321 50  0000 L CNN
F 1 "50k" H 2868 5230 50  0000 L CNN
F 2 "Resistor_SMD:R_0603_1608Metric" H 2800 5275 50  0001 C CNN
F 3 "~" H 2800 5275 50  0001 C CNN
	1    2800 5275
	1    0    0    -1  
$EndComp
Text HLabel 2725 5175 0    50   Input ~ 0
3v3
Wire Wire Line
	2725 5175 2800 5175
Connection ~ 2800 5175
Wire Wire Line
	2800 5175 3000 5175
Wire Wire Line
	2800 5375 3100 5375
Connection ~ 3100 5375
Text HLabel 2350 2425 0    50   Input ~ 0
ENABLE
Wire Wire Line
	2350 2425 2425 2425
Text HLabel 2350 2525 0    50   Input ~ 0
RESET
Text HLabel 2350 2625 0    50   Input ~ 0
HALFH_H
Text HLabel 2350 2725 0    50   Input ~ 0
HALFH_L
Text HLabel 2350 4425 0    50   Input ~ 0
CS
Text HLabel 2350 4525 0    50   Input ~ 0
SCK
Text HLabel 2350 4625 0    50   Input ~ 0
SDI
Text HLabel 2350 4725 0    50   Output ~ 0
SDO
Text HLabel 2350 4825 0    50   Output ~ 0
DIAG
Wire Wire Line
	2350 2525 2475 2525
Wire Wire Line
	3500 2425 4175 2425
Wire Wire Line
	4175 2425 4175 2925
Wire Wire Line
	4175 2925 4350 2925
Wire Wire Line
	3500 2525 4075 2525
Wire Wire Line
	4075 2525 4075 3025
Wire Wire Line
	4075 3025 4400 3025
Wire Wire Line
	3500 2625 3950 2625
Wire Wire Line
	3950 2625 3950 3225
Wire Wire Line
	3950 3225 4475 3225
Wire Wire Line
	3500 2725 3825 2725
Wire Wire Line
	3825 2725 3825 3325
Wire Wire Line
	3825 3325 4525 3325
Wire Wire Line
	3500 4425 3900 4425
Wire Wire Line
	4175 4425 4175 3575
Wire Wire Line
	4175 3575 4575 3575
Wire Wire Line
	3500 4525 3950 4525
Wire Wire Line
	4250 4525 4250 3675
Wire Wire Line
	4250 3675 4575 3675
Wire Wire Line
	3500 4625 4025 4625
Wire Wire Line
	4325 4625 4325 3775
Wire Wire Line
	4325 3775 4575 3775
Wire Wire Line
	3500 4725 4075 4725
Wire Wire Line
	4400 4725 4400 3875
Wire Wire Line
	4400 3875 4575 3875
Wire Wire Line
	3500 4825 4150 4825
Wire Wire Line
	4500 4825 4500 4025
Wire Wire Line
	2350 4425 2375 4425
Wire Wire Line
	2350 4525 2425 4525
Wire Wire Line
	2350 4625 2475 4625
Wire Wire Line
	2350 4725 2525 4725
Wire Wire Line
	2350 4825 2575 4825
Wire Wire Line
	2350 2625 2525 2625
Wire Wire Line
	2600 2725 2575 2725
$Comp
L Connector:TestPoint TP?
U 1 1 5E566CF9
P 7600 3875
AR Path="/5E566CF9" Ref="TP?"  Part="1" 
AR Path="/5E53FE8F/5E566CF9" Ref="TP?"  Part="1" 
AR Path="/5E3FC3A3/5E566CF9" Ref="TP34"  Part="1" 
F 0 "TP34" H 7658 3947 50  0001 L CNN
F 1 "TestPoint" H 7658 3902 50  0001 L CNN
F 2 "copperforge:TestPoint_Keystone_5019_Minature-3dmodel" H 7800 3875 50  0001 C CNN
F 3 "~" H 7800 3875 50  0001 C CNN
	1    7600 3875
	1    0    0    -1  
$EndComp
Wire Wire Line
	5600 2700 5600 2650
Text HLabel 4075 3475 0    50   Output ~ 0
OOS
$Comp
L Device:R_Small_US R35
U 1 1 5EEA173F
P 4325 3475
F 0 "R35" V 4120 3475 50  0000 C CNN
F 1 "DNP" V 4211 3475 50  0000 C CNN
F 2 "Resistor_SMD:R_0603_1608Metric" H 4325 3475 50  0001 C CNN
F 3 "~" H 4325 3475 50  0001 C CNN
	1    4325 3475
	0    1    1    0   
$EndComp
Wire Wire Line
	4575 3475 4425 3475
Wire Wire Line
	4225 3475 4075 3475
$Comp
L Device:C_Small C56
U 1 1 5E778DA4
P 7100 3375
F 0 "C56" V 7329 3375 50  0000 C CNN
F 1 "10u" V 7238 3375 50  0000 C CNN
F 2 "Capacitor_SMD:C_1206_3216Metric" H 7100 3375 50  0001 C CNN
F 3 "~" H 7100 3375 50  0001 C CNN
	1    7100 3375
	0    -1   -1   0   
$EndComp
Wire Wire Line
	7000 3375 6625 3375
$Comp
L power:GND #PWR0171
U 1 1 5E78435C
P 7350 3375
F 0 "#PWR0171" H 7350 3125 50  0001 C CNN
F 1 "GND" H 7355 3202 50  0000 C CNN
F 2 "" H 7350 3375 50  0001 C CNN
F 3 "" H 7350 3375 50  0001 C CNN
	1    7350 3375
	1    0    0    -1  
$EndComp
Wire Wire Line
	7350 3375 7200 3375
$Comp
L Connector:TestPoint_Alt TP?
U 1 1 5EEEC67C
P 4150 4825
AR Path="/5EEEC67C" Ref="TP?"  Part="1" 
AR Path="/5E3FC3A3/5EEEC67C" Ref="TP48"  Part="1" 
F 0 "TP48" H 4208 4897 50  0001 L CNN
F 1 "TestPoint_Alt" H 4208 4852 50  0001 L CNN
F 2 "TestPoint:TestPoint_Pad_1.0x1.0mm" H 4350 4825 50  0001 C CNN
F 3 "~" H 4350 4825 50  0001 C CNN
	1    4150 4825
	1    0    0    -1  
$EndComp
$Comp
L Connector:TestPoint_Alt TP?
U 1 1 5EEF243F
P 4075 4725
AR Path="/5EEF243F" Ref="TP?"  Part="1" 
AR Path="/5E3FC3A3/5EEF243F" Ref="TP47"  Part="1" 
F 0 "TP47" H 4133 4797 50  0001 L CNN
F 1 "TestPoint_Alt" H 4133 4752 50  0001 L CNN
F 2 "TestPoint:TestPoint_Pad_1.0x1.0mm" H 4275 4725 50  0001 C CNN
F 3 "~" H 4275 4725 50  0001 C CNN
	1    4075 4725
	1    0    0    -1  
$EndComp
$Comp
L Connector:TestPoint_Alt TP?
U 1 1 5EEF8148
P 4025 4625
AR Path="/5EEF8148" Ref="TP?"  Part="1" 
AR Path="/5E3FC3A3/5EEF8148" Ref="TP46"  Part="1" 
F 0 "TP46" H 4083 4697 50  0001 L CNN
F 1 "TestPoint_Alt" H 4083 4652 50  0001 L CNN
F 2 "TestPoint:TestPoint_Pad_1.0x1.0mm" H 4225 4625 50  0001 C CNN
F 3 "~" H 4225 4625 50  0001 C CNN
	1    4025 4625
	1    0    0    -1  
$EndComp
$Comp
L Connector:TestPoint_Alt TP?
U 1 1 5EF0F92D
P 4525 3325
AR Path="/5EF0F92D" Ref="TP?"  Part="1" 
AR Path="/5E3FC3A3/5EF0F92D" Ref="TP52"  Part="1" 
F 0 "TP52" H 4583 3397 50  0001 L CNN
F 1 "TestPoint_Alt" H 4583 3352 50  0001 L CNN
F 2 "TestPoint:TestPoint_Pad_1.0x1.0mm" H 4725 3325 50  0001 C CNN
F 3 "~" H 4725 3325 50  0001 C CNN
	1    4525 3325
	1    0    0    -1  
$EndComp
$Comp
L Connector:TestPoint_Alt TP?
U 1 1 5EF15643
P 4475 3225
AR Path="/5EF15643" Ref="TP?"  Part="1" 
AR Path="/5E3FC3A3/5EF15643" Ref="TP51"  Part="1" 
F 0 "TP51" H 4533 3297 50  0001 L CNN
F 1 "TestPoint_Alt" H 4533 3252 50  0001 L CNN
F 2 "TestPoint:TestPoint_Pad_1.0x1.0mm" H 4675 3225 50  0001 C CNN
F 3 "~" H 4675 3225 50  0001 C CNN
	1    4475 3225
	1    0    0    -1  
$EndComp
$Comp
L Connector:TestPoint_Alt TP?
U 1 1 5EF1B230
P 4400 3025
AR Path="/5EF1B230" Ref="TP?"  Part="1" 
AR Path="/5E3FC3A3/5EF1B230" Ref="TP50"  Part="1" 
F 0 "TP50" H 4458 3097 50  0001 L CNN
F 1 "TestPoint_Alt" H 4458 3052 50  0001 L CNN
F 2 "TestPoint:TestPoint_Pad_1.0x1.0mm" H 4600 3025 50  0001 C CNN
F 3 "~" H 4600 3025 50  0001 C CNN
	1    4400 3025
	1    0    0    -1  
$EndComp
$Comp
L Connector:TestPoint_Alt TP?
U 1 1 5EF20E90
P 4350 2925
AR Path="/5EF20E90" Ref="TP?"  Part="1" 
AR Path="/5E3FC3A3/5EF20E90" Ref="TP49"  Part="1" 
F 0 "TP49" H 4408 2997 50  0001 L CNN
F 1 "TestPoint_Alt" H 4408 2952 50  0001 L CNN
F 2 "TestPoint:TestPoint_Pad_1.0x1.0mm" H 4550 2925 50  0001 C CNN
F 3 "~" H 4550 2925 50  0001 C CNN
	1    4350 2925
	1    0    0    -1  
$EndComp
Connection ~ 4350 2925
Wire Wire Line
	4350 2925 4575 2925
Connection ~ 4400 3025
Wire Wire Line
	4400 3025 4575 3025
Connection ~ 4475 3225
Wire Wire Line
	4475 3225 4575 3225
Connection ~ 4525 3325
Wire Wire Line
	4525 3325 4575 3325
$Comp
L Connector:TestPoint_Alt TP?
U 1 1 5EF09C1E
P 3900 4425
AR Path="/5EF09C1E" Ref="TP?"  Part="1" 
AR Path="/5E3FC3A3/5EF09C1E" Ref="TP40"  Part="1" 
F 0 "TP40" H 3958 4497 50  0001 L CNN
F 1 "TestPoint_Alt" H 3958 4452 50  0001 L CNN
F 2 "TestPoint:TestPoint_Pad_1.0x1.0mm" H 4100 4425 50  0001 C CNN
F 3 "~" H 4100 4425 50  0001 C CNN
	1    3900 4425
	1    0    0    -1  
$EndComp
$Comp
L Connector:TestPoint_Alt TP?
U 1 1 5EF03FEA
P 3950 4525
AR Path="/5EF03FEA" Ref="TP?"  Part="1" 
AR Path="/5E3FC3A3/5EF03FEA" Ref="TP45"  Part="1" 
F 0 "TP45" H 4008 4597 50  0001 L CNN
F 1 "TestPoint_Alt" H 4008 4552 50  0001 L CNN
F 2 "TestPoint:TestPoint_Pad_1.0x1.0mm" H 4150 4525 50  0001 C CNN
F 3 "~" H 4150 4525 50  0001 C CNN
	1    3950 4525
	1    0    0    -1  
$EndComp
Connection ~ 3900 4425
Wire Wire Line
	3900 4425 4175 4425
Connection ~ 3950 4525
Wire Wire Line
	3950 4525 4250 4525
Connection ~ 4025 4625
Wire Wire Line
	4025 4625 4325 4625
Connection ~ 4075 4725
Wire Wire Line
	4075 4725 4400 4725
Connection ~ 4150 4825
Wire Wire Line
	4150 4825 4500 4825
Connection ~ 7600 3875
Wire Wire Line
	7600 3875 8125 3875
Wire Wire Line
	5825 4075 5950 4075
$Comp
L Connector:TestPoint TP?
U 1 1 5E570647
P 6275 4075
AR Path="/5E570647" Ref="TP?"  Part="1" 
AR Path="/5E53FE8F/5E570647" Ref="TP?"  Part="1" 
AR Path="/5E3FC3A3/5E570647" Ref="TP33"  Part="1" 
F 0 "TP33" H 6333 4147 50  0001 L CNN
F 1 "TestPoint" H 6333 4102 50  0001 L CNN
F 2 "copperforge:TestPoint_Keystone_5019_Minature-3dmodel" H 6475 4075 50  0001 C CNN
F 3 "~" H 6475 4075 50  0001 C CNN
	1    6275 4075
	1    0    0    -1  
$EndComp
Wire Wire Line
	6250 4075 6275 4075
$Comp
L Device:R_Small_US R30
U 1 1 5E3F1A8E
P 6150 4075
F 0 "R30" V 5945 4075 50  0000 C CNN
F 1 "100" V 6036 4075 50  0000 C CNN
F 2 "Resistor_SMD:R_0603_1608Metric" H 6150 4075 50  0001 C CNN
F 3 "~" H 6150 4075 50  0001 C CNN
	1    6150 4075
	0    1    1    0   
$EndComp
Connection ~ 6275 4075
Wire Wire Line
	6275 4075 6325 4075
Wire Wire Line
	6075 3675 5950 3675
$Comp
L Device:R_Small_US R29
U 1 1 5E3F1612
P 6175 3675
F 0 "R29" V 5970 3675 50  0000 C CNN
F 1 "100" V 6061 3675 50  0000 C CNN
F 2 "Resistor_SMD:R_0603_1608Metric" H 6175 3675 50  0001 C CNN
F 3 "~" H 6175 3675 50  0001 C CNN
	1    6175 3675
	0    1    1    0   
$EndComp
Wire Wire Line
	6300 3675 6325 3675
Wire Wire Line
	6275 3675 6300 3675
Connection ~ 6300 3675
$Comp
L Connector:TestPoint TP?
U 1 1 5E56BB1B
P 6300 3675
AR Path="/5E56BB1B" Ref="TP?"  Part="1" 
AR Path="/5E53FE8F/5E56BB1B" Ref="TP?"  Part="1" 
AR Path="/5E3FC3A3/5E56BB1B" Ref="TP32"  Part="1" 
F 0 "TP32" H 6358 3747 50  0001 L CNN
F 1 "TestPoint" H 6358 3702 50  0001 L CNN
F 2 "copperforge:TestPoint_Keystone_5019_Minature-3dmodel" H 6500 3675 50  0001 C CNN
F 3 "~" H 6500 3675 50  0001 C CNN
	1    6300 3675
	1    0    0    -1  
$EndComp
$Comp
L Connector:TestPoint_Alt TP?
U 1 1 5EFD2DE6
P 6000 4400
AR Path="/5EFD2DE6" Ref="TP?"  Part="1" 
AR Path="/5E3FC3A3/5EFD2DE6" Ref="TP60"  Part="1" 
AR Path="/5E53FE8F/5EFD2DE6" Ref="TP?"  Part="1" 
F 0 "TP60" H 6058 4472 50  0001 L CNN
F 1 "TestPoint_Alt" H 6058 4427 50  0001 L CNN
F 2 "TestPoint:TestPoint_Pad_1.0x1.0mm" H 6200 4400 50  0001 C CNN
F 3 "~" H 6200 4400 50  0001 C CNN
	1    6000 4400
	1    0    0    -1  
$EndComp
$Comp
L Connector:TestPoint_Alt TP?
U 1 1 5EFD9C21
P 6000 4600
AR Path="/5EFD9C21" Ref="TP?"  Part="1" 
AR Path="/5E3FC3A3/5EFD9C21" Ref="TP61"  Part="1" 
AR Path="/5E53FE8F/5EFD9C21" Ref="TP?"  Part="1" 
F 0 "TP61" H 6058 4672 50  0001 L CNN
F 1 "TestPoint_Alt" H 6058 4627 50  0001 L CNN
F 2 "TestPoint:TestPoint_Pad_1.0x1.0mm" H 6200 4600 50  0001 C CNN
F 3 "~" H 6200 4600 50  0001 C CNN
	1    6000 4600
	-1   0    0    1   
$EndComp
$Comp
L Connector:TestPoint TP?
U 1 1 5E577654
P 7325 4600
AR Path="/5E577654" Ref="TP?"  Part="1" 
AR Path="/5E53FE8F/5E577654" Ref="TP?"  Part="1" 
AR Path="/5E3FC3A3/5E577654" Ref="TP66"  Part="1" 
F 0 "TP66" H 7383 4672 50  0001 L CNN
F 1 "TestPoint" H 7383 4627 50  0001 L CNN
F 2 "copperforge:TestPoint_Keystone_5019_Minature-3dmodel" H 7525 4600 50  0001 C CNN
F 3 "~" H 7525 4600 50  0001 C CNN
	1    7325 4600
	1    0    0    -1  
$EndComp
$Comp
L power:GND #PWR?
U 1 1 5E57765A
P 7325 4600
AR Path="/5E53FE8F/5E57765A" Ref="#PWR?"  Part="1" 
AR Path="/5E3FC3A3/5E57765A" Ref="#PWR0199"  Part="1" 
F 0 "#PWR0199" H 7325 4350 50  0001 C CNN
F 1 "GND" H 7330 4427 50  0000 C CNN
F 2 "" H 7325 4600 50  0001 C CNN
F 3 "" H 7325 4600 50  0001 C CNN
	1    7325 4600
	1    0    0    -1  
$EndComp
$Comp
L Connector:TestPoint_Alt TP?
U 1 1 5E614BA6
P 5950 4075
AR Path="/5E614BA6" Ref="TP?"  Part="1" 
AR Path="/5E3FC3A3/5E614BA6" Ref="TP76"  Part="1" 
AR Path="/5E53FE8F/5E614BA6" Ref="TP?"  Part="1" 
F 0 "TP76" H 6008 4147 50  0001 L CNN
F 1 "TestPoint_Alt" H 6008 4102 50  0001 L CNN
F 2 "TestPoint:TestPoint_Pad_1.0x1.0mm" H 6150 4075 50  0001 C CNN
F 3 "~" H 6150 4075 50  0001 C CNN
	1    5950 4075
	1    0    0    -1  
$EndComp
Connection ~ 5950 4075
Wire Wire Line
	5950 4075 6050 4075
$Comp
L Connector:TestPoint_Alt TP?
U 1 1 5E614D64
P 5950 3675
AR Path="/5E614D64" Ref="TP?"  Part="1" 
AR Path="/5E3FC3A3/5E614D64" Ref="TP75"  Part="1" 
AR Path="/5E53FE8F/5E614D64" Ref="TP?"  Part="1" 
F 0 "TP75" H 6008 3747 50  0001 L CNN
F 1 "TestPoint_Alt" H 6008 3702 50  0001 L CNN
F 2 "TestPoint:TestPoint_Pad_1.0x1.0mm" H 6150 3675 50  0001 C CNN
F 3 "~" H 6150 3675 50  0001 C CNN
	1    5950 3675
	-1   0    0    1   
$EndComp
Connection ~ 5950 3675
Wire Wire Line
	5950 3675 5825 3675
$Comp
L Connector:TestPoint_Alt TP?
U 1 1 5E68F450
P 2575 4825
AR Path="/5E68F450" Ref="TP?"  Part="1" 
AR Path="/5E3FC3A3/5E68F450" Ref="TP87"  Part="1" 
F 0 "TP87" H 2633 4897 50  0001 L CNN
F 1 "TestPoint_Alt" H 2633 4852 50  0001 L CNN
F 2 "TestPoint:TestPoint_Pad_1.0x1.0mm" H 2775 4825 50  0001 C CNN
F 3 "~" H 2775 4825 50  0001 C CNN
	1    2575 4825
	1    0    0    -1  
$EndComp
Connection ~ 2575 4825
Wire Wire Line
	2575 4825 2600 4825
$Comp
L Connector:TestPoint_Alt TP?
U 1 1 5E68F701
P 2525 4725
AR Path="/5E68F701" Ref="TP?"  Part="1" 
AR Path="/5E3FC3A3/5E68F701" Ref="TP85"  Part="1" 
F 0 "TP85" H 2583 4797 50  0001 L CNN
F 1 "TestPoint_Alt" H 2583 4752 50  0001 L CNN
F 2 "TestPoint:TestPoint_Pad_1.0x1.0mm" H 2725 4725 50  0001 C CNN
F 3 "~" H 2725 4725 50  0001 C CNN
	1    2525 4725
	1    0    0    -1  
$EndComp
Connection ~ 2525 4725
Wire Wire Line
	2525 4725 2600 4725
$Comp
L Connector:TestPoint_Alt TP?
U 1 1 5E68F969
P 2475 4625
AR Path="/5E68F969" Ref="TP?"  Part="1" 
AR Path="/5E3FC3A3/5E68F969" Ref="TP83"  Part="1" 
F 0 "TP83" H 2533 4697 50  0001 L CNN
F 1 "TestPoint_Alt" H 2533 4652 50  0001 L CNN
F 2 "TestPoint:TestPoint_Pad_1.0x1.0mm" H 2675 4625 50  0001 C CNN
F 3 "~" H 2675 4625 50  0001 C CNN
	1    2475 4625
	1    0    0    -1  
$EndComp
Connection ~ 2475 4625
Wire Wire Line
	2475 4625 2600 4625
$Comp
L Connector:TestPoint_Alt TP?
U 1 1 5E68FA6E
P 2425 4525
AR Path="/5E68FA6E" Ref="TP?"  Part="1" 
AR Path="/5E3FC3A3/5E68FA6E" Ref="TP81"  Part="1" 
F 0 "TP81" H 2483 4597 50  0001 L CNN
F 1 "TestPoint_Alt" H 2483 4552 50  0001 L CNN
F 2 "TestPoint:TestPoint_Pad_1.0x1.0mm" H 2625 4525 50  0001 C CNN
F 3 "~" H 2625 4525 50  0001 C CNN
	1    2425 4525
	1    0    0    -1  
$EndComp
Connection ~ 2425 4525
Wire Wire Line
	2425 4525 2600 4525
$Comp
L Connector:TestPoint_Alt TP?
U 1 1 5E68FC27
P 2375 4425
AR Path="/5E68FC27" Ref="TP?"  Part="1" 
AR Path="/5E3FC3A3/5E68FC27" Ref="TP79"  Part="1" 
F 0 "TP79" H 2433 4497 50  0001 L CNN
F 1 "TestPoint_Alt" H 2433 4452 50  0001 L CNN
F 2 "TestPoint:TestPoint_Pad_1.0x1.0mm" H 2575 4425 50  0001 C CNN
F 3 "~" H 2575 4425 50  0001 C CNN
	1    2375 4425
	1    0    0    -1  
$EndComp
Connection ~ 2375 4425
Wire Wire Line
	2375 4425 2600 4425
$Comp
L Connector:TestPoint_Alt TP?
U 1 1 5E68FDAF
P 2575 2725
AR Path="/5E68FDAF" Ref="TP?"  Part="1" 
AR Path="/5E3FC3A3/5E68FDAF" Ref="TP86"  Part="1" 
F 0 "TP86" H 2633 2797 50  0001 L CNN
F 1 "TestPoint_Alt" H 2633 2752 50  0001 L CNN
F 2 "TestPoint:TestPoint_Pad_1.0x1.0mm" H 2775 2725 50  0001 C CNN
F 3 "~" H 2775 2725 50  0001 C CNN
	1    2575 2725
	1    0    0    -1  
$EndComp
Connection ~ 2575 2725
Wire Wire Line
	2575 2725 2350 2725
$Comp
L Connector:TestPoint_Alt TP?
U 1 1 5E690284
P 2525 2625
AR Path="/5E690284" Ref="TP?"  Part="1" 
AR Path="/5E3FC3A3/5E690284" Ref="TP84"  Part="1" 
F 0 "TP84" H 2583 2697 50  0001 L CNN
F 1 "TestPoint_Alt" H 2583 2652 50  0001 L CNN
F 2 "TestPoint:TestPoint_Pad_1.0x1.0mm" H 2725 2625 50  0001 C CNN
F 3 "~" H 2725 2625 50  0001 C CNN
	1    2525 2625
	1    0    0    -1  
$EndComp
Connection ~ 2525 2625
Wire Wire Line
	2525 2625 2600 2625
$Comp
L Connector:TestPoint_Alt TP?
U 1 1 5E690378
P 2475 2525
AR Path="/5E690378" Ref="TP?"  Part="1" 
AR Path="/5E3FC3A3/5E690378" Ref="TP82"  Part="1" 
F 0 "TP82" H 2533 2597 50  0001 L CNN
F 1 "TestPoint_Alt" H 2533 2552 50  0001 L CNN
F 2 "TestPoint:TestPoint_Pad_1.0x1.0mm" H 2675 2525 50  0001 C CNN
F 3 "~" H 2675 2525 50  0001 C CNN
	1    2475 2525
	1    0    0    -1  
$EndComp
Connection ~ 2475 2525
Wire Wire Line
	2475 2525 2600 2525
$Comp
L Connector:TestPoint_Alt TP?
U 1 1 5E69050F
P 2425 2425
AR Path="/5E69050F" Ref="TP?"  Part="1" 
AR Path="/5E3FC3A3/5E69050F" Ref="TP80"  Part="1" 
F 0 "TP80" H 2483 2497 50  0001 L CNN
F 1 "TestPoint_Alt" H 2483 2452 50  0001 L CNN
F 2 "TestPoint:TestPoint_Pad_1.0x1.0mm" H 2625 2425 50  0001 C CNN
F 3 "~" H 2625 2425 50  0001 C CNN
	1    2425 2425
	1    0    0    -1  
$EndComp
Connection ~ 2425 2425
Wire Wire Line
	2425 2425 2600 2425
$Comp
L Connector:TestPoint_Alt TP?
U 1 1 5E61D227
P 2600 2825
AR Path="/5E61D227" Ref="TP?"  Part="1" 
AR Path="/5E3FC3A3/5E61D227" Ref="TP57"  Part="1" 
F 0 "TP57" H 2658 2897 50  0001 L CNN
F 1 "TestPoint_Alt" H 2658 2852 50  0001 L CNN
F 2 "TestPoint:TestPoint_Pad_1.0x1.0mm" H 2800 2825 50  0001 C CNN
F 3 "~" H 2800 2825 50  0001 C CNN
	1    2600 2825
	0    -1   -1   0   
$EndComp
$Comp
L Connector:TestPoint_Alt TP?
U 1 1 5E624BA8
P 2600 2925
AR Path="/5E624BA8" Ref="TP?"  Part="1" 
AR Path="/5E3FC3A3/5E624BA8" Ref="TP58"  Part="1" 
F 0 "TP58" H 2658 2997 50  0001 L CNN
F 1 "TestPoint_Alt" H 2658 2952 50  0001 L CNN
F 2 "TestPoint:TestPoint_Pad_1.0x1.0mm" H 2800 2925 50  0001 C CNN
F 3 "~" H 2800 2925 50  0001 C CNN
	1    2600 2925
	0    -1   -1   0   
$EndComp
$Comp
L Connector:TestPoint_Alt TP?
U 1 1 5E624EDC
P 3500 2925
AR Path="/5E624EDC" Ref="TP?"  Part="1" 
AR Path="/5E3FC3A3/5E624EDC" Ref="TP88"  Part="1" 
F 0 "TP88" H 3558 2997 50  0001 L CNN
F 1 "TestPoint_Alt" H 3558 2952 50  0001 L CNN
F 2 "TestPoint:TestPoint_Pad_1.0x1.0mm" H 3700 2925 50  0001 C CNN
F 3 "~" H 3700 2925 50  0001 C CNN
	1    3500 2925
	0    1    1    0   
$EndComp
$Comp
L Connector:TestPoint_Alt TP?
U 1 1 5E6254A1
P 3500 2825
AR Path="/5E6254A1" Ref="TP?"  Part="1" 
AR Path="/5E3FC3A3/5E6254A1" Ref="TP78"  Part="1" 
F 0 "TP78" H 3558 2897 50  0001 L CNN
F 1 "TestPoint_Alt" H 3558 2852 50  0001 L CNN
F 2 "TestPoint:TestPoint_Pad_1.0x1.0mm" H 3700 2825 50  0001 C CNN
F 3 "~" H 3700 2825 50  0001 C CNN
	1    3500 2825
	0    1    1    0   
$EndComp
$Comp
L Connector:TestPoint_Alt TP?
U 1 1 5E62CA9C
P 3500 4925
AR Path="/5E62CA9C" Ref="TP?"  Part="1" 
AR Path="/5E3FC3A3/5E62CA9C" Ref="TP89"  Part="1" 
F 0 "TP89" H 3558 4997 50  0001 L CNN
F 1 "TestPoint_Alt" H 3558 4952 50  0001 L CNN
F 2 "TestPoint:TestPoint_Pad_1.0x1.0mm" H 3700 4925 50  0001 C CNN
F 3 "~" H 3700 4925 50  0001 C CNN
	1    3500 4925
	0    1    1    0   
$EndComp
$Comp
L Connector:TestPoint_Alt TP?
U 1 1 5E62D345
P 2600 4925
AR Path="/5E62D345" Ref="TP?"  Part="1" 
AR Path="/5E3FC3A3/5E62D345" Ref="TP77"  Part="1" 
F 0 "TP77" H 2658 4997 50  0001 L CNN
F 1 "TestPoint_Alt" H 2658 4952 50  0001 L CNN
F 2 "TestPoint:TestPoint_Pad_1.0x1.0mm" H 2800 4925 50  0001 C CNN
F 3 "~" H 2800 4925 50  0001 C CNN
	1    2600 4925
	0    -1   -1   0   
$EndComp
Text Notes 3900 3650 0    50   ~ 0
internal pullup\non cs
Wire Wire Line
	3200 5175 3100 5175
Connection ~ 3100 5175
Wire Wire Line
	3200 3175 3100 3175
Connection ~ 3100 3175
$EndSCHEMATC
