EESchema Schematic File Version 4
EELAYER 30 0
EELAYER END
$Descr A4 11693 8268
encoding utf-8
Sheet 1 6
Title ""
Date ""
Rev ""
Comp ""
Comment1 ""
Comment2 ""
Comment3 ""
Comment4 ""
$EndDescr
$Comp
L Connector_Generic:Conn_01x04 J1
U 1 1 5E3A6EDD
P 700 975
F 0 "J1" H 618 1192 50  0000 C CNN
F 1 "Power In" H 650 1250 50  0000 C CNN
F 2 "copperforge:EM2929_4pole" H 700 975 50  0001 C CNN
F 3 "~" H 700 975 50  0001 C CNN
	1    700  975 
	-1   0    0    -1  
$EndComp
$Comp
L power:GND #PWR0101
U 1 1 5E3C3618
P 975 1275
F 0 "#PWR0101" H 975 1025 50  0001 C CNN
F 1 "GND" H 980 1102 50  0000 C CNN
F 2 "" H 975 1275 50  0001 C CNN
F 3 "" H 975 1275 50  0001 C CNN
	1    975  1275
	1    0    0    -1  
$EndComp
Wire Wire Line
	975  1275 975  1075
Wire Wire Line
	975  1075 900  1075
$Comp
L Device:LED_Small D2
U 1 1 5E3C3CB1
P 1725 1375
F 0 "D2" V 1771 1307 50  0000 R CNN
F 1 "LTST-C190KGKT" V 1680 1307 50  0000 R CNN
F 2 "LED_SMD:LED_0603_1608Metric_Castellated" V 1725 1375 50  0001 C CNN
F 3 "~" V 1725 1375 50  0001 C CNN
	1    1725 1375
	0    -1   -1   0   
$EndComp
Text Notes 1825 1525 0    50   ~ 0
Power indc.
$Comp
L power:GND #PWR0102
U 1 1 5E3C546C
P 1725 1500
F 0 "#PWR0102" H 1725 1250 50  0001 C CNN
F 1 "GND" H 1730 1327 50  0000 C CNN
F 2 "" H 1725 1500 50  0001 C CNN
F 3 "" H 1725 1500 50  0001 C CNN
	1    1725 1500
	1    0    0    -1  
$EndComp
Wire Wire Line
	1725 1475 1725 1500
$Comp
L power:VBUS #PWR0103
U 1 1 5E3DBDF5
P 6550 975
F 0 "#PWR0103" H 6550 825 50  0001 C CNN
F 1 "VBUS" H 6565 1148 50  0000 C CNN
F 2 "" H 6550 975 50  0001 C CNN
F 3 "" H 6550 975 50  0001 C CNN
	1    6550 975 
	1    0    0    -1  
$EndComp
$Sheet
S 6800 900  525  375 
U 5E3DE86F
F0 "5v regulator" 50
F1 "5v regulator.sch" 50
F2 "Vbus" I L 6800 975 50 
F3 "5v0" O R 7325 975 50 
F4 "3v3" I R 7325 1200 50 
F5 "SDA" B L 6800 1150 50 
F6 "SCL" I L 6800 1225 50 
$EndSheet
$Comp
L Device:R_Small_US R1
U 1 1 5E3C4228
P 1725 1150
F 0 "R1" H 1793 1196 50  0000 L CNN
F 1 "2.1k" H 1793 1105 50  0000 L CNN
F 2 "Resistor_SMD:R_1218_3246Metric" H 1725 1150 50  0001 C CNN
F 3 "~" H 1725 1150 50  0001 C CNN
	1    1725 1150
	1    0    0    -1  
$EndComp
Wire Wire Line
	1725 1250 1725 1275
$Comp
L Device:D_TVS D?
U 1 1 5E3CDFA7
P 1175 1125
AR Path="/5E3A749B/5E3CDFA7" Ref="D?"  Part="1" 
AR Path="/5E3CDFA7" Ref="D1"  Part="1" 
F 0 "D1" V 1129 1204 50  0000 L CNN
F 1 "SMAJ33CA" V 1220 1204 50  0000 L CNN
F 2 "Diode_SMD:D_SMA" H 1175 1125 50  0001 C CNN
F 3 "~" H 1175 1125 50  0001 C CNN
	1    1175 1125
	0    1    1    0   
$EndComp
Wire Wire Line
	975  1275 1175 1275
Connection ~ 975  1275
Wire Wire Line
	900  975  975  975 
$Comp
L Device:CP1_Small C3
U 1 1 5E3C5C3A
P 3650 1225
F 0 "C3" H 3741 1271 50  0000 L CNN
F 1 "1m" H 3741 1180 50  0000 L CNN
F 2 "Capacitor_THT:CP_Radial_D16.0mm_P7.50mm" H 3650 1225 50  0001 C CNN
F 3 "~" H 3650 1225 50  0001 C CNN
F 4 "UHW1J102MHD6TN" H 3650 1225 50  0001 C CNN "P/N"
	1    3650 1225
	1    0    0    -1  
$EndComp
Wire Wire Line
	3825 975  3825 1050
Connection ~ 3975 1350
Wire Wire Line
	4275 1350 4275 1325
Wire Wire Line
	3975 1350 4275 1350
Connection ~ 3975 1050
Wire Wire Line
	4275 1050 4275 1125
Wire Wire Line
	3975 1050 4275 1050
$Comp
L Device:CP1_Small C5
U 1 1 5E3C8ECD
P 4275 1225
F 0 "C5" H 4366 1271 50  0000 L CNN
F 1 "1m" H 4366 1180 50  0000 L CNN
F 2 "Capacitor_THT:CP_Radial_D16.0mm_P7.50mm" H 4275 1225 50  0001 C CNN
F 3 "~" H 4275 1225 50  0001 C CNN
F 4 "UHW1J102MHD6TN" H 4275 1225 50  0001 C CNN "P/N"
	1    4275 1225
	1    0    0    -1  
$EndComp
Text Notes 3575 1775 0    50   ~ 0
Caps: \nEGPA500ELL102ML25S
Text Notes 3950 1525 0    50   ~ 0
4.5A ripple\n13 mohm
Wire Wire Line
	3825 1050 3975 1050
Connection ~ 3825 1050
Wire Wire Line
	3975 1050 3975 1125
Wire Wire Line
	3650 1050 3825 1050
Wire Wire Line
	3650 1125 3650 1050
Wire Wire Line
	3825 1350 3975 1350
Connection ~ 3825 1350
Wire Wire Line
	3825 1400 3825 1350
Wire Wire Line
	3975 1350 3975 1325
Wire Wire Line
	3650 1350 3825 1350
Wire Wire Line
	3650 1325 3650 1350
$Comp
L power:GND #PWR0104
U 1 1 5E3C6701
P 3825 1400
F 0 "#PWR0104" H 3825 1150 50  0001 C CNN
F 1 "GND" H 3830 1227 50  0000 C CNN
F 2 "" H 3825 1400 50  0001 C CNN
F 3 "" H 3825 1400 50  0001 C CNN
	1    3825 1400
	1    0    0    -1  
$EndComp
$Comp
L Device:CP1_Small C4
U 1 1 5E3C6256
P 3975 1225
F 0 "C4" H 4066 1271 50  0000 L CNN
F 1 "1m" H 4066 1180 50  0000 L CNN
F 2 "Capacitor_THT:CP_Radial_D16.0mm_P7.50mm" H 3975 1225 50  0001 C CNN
F 3 "~" H 3975 1225 50  0001 C CNN
F 4 "UHW1J102MHD6TN" H 3975 1225 50  0001 C CNN "P/N"
	1    3975 1225
	1    0    0    -1  
$EndComp
Connection ~ 6550 975 
Wire Wire Line
	6800 975  6550 975 
$Comp
L power:+5V #PWR0105
U 1 1 5E3ED8CA
P 7675 975
F 0 "#PWR0105" H 7675 825 50  0001 C CNN
F 1 "+5V" H 7690 1148 50  0000 C CNN
F 2 "" H 7675 975 50  0001 C CNN
F 3 "" H 7675 975 50  0001 C CNN
	1    7675 975 
	1    0    0    -1  
$EndComp
Wire Wire Line
	7675 975  7325 975 
Connection ~ 1175 975 
Wire Wire Line
	1175 975  1725 975 
Wire Wire Line
	1725 1050 1725 975 
$Comp
L Device:LED_Small D3
U 1 1 5E419CCA
P 7900 1275
F 0 "D3" V 7946 1207 50  0000 R CNN
F 1 "LTST-C190KGKT" V 7855 1207 50  0000 R CNN
F 2 "LED_SMD:LED_0603_1608Metric_Castellated" V 7900 1275 50  0001 C CNN
F 3 "~" V 7900 1275 50  0001 C CNN
	1    7900 1275
	0    -1   -1   0   
$EndComp
$Comp
L power:GND #PWR0106
U 1 1 5E41BDDA
P 7900 1375
F 0 "#PWR0106" H 7900 1125 50  0001 C CNN
F 1 "GND" H 7905 1202 50  0000 C CNN
F 2 "" H 7900 1375 50  0001 C CNN
F 3 "" H 7900 1375 50  0001 C CNN
	1    7900 1375
	1    0    0    -1  
$EndComp
Connection ~ 7675 975 
Text Notes 7975 1425 0    50   ~ 0
Power indc.
Connection ~ 1725 975 
Connection ~ 3825 975 
Wire Wire Line
	3825 975  4725 975 
Connection ~ 4725 975 
Wire Wire Line
	4725 975  5050 975 
Connection ~ 5050 975 
Wire Wire Line
	5050 975  5375 975 
Connection ~ 5375 975 
Wire Wire Line
	5375 975  5700 975 
Connection ~ 5700 975 
Wire Wire Line
	5700 975  6025 975 
Connection ~ 6025 975 
Wire Wire Line
	6025 975  6275 975 
Connection ~ 6275 975 
Wire Wire Line
	9025 1125 9025 975 
Wire Wire Line
	9050 975  9025 975 
Connection ~ 9025 975 
$Comp
L Device:C_Small C16
U 1 1 5E461BC0
P 8750 1200
F 0 "C16" H 8842 1246 50  0000 L CNN
F 1 "2.2u" H 8842 1155 50  0000 L CNN
F 2 "Capacitor_SMD:C_0603_1608Metric" H 8750 1200 50  0001 C CNN
F 3 "~" H 8750 1200 50  0001 C CNN
	1    8750 1200
	1    0    0    -1  
$EndComp
Wire Wire Line
	8750 1300 8750 1425
Wire Wire Line
	8750 1100 8750 975 
Wire Wire Line
	8750 975  9025 975 
$Comp
L Device:C_Small C17
U 1 1 5E46EE44
P 9850 1200
F 0 "C17" H 9942 1246 50  0000 L CNN
F 1 "2.2u" H 9942 1155 50  0000 L CNN
F 2 "Capacitor_SMD:C_0603_1608Metric" H 9850 1200 50  0001 C CNN
F 3 "~" H 9850 1200 50  0001 C CNN
	1    9850 1200
	1    0    0    -1  
$EndComp
Wire Wire Line
	9850 1300 9850 1425
Wire Wire Line
	9850 1425 9450 1425
Connection ~ 9450 1425
$Comp
L power:+3V3 #PWR0107
U 1 1 5E472E11
P 10425 975
F 0 "#PWR0107" H 10425 825 50  0001 C CNN
F 1 "+3V3" H 10440 1148 50  0000 C CNN
F 2 "" H 10425 975 50  0001 C CNN
F 3 "" H 10425 975 50  0001 C CNN
	1    10425 975 
	1    0    0    -1  
$EndComp
Connection ~ 10425 975 
$Comp
L power:GND #PWR0108
U 1 1 5E4735E0
P 9450 1425
F 0 "#PWR0108" H 9450 1175 50  0001 C CNN
F 1 "GND" H 9455 1252 50  0000 C CNN
F 2 "" H 9450 1425 50  0001 C CNN
F 3 "" H 9450 1425 50  0001 C CNN
	1    9450 1425
	1    0    0    -1  
$EndComp
Wire Wire Line
	6025 1100 6025 975 
Wire Wire Line
	5700 1100 5700 975 
Wire Wire Line
	5375 1100 5375 975 
Wire Wire Line
	5050 1100 5050 975 
Wire Wire Line
	4725 1100 4725 975 
$Comp
L Device:C_Small C6
U 1 1 5E3C8474
P 4725 1200
F 0 "C6" H 4817 1246 50  0000 L CNN
F 1 "10u" H 4817 1155 50  0000 L CNN
F 2 "Capacitor_SMD:C_1206_3216Metric" H 4725 1200 50  0001 C CNN
F 3 "~" H 4725 1200 50  0001 C CNN
	1    4725 1200
	1    0    0    -1  
$EndComp
$Comp
L Device:C_Small C8
U 1 1 5E3C87E6
P 5050 1200
F 0 "C8" H 5142 1246 50  0000 L CNN
F 1 "10u" H 5142 1155 50  0000 L CNN
F 2 "Capacitor_SMD:C_1206_3216Metric" H 5050 1200 50  0001 C CNN
F 3 "~" H 5050 1200 50  0001 C CNN
	1    5050 1200
	1    0    0    -1  
$EndComp
$Comp
L Device:C_Small C10
U 1 1 5E3C8900
P 5375 1200
F 0 "C10" H 5467 1246 50  0000 L CNN
F 1 "10u" H 5467 1155 50  0000 L CNN
F 2 "Capacitor_SMD:C_1206_3216Metric" H 5375 1200 50  0001 C CNN
F 3 "~" H 5375 1200 50  0001 C CNN
	1    5375 1200
	1    0    0    -1  
$EndComp
$Comp
L Device:C_Small C12
U 1 1 5E3C8A36
P 5700 1200
F 0 "C12" H 5792 1246 50  0000 L CNN
F 1 "10u" H 5792 1155 50  0000 L CNN
F 2 "Capacitor_SMD:C_1206_3216Metric" H 5700 1200 50  0001 C CNN
F 3 "~" H 5700 1200 50  0001 C CNN
	1    5700 1200
	1    0    0    -1  
$EndComp
$Comp
L Device:C_Small C14
U 1 1 5E3CA0D5
P 6025 1200
F 0 "C14" H 6117 1246 50  0000 L CNN
F 1 "10u" H 6117 1155 50  0000 L CNN
F 2 "Capacitor_SMD:C_1206_3216Metric" H 6025 1200 50  0001 C CNN
F 3 "~" H 6025 1200 50  0001 C CNN
	1    6025 1200
	1    0    0    -1  
$EndComp
$Comp
L Device:C_Small C7
U 1 1 5E3CD195
P 4725 1550
F 0 "C7" H 4817 1596 50  0000 L CNN
F 1 "10u" H 4817 1505 50  0000 L CNN
F 2 "Capacitor_SMD:C_1206_3216Metric" H 4725 1550 50  0001 C CNN
F 3 "~" H 4725 1550 50  0001 C CNN
	1    4725 1550
	1    0    0    -1  
$EndComp
$Comp
L Device:C_Small C9
U 1 1 5E3CD19B
P 5050 1550
F 0 "C9" H 5142 1596 50  0000 L CNN
F 1 "10u" H 5142 1505 50  0000 L CNN
F 2 "Capacitor_SMD:C_1206_3216Metric" H 5050 1550 50  0001 C CNN
F 3 "~" H 5050 1550 50  0001 C CNN
	1    5050 1550
	1    0    0    -1  
$EndComp
$Comp
L Device:C_Small C11
U 1 1 5E3CD1A1
P 5375 1550
F 0 "C11" H 5467 1596 50  0000 L CNN
F 1 "10u" H 5467 1505 50  0000 L CNN
F 2 "Capacitor_SMD:C_1206_3216Metric" H 5375 1550 50  0001 C CNN
F 3 "~" H 5375 1550 50  0001 C CNN
	1    5375 1550
	1    0    0    -1  
$EndComp
$Comp
L Device:C_Small C13
U 1 1 5E3CD1A7
P 5700 1550
F 0 "C13" H 5792 1596 50  0000 L CNN
F 1 "10u" H 5792 1505 50  0000 L CNN
F 2 "Capacitor_SMD:C_1206_3216Metric" H 5700 1550 50  0001 C CNN
F 3 "~" H 5700 1550 50  0001 C CNN
	1    5700 1550
	1    0    0    -1  
$EndComp
$Comp
L Device:C_Small C15
U 1 1 5E3CD1AD
P 6025 1550
F 0 "C15" H 6117 1596 50  0000 L CNN
F 1 "10u" H 6117 1505 50  0000 L CNN
F 2 "Capacitor_SMD:C_1206_3216Metric" H 6025 1550 50  0001 C CNN
F 3 "~" H 6025 1550 50  0001 C CNN
	1    6025 1550
	1    0    0    -1  
$EndComp
$Comp
L power:GND #PWR0109
U 1 1 5E3CD566
P 4575 1725
F 0 "#PWR0109" H 4575 1475 50  0001 C CNN
F 1 "GND" H 4580 1552 50  0000 C CNN
F 2 "" H 4575 1725 50  0001 C CNN
F 3 "" H 4575 1725 50  0001 C CNN
	1    4575 1725
	1    0    0    -1  
$EndComp
Wire Wire Line
	4575 1725 4725 1725
Wire Wire Line
	6025 1725 6025 1650
Wire Wire Line
	5700 1650 5700 1725
Connection ~ 5700 1725
Wire Wire Line
	5700 1725 6025 1725
Wire Wire Line
	5375 1650 5375 1725
Connection ~ 5375 1725
Wire Wire Line
	5375 1725 5700 1725
Wire Wire Line
	5050 1650 5050 1725
Connection ~ 5050 1725
Wire Wire Line
	5050 1725 5375 1725
Wire Wire Line
	4725 1650 4725 1725
Connection ~ 4725 1725
Wire Wire Line
	4725 1725 5050 1725
Wire Wire Line
	6025 1300 6025 1325
Wire Wire Line
	6025 1325 5700 1325
Wire Wire Line
	4575 1325 4575 1725
Connection ~ 4575 1725
Wire Wire Line
	5700 1300 5700 1325
Connection ~ 5700 1325
Wire Wire Line
	5700 1325 5375 1325
Wire Wire Line
	5375 1300 5375 1325
Connection ~ 5375 1325
Wire Wire Line
	5375 1325 5050 1325
Wire Wire Line
	5050 1300 5050 1325
Connection ~ 5050 1325
Wire Wire Line
	5050 1325 4725 1325
Wire Wire Line
	4725 1300 4725 1325
Connection ~ 4725 1325
Wire Wire Line
	4725 1325 4575 1325
Wire Wire Line
	4725 1450 4725 1400
Wire Wire Line
	4725 1400 5050 1400
Wire Wire Line
	6275 1400 6275 975 
Wire Wire Line
	5050 1450 5050 1400
Connection ~ 5050 1400
Wire Wire Line
	5050 1400 5375 1400
Wire Wire Line
	5375 1450 5375 1400
Connection ~ 5375 1400
Wire Wire Line
	5375 1400 5700 1400
Wire Wire Line
	5700 1450 5700 1400
Connection ~ 5700 1400
Wire Wire Line
	5700 1400 6025 1400
Wire Wire Line
	6025 1450 6025 1400
Connection ~ 6025 1400
Wire Wire Line
	6025 1400 6275 1400
Text Notes 4925 1950 0    50   ~ 0
Caps: \nCL32B106KMVNNWE
Wire Wire Line
	7675 975  7900 975 
Wire Wire Line
	8750 975  7900 975 
Connection ~ 8750 975 
Connection ~ 7900 975 
$Comp
L Device:R_Small_US R5
U 1 1 5E48BA2B
P 7900 1075
F 0 "R5" H 7968 1121 50  0000 L CNN
F 1 "300" H 7968 1030 50  0000 L CNN
F 2 "Resistor_SMD:R_0603_1608Metric" H 7900 1075 50  0001 C CNN
F 3 "~" H 7900 1075 50  0001 C CNN
	1    7900 1075
	1    0    0    -1  
$EndComp
$Comp
L Device:LED_Small D4
U 1 1 5E48BDCD
P 10625 1275
F 0 "D4" V 10671 1207 50  0000 R CNN
F 1 "LTST-C190KGKT" V 10580 1207 50  0000 R CNN
F 2 "LED_SMD:LED_0603_1608Metric_Castellated" V 10625 1275 50  0001 C CNN
F 3 "~" V 10625 1275 50  0001 C CNN
	1    10625 1275
	0    -1   -1   0   
$EndComp
$Comp
L power:GND #PWR0110
U 1 1 5E48BDD7
P 10625 1375
F 0 "#PWR0110" H 10625 1125 50  0001 C CNN
F 1 "GND" H 10630 1202 50  0000 C CNN
F 2 "" H 10625 1375 50  0001 C CNN
F 3 "" H 10625 1375 50  0001 C CNN
	1    10625 1375
	1    0    0    -1  
$EndComp
Text Notes 10700 1425 0    50   ~ 0
Power indc.
$Comp
L Device:R_Small_US R6
U 1 1 5E48BDE2
P 10625 1075
F 0 "R6" H 10693 1121 50  0000 L CNN
F 1 "130" H 10693 1030 50  0000 L CNN
F 2 "Resistor_SMD:R_0603_1608Metric" H 10625 1075 50  0001 C CNN
F 3 "~" H 10625 1075 50  0001 C CNN
	1    10625 1075
	1    0    0    -1  
$EndComp
Wire Wire Line
	10425 975  10625 975 
Wire Wire Line
	2625 1875 2625 1675
Wire Wire Line
	2625 1350 2950 1350
Wire Wire Line
	3425 2075 3350 2075
$Comp
L Device:R_Small_US R4
U 1 1 5E4C8255
P 2950 1225
F 0 "R4" H 3018 1271 50  0000 L CNN
F 1 "0" H 3018 1180 50  0000 L CNN
F 2 "Resistor_SMD:R_0603_1608Metric" H 2950 1225 50  0001 C CNN
F 3 "~" H 2950 1225 50  0001 C CNN
	1    2950 1225
	1    0    0    -1  
$EndComp
$Comp
L Device:R_Small_US R2
U 1 1 5E4C8786
P 2750 1225
F 0 "R2" H 2600 1275 50  0000 L CNN
F 1 "0" H 2650 1175 50  0000 L CNN
F 2 "Resistor_SMD:R_0603_1608Metric" H 2750 1225 50  0001 C CNN
F 3 "~" H 2750 1225 50  0001 C CNN
	1    2750 1225
	1    0    0    -1  
$EndComp
$Comp
L Device:R_Shunt_US R3
U 1 1 5E7F3959
P 2850 975
F 0 "R3" V 2625 975 50  0000 C CNN
F 1 "500u" V 2716 975 50  0000 C CNN
F 2 "copperforge:CSS4J-4026" V 2780 975 50  0001 C CNN
F 3 "~" H 2850 975 50  0001 C CNN
	1    2850 975 
	0    -1   1    0   
$EndComp
Wire Wire Line
	3050 975  3825 975 
Wire Wire Line
	2950 1325 2950 1350
Wire Wire Line
	2750 1325 2425 1325
Wire Wire Line
	2425 1325 2425 1675
$Comp
L Device:C_Small C1
U 1 1 5E80EC88
P 2525 1675
F 0 "C1" V 2296 1675 50  0000 C CNN
F 1 "DNP" V 2387 1675 50  0000 C CNN
F 2 "Capacitor_SMD:C_0603_1608Metric" H 2525 1675 50  0001 C CNN
F 3 "~" H 2525 1675 50  0001 C CNN
	1    2525 1675
	0    1    1    0   
$EndComp
Connection ~ 2625 1675
Wire Wire Line
	2625 1675 2625 1350
Connection ~ 2425 1675
Wire Wire Line
	3350 2075 3350 2100
$Comp
L Connector_Generic:Conn_02x40_Odd_Even J2
U 1 1 5E85C413
P 1650 5050
F 0 "J2" H 1700 7167 50  0000 C CNN
F 1 "Input" H 1700 7076 50  0000 C CNN
F 2 "copperforge:M557108042R" H 1650 5050 50  0001 C CNN
F 3 "~" H 1650 5050 50  0001 C CNN
	1    1650 5050
	1    0    0    -1  
$EndComp
$Comp
L Connector:TestPoint TP4
U 1 1 5E86E91E
P 7675 975
F 0 "TP4" H 7733 1047 50  0001 L CNN
F 1 "TestPoint" H 7733 1002 50  0001 L CNN
F 2 "copperforge:TestPoint_Keystone_5019_Minature-3dmodel" H 7875 975 50  0001 C CNN
F 3 "~" H 7875 975 50  0001 C CNN
	1    7675 975 
	-1   0    0    1   
$EndComp
Wire Wire Line
	1725 975  2650 975 
$Comp
L Connector:TestPoint TP1
U 1 1 5E86F4F7
P 975 975
F 0 "TP1" H 1033 1047 50  0001 L CNN
F 1 "TestPoint" H 1033 1002 50  0001 L CNN
F 2 "copperforge:TestPoint_Keystone_5019_Minature-3dmodel" H 1175 975 50  0001 C CNN
F 3 "~" H 1175 975 50  0001 C CNN
	1    975  975 
	1    0    0    -1  
$EndComp
Connection ~ 975  975 
Wire Wire Line
	975  975  1175 975 
$Comp
L Connector:TestPoint TP5
U 1 1 5E86FE11
P 10425 975
F 0 "TP5" H 10483 1047 50  0001 L CNN
F 1 "TestPoint" H 10483 1002 50  0001 L CNN
F 2 "copperforge:TestPoint_Keystone_5019_Minature-3dmodel" H 10625 975 50  0001 C CNN
F 3 "~" H 10625 975 50  0001 C CNN
	1    10425 975 
	-1   0    0    1   
$EndComp
Wire Wire Line
	8750 1425 9450 1425
Wire Wire Line
	8650 3700 8650 3675
Wire Wire Line
	8650 3525 8650 3500
Wire Wire Line
	8475 3600 8725 3600
$Sheet
S 7300 2750 1175 1650
U 5E53FE8F
F0 "Inverter" 50
F1 "Inverter.sch" 50
F2 "MOT_A" O R 8475 3525 50 
F3 "VBUS" I L 7300 2825 50 
F4 "MOT_B" O R 8475 3600 50 
F5 "MOT_C" O R 8475 3675 50 
F6 "EN" I L 7300 2975 50 
F7 "VREF" I L 7300 3200 50 
F8 "I_C" O L 7300 3300 50 
F9 "I_B" O L 7300 3375 50 
F10 "I_A" O L 7300 3450 50 
F11 "nFAULT" O L 7300 3050 50 
F12 "INHA" I L 7300 3575 50 
F13 "INLA" I L 7300 3650 50 
F14 "INLB" I L 7300 3725 50 
F15 "INHB" I L 7300 3800 50 
F16 "INHC" I L 7300 3875 50 
F17 "INLC" I L 7300 3950 50 
F18 "SDI" I L 7300 4125 50 
F19 "SDO" O L 7300 4200 50 
F20 "SCLK" I L 7300 4275 50 
F21 "nSCS" I L 7300 4350 50 
F22 "3v3" I R 8475 2800 50 
F23 "SDA" B R 8475 2875 50 
F24 "SCL" I R 8475 2950 50 
$EndSheet
$Comp
L power:VBUS #PWR0116
U 1 1 5E52AB8D
P 7150 2825
F 0 "#PWR0116" H 7150 2675 50  0001 C CNN
F 1 "VBUS" H 7165 2998 50  0000 C CNN
F 2 "" H 7150 2825 50  0001 C CNN
F 3 "" H 7150 2825 50  0001 C CNN
	1    7150 2825
	1    0    0    -1  
$EndComp
Wire Wire Line
	7150 2825 7300 2825
Wire Wire Line
	6275 975  6550 975 
$Comp
L power:+5V #PWR0152
U 1 1 5E5B0A22
P 825 3250
F 0 "#PWR0152" H 825 3100 50  0001 C CNN
F 1 "+5V" H 840 3423 50  0000 C CNN
F 2 "" H 825 3250 50  0001 C CNN
F 3 "" H 825 3250 50  0001 C CNN
	1    825  3250
	1    0    0    -1  
$EndComp
$Comp
L power:GND #PWR0156
U 1 1 5E5CC09D
P 675 3450
F 0 "#PWR0156" H 675 3200 50  0001 C CNN
F 1 "GND" H 680 3277 50  0000 C CNN
F 2 "" H 675 3450 50  0001 C CNN
F 3 "" H 675 3450 50  0001 C CNN
	1    675  3450
	1    0    0    -1  
$EndComp
Text Label 1400 3550 2    50   ~ 0
SERVO_PWM_IN
Wire Wire Line
	1400 3550 1450 3550
Text Label 1400 3650 2    50   ~ 0
BRAKE_H
Wire Wire Line
	1400 3650 1450 3650
Text Label 1400 3850 2    50   ~ 0
HALL_B
Wire Wire Line
	1450 3850 1400 3850
Text Label 1400 3750 2    50   ~ 0
PD6
Text Label 1400 3950 2    50   ~ 0
PD2
Text Label 1400 4050 2    50   ~ 0
PF6
Text Label 1400 4150 2    50   ~ 0
MOTOR_ENCODER_B
Text Label 1400 4350 2    50   ~ 0
PD15
Text Label 1400 4450 2    50   ~ 0
PD11
Text Label 1400 4550 2    50   ~ 0
PD9
Text Label 1400 4650 2    50   ~ 0
ENCODERSPI_MOSI
Text Label 1400 4750 2    50   ~ 0
ENCODERSPI_SCK
Text Label 1400 4850 2    50   ~ 0
PB11
Text Label 1400 5050 2    50   ~ 0
PHASE_C_H
Text Label 1400 5150 2    50   ~ 0
PHASE_B_H
Text Label 1400 5250 2    50   ~ 0
PHASE_A_H
Text Label 1400 5350 2    50   ~ 0
PE7
Text Label 1400 5450 2    50   ~ 0
PB1
Text Label 1400 5550 2    50   ~ 0
PC5
Text Label 1400 5850 2    50   ~ 0
POWERSPI_MOSI
Text Label 1400 6050 2    50   ~ 0
POWERSPI_SCK
Text Label 1400 6250 2    50   ~ 0
PA1
Text Label 1400 6550 2    50   ~ 0
PF10
Text Label 1400 6650 2    50   ~ 0
PC15
Text Label 1400 6750 2    50   ~ 0
PC13
Text Label 1400 6850 2    50   ~ 0
PE5
Text Label 1400 6950 2    50   ~ 0
PE3
$Comp
L power:GND #PWR0137
U 1 1 5E6889F2
P 950 7050
F 0 "#PWR0137" H 950 6800 50  0001 C CNN
F 1 "GND" H 955 6877 50  0000 C CNN
F 2 "" H 950 7050 50  0001 C CNN
F 3 "" H 950 7050 50  0001 C CNN
	1    950  7050
	1    0    0    -1  
$EndComp
Wire Wire Line
	1400 6950 1450 6950
Wire Wire Line
	1400 6850 1450 6850
Wire Wire Line
	1400 6750 1450 6750
Wire Wire Line
	1400 6650 1450 6650
Wire Wire Line
	1400 6550 1450 6550
Wire Wire Line
	1400 6250 1450 6250
Wire Wire Line
	1400 6050 1450 6050
Wire Wire Line
	1400 5850 1450 5850
Wire Wire Line
	1400 5450 1450 5450
Wire Wire Line
	1400 5250 1450 5250
Wire Wire Line
	1400 5150 1450 5150
Wire Wire Line
	1400 5050 1450 5050
Wire Wire Line
	1400 4850 1450 4850
Wire Wire Line
	1400 4750 1450 4750
Wire Wire Line
	1400 4650 1450 4650
Wire Wire Line
	1400 4450 1450 4450
Wire Wire Line
	1400 4050 1450 4050
Wire Wire Line
	1450 4150 1400 4150
Wire Wire Line
	1400 4350 1450 4350
Wire Wire Line
	1950 6250 2000 6250
Wire Wire Line
	1950 6450 2000 6450
Wire Wire Line
	1450 6450 1400 6450
Wire Wire Line
	1950 6550 2000 6550
Wire Wire Line
	1950 6650 2000 6650
Wire Wire Line
	1950 6750 2000 6750
Wire Wire Line
	1950 6850 2000 6850
Wire Wire Line
	1950 6950 2000 6950
Text Label 2000 6950 0    50   ~ 0
PE2
Text Label 2000 6850 0    50   ~ 0
PE4
Text Label 2000 6750 0    50   ~ 0
PE6
Text Label 2000 6650 0    50   ~ 0
PC14
Text Label 2000 6550 0    50   ~ 0
PWM_IN_CH2
Text Label 1400 6450 2    50   ~ 0
PF1
Text Label 2000 6450 0    50   ~ 0
PC1
Text Label 2000 6250 0    50   ~ 0
PA4
Wire Wire Line
	1950 5750 2000 5750
Wire Wire Line
	1950 5850 2000 5850
Wire Wire Line
	1950 5950 2000 5950
Wire Wire Line
	1950 6050 2000 6050
Wire Wire Line
	1450 6150 1400 6150
Text Label 2000 6150 0    50   ~ 0
PC4
Text Label 1400 6150 2    50   ~ 0
PB0
Text Label 2000 6050 0    50   ~ 0
PB2
Text Label 2000 5950 0    50   ~ 0
PHASE_A_L
Text Label 2000 5850 0    50   ~ 0
PHASE_B_L
Text Label 2000 5750 0    50   ~ 0
PHASE_C_L
Text Label 5675 6625 0    50   ~ 0
PE14
Text Label 2000 4050 0    50   ~ 0
PD5
Text Label 2000 3750 0    50   ~ 0
PB8
Wire Wire Line
	2000 4150 1950 4150
Text Label 2000 4150 0    50   ~ 0
HALL_A
Wire Wire Line
	2000 3950 1950 3950
Text Label 2000 3950 0    50   ~ 0
HALL_C
Wire Wire Line
	2000 3850 1950 3850
Text Label 2000 3850 0    50   ~ 0
BRAKE_L
Text Label 2000 3550 0    50   ~ 0
PB3
Text Label 2000 3650 0    50   ~ 0
PA15
Wire Wire Line
	2000 3550 1950 3550
Wire Wire Line
	1950 3650 2000 3650
Text Label 7250 3450 2    50   ~ 0
I_A
Wire Wire Line
	7250 3450 7300 3450
Text Label 7250 3375 2    50   ~ 0
I_B
Wire Wire Line
	7250 3375 7300 3375
Text Label 7250 3300 2    50   ~ 0
I_C
Wire Wire Line
	7250 3300 7300 3300
Text Label 6950 4125 2    50   ~ 0
POWERSPI_MOSI
Text Label 6950 4200 2    50   ~ 0
POWERSPI_MISO
Text Label 6950 4275 2    50   ~ 0
POWERSPI_SCK
Text Label 7225 3875 2    50   ~ 0
PHASE_C_H
Text Label 7225 3950 2    50   ~ 0
PHASE_C_L
Text Label 7225 3800 2    50   ~ 0
PHASE_B_H
Text Label 7225 3725 2    50   ~ 0
PHASE_B_L
Text Label 7225 3650 2    50   ~ 0
PHASE_A_L
Text Label 7225 3575 2    50   ~ 0
PHASE_A_H
Wire Wire Line
	7225 3950 7300 3950
Wire Wire Line
	7225 3875 7300 3875
Wire Wire Line
	7225 3800 7300 3800
Wire Wire Line
	7225 3725 7300 3725
Wire Wire Line
	7225 3650 7300 3650
Wire Wire Line
	7225 3575 7300 3575
Text Label 2200 6150 0    50   ~ 0
INVERTER_CS
Wire Wire Line
	1950 6150 2200 6150
Text Label 1200 5550 2    50   ~ 0
HALFH_CS
Wire Wire Line
	1200 5550 1450 5550
Text Label 6950 4350 2    50   ~ 0
INVERTER_CS
Text Label 1200 3750 2    50   ~ 0
INVERTER_ENABLE
Wire Wire Line
	1200 3750 1450 3750
Text Label 2225 4050 0    50   ~ 0
INVERTER_FAULT
Wire Wire Line
	1950 4050 2225 4050
Text Label 7150 3050 2    50   ~ 0
INVERTER_FAULT
Wire Wire Line
	7150 3050 7300 3050
Text Label 7150 2975 2    50   ~ 0
INVERTER_ENABLE
Wire Wire Line
	7150 2975 7300 2975
$Comp
L Reference_Voltage:REF3033 U8
U 1 1 5EEB23D3
P 5125 3175
F 0 "U8" H 5175 3500 50  0000 R CNN
F 1 "REF3033" H 5375 3425 50  0000 R CIN
F 2 "Package_TO_SOT_SMD:SOT-23" H 5125 2725 50  0001 C CIN
F 3 "http://www.ti.com/lit/ds/symlink/ref3033.pdf" H 5225 2825 50  0001 C CIN
	1    5125 3175
	1    0    0    -1  
$EndComp
$Comp
L power:+5V #PWR0157
U 1 1 5EEB33A1
P 5025 2800
F 0 "#PWR0157" H 5025 2650 50  0001 C CNN
F 1 "+5V" H 5040 2973 50  0000 C CNN
F 2 "" H 5025 2800 50  0001 C CNN
F 3 "" H 5025 2800 50  0001 C CNN
	1    5025 2800
	1    0    0    -1  
$EndComp
$Comp
L power:GND #PWR0158
U 1 1 5EEB3DF8
P 5025 3525
F 0 "#PWR0158" H 5025 3275 50  0001 C CNN
F 1 "GND" H 5030 3352 50  0000 C CNN
F 2 "" H 5025 3525 50  0001 C CNN
F 3 "" H 5025 3525 50  0001 C CNN
	1    5025 3525
	1    0    0    -1  
$EndComp
Wire Wire Line
	5025 3525 5025 3500
Wire Wire Line
	5025 2875 5025 2800
Wire Wire Line
	4600 3225 4600 3500
Wire Wire Line
	4600 3500 5025 3500
Connection ~ 5025 3500
Wire Wire Line
	5025 3500 5025 3475
Text Label 5775 3175 0    50   ~ 0
REF_3v3
Wire Wire Line
	5775 3175 5725 3175
Text Label 7125 3200 2    50   ~ 0
REF_3v3
Wire Wire Line
	7125 3200 7300 3200
$Comp
L Device:C_Small C52
U 1 1 5EEF41C3
P 4600 3125
F 0 "C52" H 4692 3171 50  0000 L CNN
F 1 "470n" H 4692 3080 50  0000 L CNN
F 2 "Capacitor_SMD:C_0603_1608Metric" H 4600 3125 50  0001 C CNN
F 3 "~" H 4600 3125 50  0001 C CNN
	1    4600 3125
	1    0    0    -1  
$EndComp
Wire Wire Line
	4600 3025 4600 2800
Wire Wire Line
	4600 2800 5025 2800
Connection ~ 5025 2800
Text Notes 9650 750  0    50   ~ 0
200mA out
Text Notes 7050 775  0    50   ~ 0
5v 6a
$Comp
L power:+3V3 #PWR0159
U 1 1 5E5777C9
P 8525 2800
F 0 "#PWR0159" H 8525 2650 50  0001 C CNN
F 1 "+3V3" H 8540 2973 50  0000 C CNN
F 2 "" H 8525 2800 50  0001 C CNN
F 3 "" H 8525 2800 50  0001 C CNN
	1    8525 2800
	1    0    0    -1  
$EndComp
Wire Wire Line
	8525 2800 8475 2800
$Comp
L power:+3V3 #PWR0160
U 1 1 5E58DFBB
P 7450 1200
F 0 "#PWR0160" H 7450 1050 50  0001 C CNN
F 1 "+3V3" H 7465 1373 50  0000 C CNN
F 2 "" H 7450 1200 50  0001 C CNN
F 3 "" H 7450 1200 50  0001 C CNN
	1    7450 1200
	1    0    0    -1  
$EndComp
Wire Wire Line
	7450 1200 7325 1200
Text Label 6750 1150 2    50   ~ 0
SDA
Text Label 6750 1225 2    50   ~ 0
SCL
Wire Wire Line
	6750 1225 6800 1225
Wire Wire Line
	6800 1150 6750 1150
Text Label 8525 2875 0    50   ~ 0
SDA
Text Label 8525 2950 0    50   ~ 0
SCL
Wire Wire Line
	8525 2950 8475 2950
Wire Wire Line
	8475 2875 8525 2875
$Comp
L Connector:TestPoint TP44
U 1 1 5E77577F
P 900 1175
F 0 "TP44" H 958 1247 50  0001 L CNN
F 1 "TestPoint" H 958 1202 50  0001 L CNN
F 2 "copperforge:TestPoint_Keystone_5019_Minature-3dmodel" H 1100 1175 50  0001 C CNN
F 3 "~" H 1100 1175 50  0001 C CNN
	1    900  1175
	-1   0    0    1   
$EndComp
Connection ~ 900  1075
Text Notes 1525 925  0    50   ~ 0
CRCW12182K10FKEKHP
$Sheet
S 7350 1875 1050 475 
U 5EB444B5
F0 "Inverter Status LEDs" 50
F1 "statusled.sch" 50
F2 "INVERTER_ENABLE" I L 7350 2000 50 
F3 "INVERTER_FAULT" I L 7350 2075 50 
F4 "HALFH_DIAG" I L 7350 2225 50 
F5 "HALFH_ENABLE" I L 7350 2150 50 
F6 "3v3" I R 8400 1975 50 
$EndSheet
Text Label 7300 2000 2    50   ~ 0
INVERTER_ENABLE
Text Label 7300 2075 2    50   ~ 0
INVERTER_FAULT
Text Label 7300 2150 2    50   ~ 0
HALFH_ENABLE
Text Label 7300 2225 2    50   ~ 0
HALFH_DIAG
Wire Wire Line
	7300 2225 7350 2225
Wire Wire Line
	7300 2150 7350 2150
Wire Wire Line
	7350 2075 7300 2075
Wire Wire Line
	7300 2000 7350 2000
$Comp
L power:+3V3 #PWR0172
U 1 1 5ED5A4D5
P 8500 1975
F 0 "#PWR0172" H 8500 1825 50  0001 C CNN
F 1 "+3V3" H 8515 2148 50  0000 C CNN
F 2 "" H 8500 1975 50  0001 C CNN
F 3 "" H 8500 1975 50  0001 C CNN
	1    8500 1975
	1    0    0    -1  
$EndComp
Wire Wire Line
	8500 1975 8400 1975
Wire Wire Line
	6950 4350 7300 4350
Wire Wire Line
	6950 4275 7300 4275
Wire Wire Line
	6950 4125 7300 4125
Wire Wire Line
	6950 4200 7300 4200
$Comp
L Connector:TestPoint TP3
U 1 1 5E86F2EB
P 6550 975
F 0 "TP3" H 6608 1047 50  0001 L CNN
F 1 "TestPoint" H 6608 1002 50  0001 L CNN
F 2 "copperforge:TestPoint_Keystone_5019_Minature-3dmodel" H 6750 975 50  0001 C CNN
F 3 "~" H 6750 975 50  0001 C CNN
	1    6550 975 
	-1   0    0    1   
$EndComp
$Comp
L Connector:TestPoint_Alt TP6
U 1 1 5EF4E5DC
P 5475 3175
AR Path="/5EF4E5DC" Ref="TP6"  Part="1" 
AR Path="/5E3FC3A3/5EF4E5DC" Ref="TP?"  Part="1" 
F 0 "TP6" H 5533 3247 50  0001 L CNN
F 1 "TestPoint_Alt" H 5533 3202 50  0001 L CNN
F 2 "TestPoint:TestPoint_Pad_1.0x1.0mm" H 5675 3175 50  0001 C CNN
F 3 "~" H 5675 3175 50  0001 C CNN
	1    5475 3175
	1    0    0    -1  
$EndComp
Connection ~ 5475 3175
Wire Wire Line
	5475 3175 5425 3175
Text Notes 12225 5250 0    50   ~ 0
BEFORE LAYOUT:\nTODO:\n\nDONE:\n- Add more ground test points around power-y things\n- Move Analog To Safety Box (sep. connector?)\n- Figure out how brake resistors work\n- Make sure 3v3 ref can deal with buck transients\n- Consider bidirectional Vbus sensing\n- Verify resistor array footprint\n- Make caps that should be 1206 be 1206
Text Notes 575  575  0    50   ~ 0
Wurth 691256610004
$Comp
L power:GND #PWR0149
U 1 1 5E71F286
P 4850 5125
F 0 "#PWR0149" H 4850 4875 50  0001 C CNN
F 1 "GND" V 4855 4997 50  0000 R CNN
F 2 "" H 4850 5125 50  0001 C CNN
F 3 "" H 4850 5125 50  0001 C CNN
	1    4850 5125
	0    1    -1   0   
$EndComp
$Comp
L power:GND #PWR0151
U 1 1 5E71F28C
P 4850 5325
F 0 "#PWR0151" H 4850 5075 50  0001 C CNN
F 1 "GND" V 4855 5197 50  0000 R CNN
F 2 "" H 4850 5325 50  0001 C CNN
F 3 "" H 4850 5325 50  0001 C CNN
	1    4850 5325
	0    1    -1   0   
$EndComp
$Comp
L power:GND #PWR0153
U 1 1 5E71F292
P 4850 5525
F 0 "#PWR0153" H 4850 5275 50  0001 C CNN
F 1 "GND" V 4855 5397 50  0000 R CNN
F 2 "" H 4850 5525 50  0001 C CNN
F 3 "" H 4850 5525 50  0001 C CNN
	1    4850 5525
	0    1    -1   0   
$EndComp
$Comp
L power:GND #PWR0155
U 1 1 5E71F298
P 4850 5725
F 0 "#PWR0155" H 4850 5475 50  0001 C CNN
F 1 "GND" V 4855 5597 50  0000 R CNN
F 2 "" H 4850 5725 50  0001 C CNN
F 3 "" H 4850 5725 50  0001 C CNN
	1    4850 5725
	0    1    -1   0   
$EndComp
$Comp
L power:GND #PWR0180
U 1 1 5E71F29E
P 4850 5925
F 0 "#PWR0180" H 4850 5675 50  0001 C CNN
F 1 "GND" V 4855 5797 50  0000 R CNN
F 2 "" H 4850 5925 50  0001 C CNN
F 3 "" H 4850 5925 50  0001 C CNN
	1    4850 5925
	0    1    -1   0   
$EndComp
$Comp
L power:GND #PWR0181
U 1 1 5E71F2A4
P 4850 6125
F 0 "#PWR0181" H 4850 5875 50  0001 C CNN
F 1 "GND" V 4855 5997 50  0000 R CNN
F 2 "" H 4850 6125 50  0001 C CNN
F 3 "" H 4850 6125 50  0001 C CNN
	1    4850 6125
	0    1    -1   0   
$EndComp
$Comp
L power:GND #PWR0182
U 1 1 5E71F2AA
P 4850 6325
F 0 "#PWR0182" H 4850 6075 50  0001 C CNN
F 1 "GND" V 4855 6197 50  0000 R CNN
F 2 "" H 4850 6325 50  0001 C CNN
F 3 "" H 4850 6325 50  0001 C CNN
	1    4850 6325
	0    1    -1   0   
$EndComp
$Comp
L power:GND #PWR0183
U 1 1 5E71F2B0
P 4850 6525
F 0 "#PWR0183" H 4850 6275 50  0001 C CNN
F 1 "GND" V 4855 6397 50  0000 R CNN
F 2 "" H 4850 6525 50  0001 C CNN
F 3 "" H 4850 6525 50  0001 C CNN
	1    4850 6525
	0    1    -1   0   
$EndComp
$Comp
L power:GND #PWR0184
U 1 1 5E71F2B6
P 4850 6725
F 0 "#PWR0184" H 4850 6475 50  0001 C CNN
F 1 "GND" V 4855 6597 50  0000 R CNN
F 2 "" H 4850 6725 50  0001 C CNN
F 3 "" H 4850 6725 50  0001 C CNN
	1    4850 6725
	0    1    -1   0   
$EndComp
$Comp
L power:GND #PWR0185
U 1 1 5E71F2BC
P 4850 6925
F 0 "#PWR0185" H 4850 6675 50  0001 C CNN
F 1 "GND" V 4855 6797 50  0000 R CNN
F 2 "" H 4850 6925 50  0001 C CNN
F 3 "" H 4850 6925 50  0001 C CNN
	1    4850 6925
	0    1    -1   0   
$EndComp
Text Label 4275 5225 2    50   ~ 0
REF_3v3
Text Label 4275 5425 2    50   ~ 0
HALFH_OOS
Text Label 4275 5625 2    50   ~ 0
I_A
Text Label 4275 5825 2    50   ~ 0
I_B
Text Label 4275 6025 2    50   ~ 0
I_C
Text Label 4275 6225 2    50   ~ 0
VBUS_SENSE
Text Label 4275 6425 2    50   ~ 0
BRAKE_SENSE
Text Label 4575 5225 2    50   ~ 0
PD13
Text Label 4575 5425 2    50   ~ 0
PE15
Text Label 4575 5625 2    50   ~ 0
PA0
Text Label 4575 5825 2    50   ~ 0
PA2
Text Label 4575 6025 2    50   ~ 0
PA3
Text Label 4575 6225 2    50   ~ 0
PC2
Text Label 4575 6425 2    50   ~ 0
PC3
Wire Wire Line
	4275 5225 4875 5225
Wire Wire Line
	4275 5425 4875 5425
Wire Wire Line
	4275 5625 4875 5625
Wire Wire Line
	4275 5825 4875 5825
Wire Wire Line
	4275 6025 4875 6025
Wire Wire Line
	4275 6225 4875 6225
Wire Wire Line
	4275 6425 4875 6425
Text Label 5975 5225 0    50   ~ 0
REF_3v3
Text Label 5975 5425 0    50   ~ 0
HALFH_OOS
Text Label 5975 5625 0    50   ~ 0
I_A
Text Label 5975 5825 0    50   ~ 0
I_B
Text Label 5975 6025 0    50   ~ 0
I_C
Text Label 5975 6225 0    50   ~ 0
VBUS_SENSE
Text Label 5975 6425 0    50   ~ 0
BRAKE_SENSE
Text Label 5675 5225 0    50   ~ 0
PD13
Text Label 5675 5425 0    50   ~ 0
PE15
Text Label 5675 5625 0    50   ~ 0
PA0
Text Label 5675 5825 0    50   ~ 0
PA2
Text Label 5675 6025 0    50   ~ 0
PA3
Text Label 5675 6225 0    50   ~ 0
PC2
Text Label 5675 6425 0    50   ~ 0
PC3
Wire Wire Line
	5975 5225 5375 5225
Wire Wire Line
	5975 5425 5375 5425
Wire Wire Line
	5975 5625 5375 5625
Wire Wire Line
	5975 5825 5375 5825
Wire Wire Line
	5975 6025 5375 6025
Wire Wire Line
	5975 6225 5375 6225
Wire Wire Line
	5975 6425 5375 6425
Wire Wire Line
	675  3450 1225 3450
Text Label 1400 5950 2    50   ~ 0
POWERSPI_MISO
Wire Wire Line
	1450 5950 1400 5950
Wire Wire Line
	1175 4550 1450 4550
Text Label 1175 4550 2    50   ~ 0
HALFH_RESET
Text Label 5975 6625 0    50   ~ 0
VBUS_VOLTAGE
Text Label 4575 6625 2    50   ~ 0
PE14
Text Label 4275 6625 2    50   ~ 0
VBUS_VOLTAGE
Wire Wire Line
	3600 6600 3600 6625
Wire Wire Line
	3600 7050 3600 7025
$Comp
L power:GND #PWR0186
U 1 1 5EEEA70B
P 3600 7050
F 0 "#PWR0186" H 3600 6800 50  0001 C CNN
F 1 "GND" H 3605 6877 50  0000 C CNN
F 2 "" H 3600 7050 50  0001 C CNN
F 3 "" H 3600 7050 50  0001 C CNN
	1    3600 7050
	-1   0    0    -1  
$EndComp
Connection ~ 3600 6625
Wire Wire Line
	4875 6625 3600 6625
$Comp
L power:VBUS #PWR0187
U 1 1 5EF04342
P 3600 6400
F 0 "#PWR0187" H 3600 6250 50  0001 C CNN
F 1 "VBUS" H 3615 6573 50  0000 C CNN
F 2 "" H 3600 6400 50  0001 C CNN
F 3 "" H 3600 6400 50  0001 C CNN
	1    3600 6400
	1    0    0    -1  
$EndComp
Wire Wire Line
	1950 4850 2000 4850
Text Label 2000 4850 0    50   ~ 0
PC8
Wire Wire Line
	1950 5050 2375 5050
Text Label 2375 5050 0    50   ~ 0
MOTOR_THERMISTOR
Text Label 3500 4650 0    50   ~ 0
SCL
Text Label 3500 4750 0    50   ~ 0
SDA
Wire Wire Line
	1950 5250 2250 5250
Wire Wire Line
	1950 5350 2250 5350
Text Label 2250 5350 0    50   ~ 0
HALFH_DIAG
Text Label 2250 5250 0    50   ~ 0
HALFH_ENABLE
Text Label 2000 4750 0    50   ~ 0
PERIPH_I2C_SDA
Text Label 2000 4650 0    50   ~ 0
PERIPH_I2C_SCL
Wire Wire Line
	2000 4350 1950 4350
Wire Wire Line
	1950 4450 2000 4450
Wire Wire Line
	2000 4550 1950 4550
Text Label 2000 4550 0    50   ~ 0
PERIPH_SPI_SCK
Text Label 2000 4450 0    50   ~ 0
PERIPH_SPI_MISO
Text Label 2000 4350 0    50   ~ 0
PERIPH_SPI_MOSI
Text Label 2000 4950 0    50   ~ 0
MOTOR_ENCODER_A
Text Label 2000 5050 0    50   ~ 0
PD14
Text Label 2000 5150 0    50   ~ 0
PWM_IN_CH1
Wire Wire Line
	1950 4950 2000 4950
Wire Wire Line
	1950 5150 2000 5150
Text Label 2000 5250 0    50   ~ 0
PD10
Text Label 2000 5350 0    50   ~ 0
PD8
Text Label 2000 5450 0    50   ~ 0
ENCODERSPI_MISO
Text Label 2000 5550 0    50   ~ 0
PB12
Text Label 1400 5750 2    50   ~ 0
PB10
Wire Wire Line
	1450 5750 1400 5750
Wire Wire Line
	1950 5550 2000 5550
Wire Wire Line
	1950 5450 2000 5450
Wire Wire Line
	1950 3450 2100 3450
Wire Wire Line
	2100 3450 2100 3425
Wire Wire Line
	2100 3425 1225 3425
Wire Wire Line
	1225 3425 1225 3450
Connection ~ 1225 3450
Wire Wire Line
	1225 3450 1450 3450
Wire Wire Line
	4850 6925 4875 6925
Wire Wire Line
	4850 6725 4875 6725
Wire Wire Line
	4850 6525 4875 6525
Wire Wire Line
	4850 6325 4875 6325
Wire Wire Line
	4850 6125 4875 6125
Wire Wire Line
	4850 5725 4875 5725
Wire Wire Line
	4850 5525 4875 5525
Wire Wire Line
	4850 5325 4875 5325
Wire Wire Line
	4850 5125 4875 5125
Wire Wire Line
	5375 5125 5425 5125
Wire Wire Line
	5425 5125 5425 5100
Wire Wire Line
	5425 5100 4875 5100
Wire Wire Line
	4875 5100 4875 5125
Wire Wire Line
	5375 5325 5425 5325
Wire Wire Line
	5425 5325 5425 5300
Wire Wire Line
	5425 5300 4875 5300
Wire Wire Line
	4875 5300 4875 5325
Wire Wire Line
	5375 5525 5425 5525
Wire Wire Line
	5425 5525 5425 5500
Wire Wire Line
	5425 5500 4875 5500
Wire Wire Line
	4875 5500 4875 5525
Wire Wire Line
	5375 5725 5425 5725
Wire Wire Line
	5425 5725 5425 5700
Wire Wire Line
	5425 5700 4875 5700
Wire Wire Line
	4875 5700 4875 5725
Wire Wire Line
	5375 5925 5425 5925
Wire Wire Line
	5425 5925 5425 5900
Wire Wire Line
	5425 5900 4900 5900
Wire Wire Line
	4900 5900 4900 5925
Wire Wire Line
	5375 6525 5425 6525
Wire Wire Line
	5425 6525 5425 6500
Wire Wire Line
	5425 6500 4875 6500
Wire Wire Line
	4875 6500 4875 6525
Wire Wire Line
	5375 6325 5425 6325
Wire Wire Line
	5425 6325 5425 6300
Wire Wire Line
	5425 6300 4875 6300
Wire Wire Line
	4875 6300 4875 6325
Wire Wire Line
	5375 6125 5425 6125
Wire Wire Line
	5425 6125 5425 6100
Wire Wire Line
	5425 6100 4875 6100
Wire Wire Line
	4875 6100 4875 6125
Wire Wire Line
	5375 6725 5425 6725
Wire Wire Line
	5425 6725 5425 6700
Wire Wire Line
	5425 6700 4875 6700
Wire Wire Line
	4875 6700 4875 6725
Wire Wire Line
	5375 6925 5425 6925
Wire Wire Line
	5425 6925 5425 6900
Wire Wire Line
	5425 6900 4875 6900
Wire Wire Line
	4875 6900 4875 6925
Wire Wire Line
	950  3150 1050 3150
Wire Wire Line
	825  3250 1050 3250
Wire Wire Line
	675  3350 1050 3350
Wire Wire Line
	1950 3350 2100 3350
Wire Wire Line
	2100 3350 2100 3325
Wire Wire Line
	2100 3325 1225 3325
Wire Wire Line
	1225 3325 1225 3350
Connection ~ 1225 3350
Wire Wire Line
	1225 3350 1450 3350
Wire Wire Line
	1950 3250 2100 3250
Wire Wire Line
	2100 3250 2100 3225
Wire Wire Line
	2100 3225 1225 3225
Wire Wire Line
	1225 3225 1225 3250
Connection ~ 1225 3250
Wire Wire Line
	1225 3250 1450 3250
Wire Wire Line
	1950 3150 2100 3150
Wire Wire Line
	2100 3150 2100 3125
Wire Wire Line
	2100 3125 1225 3125
Wire Wire Line
	1225 3125 1225 3150
Connection ~ 1225 3150
Wire Wire Line
	1225 3150 1450 3150
Wire Wire Line
	950  7050 1250 7050
Wire Wire Line
	1950 7050 2025 7050
Wire Wire Line
	2025 7050 2025 7025
Wire Wire Line
	2025 7025 1250 7025
Wire Wire Line
	1250 7025 1250 7050
Connection ~ 1250 7050
Wire Wire Line
	1250 7050 1450 7050
Wire Wire Line
	5375 6625 6650 6625
Connection ~ 4875 5525
Connection ~ 4875 5325
Connection ~ 4875 6925
Connection ~ 4875 6725
Connection ~ 4875 6525
Connection ~ 4875 6325
Connection ~ 4875 6125
Wire Wire Line
	4900 5925 4875 5925
Wire Wire Line
	4850 5925 4875 5925
Connection ~ 4875 5925
Connection ~ 4875 5725
Connection ~ 4875 5125
Text Label 4575 6825 2    50   ~ 0
PC0
Wire Wire Line
	4575 6825 4875 6825
Text Label 4575 7025 2    50   ~ 0
PF2
Wire Wire Line
	4575 7025 4875 7025
Text Label 5675 7025 0    50   ~ 0
PF2
Wire Wire Line
	5675 7025 5375 7025
Text Label 5675 6825 0    50   ~ 0
PC0
Wire Wire Line
	5675 6825 5375 6825
$Comp
L power:GND #PWR0188
U 1 1 5F7AAB40
P 625 4950
F 0 "#PWR0188" H 625 4700 50  0001 C CNN
F 1 "GND" H 630 4777 50  0000 C CNN
F 2 "" H 625 4950 50  0001 C CNN
F 3 "" H 625 4950 50  0001 C CNN
	1    625  4950
	1    0    0    -1  
$EndComp
Wire Wire Line
	625  4950 1450 4950
$Comp
L power:GND #PWR0189
U 1 1 5F8CCD81
P 625 4250
F 0 "#PWR0189" H 625 4000 50  0001 C CNN
F 1 "GND" H 630 4077 50  0000 C CNN
F 2 "" H 625 4250 50  0001 C CNN
F 3 "" H 625 4250 50  0001 C CNN
	1    625  4250
	1    0    0    -1  
$EndComp
$Comp
L power:GND #PWR0190
U 1 1 5F8CD108
P 625 5650
F 0 "#PWR0190" H 625 5400 50  0001 C CNN
F 1 "GND" H 630 5477 50  0000 C CNN
F 2 "" H 625 5650 50  0001 C CNN
F 3 "" H 625 5650 50  0001 C CNN
	1    625  5650
	1    0    0    -1  
$EndComp
$Comp
L power:GND #PWR0191
U 1 1 5F8CD5AA
P 625 6350
F 0 "#PWR0191" H 625 6100 50  0001 C CNN
F 1 "GND" H 630 6177 50  0000 C CNN
F 2 "" H 625 6350 50  0001 C CNN
F 3 "" H 625 6350 50  0001 C CNN
	1    625  6350
	1    0    0    -1  
$EndComp
Wire Wire Line
	625  6350 1300 6350
Wire Wire Line
	625  5650 1225 5650
Wire Wire Line
	625  4250 1275 4250
Wire Wire Line
	1950 4250 2125 4250
Wire Wire Line
	2125 4250 2125 4225
Wire Wire Line
	2125 4225 1275 4225
Wire Wire Line
	1275 4225 1275 4250
Connection ~ 1275 4250
Wire Wire Line
	1275 4250 1450 4250
Wire Wire Line
	1950 5650 2275 5650
Wire Wire Line
	2275 5650 2275 5625
Wire Wire Line
	2275 5625 1225 5625
Wire Wire Line
	1225 5625 1225 5650
Connection ~ 1225 5650
Wire Wire Line
	1225 5650 1450 5650
Wire Wire Line
	1950 6350 2300 6350
Wire Wire Line
	2300 6350 2300 6325
Wire Wire Line
	2300 6325 1300 6325
Wire Wire Line
	1300 6325 1300 6350
Connection ~ 1300 6350
Wire Wire Line
	1300 6350 1450 6350
Wire Wire Line
	900  975  900  875 
Connection ~ 900  975 
Wire Wire Line
	900  1075 900  1175
Connection ~ 900  1175
Text Notes 8475 3400 0    50   ~ 0
Wurth  691256610003
$Comp
L Device:C_Small C57
U 1 1 5E58EC7E
P 5475 3275
F 0 "C57" H 5567 3321 50  0000 L CNN
F 1 "1u" H 5567 3230 50  0000 L CNN
F 2 "Capacitor_SMD:C_0603_1608Metric" H 5475 3275 50  0001 C CNN
F 3 "~" H 5475 3275 50  0001 C CNN
	1    5475 3275
	1    0    0    -1  
$EndComp
Wire Wire Line
	5475 3375 5475 3500
Wire Wire Line
	5475 3500 5025 3500
$Comp
L Device:C_Small C58
U 1 1 5E61BD4B
P 5725 3275
F 0 "C58" H 5817 3321 50  0000 L CNN
F 1 "100n" H 5817 3230 50  0000 L CNN
F 2 "Capacitor_SMD:C_0603_1608Metric" H 5725 3275 50  0001 C CNN
F 3 "~" H 5725 3275 50  0001 C CNN
	1    5725 3275
	1    0    0    -1  
$EndComp
Connection ~ 5725 3175
Wire Wire Line
	5725 3175 5475 3175
Wire Wire Line
	5725 3375 5725 3500
Wire Wire Line
	5725 3500 5475 3500
Connection ~ 5475 3500
$Comp
L copperforge:LMP860X U1
U 1 1 5E6CF393
P 2900 2475
F 0 "U1" H 2950 2890 50  0000 C CNN
F 1 "LMP860X" H 2950 2799 50  0000 C CNN
F 2 "Package_SO:SOIC-8_3.9x4.9mm_P1.27mm" H 3150 2775 50  0001 C CNN
F 3 "" H 3150 2775 50  0001 C CNN
	1    2900 2475
	1    0    0    -1  
$EndComp
$Comp
L power:GND #PWR0111
U 1 1 5E75D1FA
P 3600 2825
F 0 "#PWR0111" H 3600 2575 50  0001 C CNN
F 1 "GND" H 3605 2652 50  0000 C CNN
F 2 "" H 3600 2825 50  0001 C CNN
F 3 "" H 3600 2825 50  0001 C CNN
	1    3600 2825
	1    0    0    -1  
$EndComp
Wire Wire Line
	2425 2525 2550 2525
Wire Wire Line
	2425 1675 2425 2525
Wire Wire Line
	2625 1875 2500 1875
Wire Wire Line
	2500 1875 2500 2675
Wire Wire Line
	2500 2675 2550 2675
$Comp
L Reference_Voltage:REF3033 U10
U 1 1 5E9F3C6D
P 5075 4400
F 0 "U10" H 5125 4725 50  0000 R CNN
F 1 "REF3012" H 5325 4650 50  0000 R CIN
F 2 "Package_TO_SOT_SMD:SOT-23" H 5075 3950 50  0001 C CIN
F 3 "http://www.ti.com/lit/ds/symlink/ref3033.pdf" H 5175 4050 50  0001 C CIN
	1    5075 4400
	1    0    0    -1  
$EndComp
$Comp
L power:+5V #PWR0112
U 1 1 5E9F3C73
P 4975 4025
F 0 "#PWR0112" H 4975 3875 50  0001 C CNN
F 1 "+5V" H 4990 4198 50  0000 C CNN
F 2 "" H 4975 4025 50  0001 C CNN
F 3 "" H 4975 4025 50  0001 C CNN
	1    4975 4025
	1    0    0    -1  
$EndComp
$Comp
L power:GND #PWR0114
U 1 1 5E9F3C79
P 4975 4750
F 0 "#PWR0114" H 4975 4500 50  0001 C CNN
F 1 "GND" H 4980 4577 50  0000 C CNN
F 2 "" H 4975 4750 50  0001 C CNN
F 3 "" H 4975 4750 50  0001 C CNN
	1    4975 4750
	1    0    0    -1  
$EndComp
Wire Wire Line
	4975 4750 4975 4725
Wire Wire Line
	4975 4100 4975 4025
Wire Wire Line
	4550 4450 4550 4725
Wire Wire Line
	4550 4725 4975 4725
Connection ~ 4975 4725
Wire Wire Line
	4975 4725 4975 4700
Text Label 5725 4400 0    50   ~ 0
REF_1v25
Wire Wire Line
	5725 4400 5675 4400
$Comp
L Device:C_Small C61
U 1 1 5E9F3C87
P 4550 4350
F 0 "C61" H 4642 4396 50  0000 L CNN
F 1 "470n" H 4642 4305 50  0000 L CNN
F 2 "Capacitor_SMD:C_0603_1608Metric" H 4550 4350 50  0001 C CNN
F 3 "~" H 4550 4350 50  0001 C CNN
	1    4550 4350
	1    0    0    -1  
$EndComp
Wire Wire Line
	4550 4250 4550 4025
Wire Wire Line
	4550 4025 4975 4025
Connection ~ 4975 4025
$Comp
L Connector:TestPoint_Alt TP54
U 1 1 5E9F3C90
P 5425 4400
AR Path="/5E9F3C90" Ref="TP54"  Part="1" 
AR Path="/5E3FC3A3/5E9F3C90" Ref="TP?"  Part="1" 
F 0 "TP54" H 5483 4472 50  0001 L CNN
F 1 "TestPoint_Alt" H 5483 4427 50  0001 L CNN
F 2 "TestPoint:TestPoint_Pad_1.0x1.0mm" H 5625 4400 50  0001 C CNN
F 3 "~" H 5625 4400 50  0001 C CNN
	1    5425 4400
	1    0    0    -1  
$EndComp
Connection ~ 5425 4400
Wire Wire Line
	5425 4400 5375 4400
$Comp
L Device:C_Small C62
U 1 1 5E9F3C98
P 5425 4500
F 0 "C62" H 5517 4546 50  0000 L CNN
F 1 "1u" H 5517 4455 50  0000 L CNN
F 2 "Capacitor_SMD:C_0603_1608Metric" H 5425 4500 50  0001 C CNN
F 3 "~" H 5425 4500 50  0001 C CNN
	1    5425 4500
	1    0    0    -1  
$EndComp
Wire Wire Line
	5425 4600 5425 4725
Wire Wire Line
	5425 4725 4975 4725
$Comp
L Device:C_Small C63
U 1 1 5E9F3CA0
P 5675 4500
F 0 "C63" H 5767 4546 50  0000 L CNN
F 1 "100n" H 5767 4455 50  0000 L CNN
F 2 "Capacitor_SMD:C_0603_1608Metric" H 5675 4500 50  0001 C CNN
F 3 "~" H 5675 4500 50  0001 C CNN
	1    5675 4500
	1    0    0    -1  
$EndComp
Connection ~ 5675 4400
Wire Wire Line
	5675 4400 5425 4400
Wire Wire Line
	5675 4600 5675 4725
Wire Wire Line
	5675 4725 5425 4725
Connection ~ 5425 4725
Text Label 4350 2425 0    50   ~ 0
REF_1v25
Wire Wire Line
	4350 2425 4175 2425
Wire Wire Line
	3575 2525 3450 2525
Text Label 3575 2525 0    50   ~ 0
VBUS_SENSE
$Comp
L Device:C_Small C60
U 1 1 5EB7C08A
P 4175 2525
F 0 "C60" V 3946 2525 50  0000 C CNN
F 1 "100n" V 4037 2525 50  0000 C CNN
F 2 "Capacitor_SMD:C_0603_1608Metric" H 4175 2525 50  0001 C CNN
F 3 "~" H 4175 2525 50  0001 C CNN
	1    4175 2525
	-1   0    0    1   
$EndComp
Connection ~ 4175 2425
Wire Wire Line
	4175 2425 3350 2425
$Comp
L power:GND #PWR0115
U 1 1 5EB7CBE6
P 4175 2625
F 0 "#PWR0115" H 4175 2375 50  0001 C CNN
F 1 "GND" H 4180 2452 50  0000 C CNN
F 2 "" H 4175 2625 50  0001 C CNN
F 3 "" H 4175 2625 50  0001 C CNN
	1    4175 2625
	1    0    0    -1  
$EndComp
$Comp
L Device:C_Small C2
U 1 1 5EBAEA18
P 3600 1950
F 0 "C2" H 3692 1996 50  0000 L CNN
F 1 "100n" H 3692 1905 50  0000 L CNN
F 2 "Capacitor_SMD:C_0603_1608Metric" H 3600 1950 50  0001 C CNN
F 3 "~" H 3600 1950 50  0001 C CNN
	1    3600 1950
	1    0    0    -1  
$EndComp
$Comp
L Device:C_Small C59
U 1 1 5EBAEC69
P 3925 1950
F 0 "C59" H 4017 1996 50  0000 L CNN
F 1 "10u" H 4017 1905 50  0000 L CNN
F 2 "Capacitor_SMD:C_0603_1608Metric" H 3925 1950 50  0001 C CNN
F 3 "~" H 3925 1950 50  0001 C CNN
	1    3925 1950
	1    0    0    -1  
$EndComp
Wire Wire Line
	3925 1850 3600 1850
Connection ~ 3600 1850
Wire Wire Line
	3600 1850 3425 1850
Wire Wire Line
	3425 1850 3425 2075
$Comp
L power:GND #PWR0192
U 1 1 5EC783E8
P 3775 2100
F 0 "#PWR0192" H 3775 1850 50  0001 C CNN
F 1 "GND" H 3780 1927 50  0000 C CNN
F 2 "" H 3775 2100 50  0001 C CNN
F 3 "" H 3775 2100 50  0001 C CNN
	1    3775 2100
	1    0    0    -1  
$EndComp
Wire Wire Line
	3600 2050 3600 2100
Wire Wire Line
	3600 2100 3775 2100
Wire Wire Line
	3925 2100 3925 2050
Connection ~ 3775 2100
Wire Wire Line
	3775 2100 3925 2100
$Comp
L Device:D_TVS D?
U 1 1 5EE7D715
P 8600 3900
AR Path="/5E3A749B/5EE7D715" Ref="D?"  Part="1" 
AR Path="/5EE7D715" Ref="D9"  Part="1" 
F 0 "D9" V 8554 3979 50  0001 L CNN
F 1 "SMAJ33CA" V 8645 3979 50  0001 L CNN
F 2 "Diode_SMD:D_SMA" H 8600 3900 50  0001 C CNN
F 3 "~" H 8600 3900 50  0001 C CNN
	1    8600 3900
	0    1    1    0   
$EndComp
$Comp
L Device:D_TVS D?
U 1 1 5EEB16CE
P 8725 3900
AR Path="/5E3A749B/5EEB16CE" Ref="D?"  Part="1" 
AR Path="/5EEB16CE" Ref="D11"  Part="1" 
F 0 "D11" V 8679 3979 50  0001 L CNN
F 1 "SMAJ33CA" V 8770 3979 50  0001 L CNN
F 2 "Diode_SMD:D_SMA" H 8725 3900 50  0001 C CNN
F 3 "~" H 8725 3900 50  0001 C CNN
	1    8725 3900
	0    1    1    0   
$EndComp
$Comp
L Device:D_TVS D?
U 1 1 5EEB1760
P 8850 3900
AR Path="/5E3A749B/5EEB1760" Ref="D?"  Part="1" 
AR Path="/5EEB1760" Ref="D12"  Part="1" 
F 0 "D12" V 8804 3979 50  0001 L CNN
F 1 "SMAJ33CA" V 8895 3979 50  0001 L CNN
F 2 "Diode_SMD:D_SMA" H 8850 3900 50  0001 C CNN
F 3 "~" H 8850 3900 50  0001 C CNN
	1    8850 3900
	0    1    1    0   
$EndComp
$Comp
L power:GND #PWR0194
U 1 1 5EEB2178
P 8725 4050
F 0 "#PWR0194" H 8725 3800 50  0001 C CNN
F 1 "GND" H 8730 3877 50  0000 C CNN
F 2 "" H 8725 4050 50  0001 C CNN
F 3 "" H 8725 4050 50  0001 C CNN
	1    8725 4050
	1    0    0    -1  
$EndComp
Wire Wire Line
	8600 4050 8725 4050
Connection ~ 8725 4050
Wire Wire Line
	8725 4050 8850 4050
Wire Wire Line
	8725 3750 8725 3600
Connection ~ 8725 3600
$Comp
L Connector:TestPoint TP55
U 1 1 5EFBE86F
P 3450 2525
F 0 "TP55" H 3508 2597 50  0001 L CNN
F 1 "TestPoint" H 3508 2552 50  0001 L CNN
F 2 "copperforge:TestPoint_Keystone_5019_Minature-3dmodel" H 3650 2525 50  0001 C CNN
F 3 "~" H 3650 2525 50  0001 C CNN
	1    3450 2525
	1    0    0    -1  
$EndComp
Connection ~ 3450 2525
Wire Wire Line
	3450 2525 3350 2525
$Comp
L copperforge:AP7366 U2
U 1 1 5F01EEEF
P 9350 925
F 0 "U2" H 9450 1190 50  0000 C CNN
F 1 "AP7366" H 9450 1099 50  0000 C CNN
F 2 "Package_SO:TSOP-5_1.65x3.05mm_P0.95mm" H 9350 1125 50  0001 C CNN
F 3 "" H 9350 1125 50  0001 C CNN
	1    9350 925 
	1    0    0    -1  
$EndComp
Wire Wire Line
	9850 925  9800 925 
Wire Wire Line
	9050 975  9050 925 
Wire Wire Line
	9050 925  9100 925 
Wire Wire Line
	9100 1075 9100 1125
Wire Wire Line
	9025 1125 9100 1125
Wire Wire Line
	9850 925  9850 975 
$Comp
L Device:C_Small C64
U 1 1 5F19804A
P 10175 1200
F 0 "C64" H 10267 1246 50  0000 L CNN
F 1 "10u" H 10267 1155 50  0000 L CNN
F 2 "Capacitor_SMD:C_0603_1608Metric" H 10175 1200 50  0001 C CNN
F 3 "~" H 10175 1200 50  0001 C CNN
	1    10175 1200
	1    0    0    -1  
$EndComp
Wire Wire Line
	10175 1300 10175 1425
Wire Wire Line
	10175 1425 9850 1425
Connection ~ 9850 1425
Wire Wire Line
	9850 975  10175 975 
Connection ~ 9850 975 
Wire Wire Line
	9850 975  9850 1100
Wire Wire Line
	10175 1100 10175 975 
Connection ~ 10175 975 
Wire Wire Line
	10175 975  10425 975 
Wire Wire Line
	3600 2825 3450 2825
$Comp
L Connector:TestPoint TP2
U 1 1 5E5493A8
P 3450 2825
F 0 "TP2" H 3508 2897 50  0001 L CNN
F 1 "TestPoint" H 3508 2852 50  0001 L CNN
F 2 "copperforge:TestPoint_Keystone_5019_Minature-3dmodel" H 3650 2825 50  0001 C CNN
F 3 "~" H 3650 2825 50  0001 C CNN
	1    3450 2825
	1    0    0    -1  
$EndComp
Connection ~ 3450 2825
Wire Wire Line
	3450 2825 3350 2825
$Comp
L Connector:TestPoint TP63
U 1 1 5E57F68A
P 10425 1525
AR Path="/5E57F68A" Ref="TP63"  Part="1" 
AR Path="/5E53FE8F/5E57F68A" Ref="TP?"  Part="1" 
F 0 "TP63" H 10483 1597 50  0001 L CNN
F 1 "TestPoint" H 10483 1552 50  0001 L CNN
F 2 "copperforge:TestPoint_Keystone_5019_Minature-3dmodel" H 10625 1525 50  0001 C CNN
F 3 "~" H 10625 1525 50  0001 C CNN
	1    10425 1525
	1    0    0    -1  
$EndComp
$Comp
L power:GND #PWR?
U 1 1 5E57F690
P 10425 1525
AR Path="/5E53FE8F/5E57F690" Ref="#PWR?"  Part="1" 
AR Path="/5E57F690" Ref="#PWR0195"  Part="1" 
F 0 "#PWR0195" H 10425 1275 50  0001 C CNN
F 1 "GND" H 10430 1352 50  0000 C CNN
F 2 "" H 10425 1525 50  0001 C CNN
F 3 "" H 10425 1525 50  0001 C CNN
	1    10425 1525
	1    0    0    -1  
$EndComp
$Comp
L Connector_Generic:Conn_02x20_Odd_Even J5
U 1 1 5E628C28
P 5075 6125
F 0 "J5" H 5125 7242 50  0000 C CNN
F 1 "Analog Header" H 5125 7151 50  0000 C CNN
F 2 "copperforge:M55-7104042R" H 5075 6125 50  0001 C CNN
F 3 "~" H 5075 6125 50  0001 C CNN
	1    5075 6125
	1    0    0    1   
$EndComp
$Sheet
S 7300 4875 1175 1375
U 5E3FC3A3
F0 "brake" 50
F1 "brake.sch" 50
F2 "AUX_A" O R 8475 5550 50 
F3 "VBUS" I L 7300 4925 50 
F4 "AUX_B" O R 8475 5650 50 
F5 "ISense_BrakeResis" O L 7300 6175 50 
F6 "3v3" I L 7300 5000 50 
F7 "ENABLE" I L 7300 5200 50 
F8 "RESET" I L 7300 5275 50 
F9 "HALFH_H" I L 7300 5950 50 
F10 "HALFH_L" I L 7300 6025 50 
F11 "CS" I L 7300 5575 50 
F12 "SCK" I L 7300 5650 50 
F13 "SDI" I L 7300 5725 50 
F14 "SDO" O L 7300 5800 50 
F15 "DIAG" O L 7300 5350 50 
F16 "5v0" I L 7300 5075 50 
F17 "OOS" O L 7300 5425 50 
F18 "SDA" B R 8475 4975 50 
F19 "SCL" I R 8475 5050 50 
$EndSheet
$Comp
L Connector_Generic:Conn_01x02 J3
U 1 1 5E51BADB
P 10150 5650
F 0 "J3" H 10230 5642 50  0000 L CNN
F 1 "Aux" H 10230 5551 50  0000 L CNN
F 2 "copperforge:EM2929_2pole" H 10150 5650 50  0001 C CNN
F 3 "~" H 10150 5650 50  0001 C CNN
	1    10150 5650
	1    0    0    1   
$EndComp
$Comp
L power:VBUS #PWR0117
U 1 1 5E5337E6
P 7175 4925
F 0 "#PWR0117" H 7175 4775 50  0001 C CNN
F 1 "VBUS" H 7190 5098 50  0000 C CNN
F 2 "" H 7175 4925 50  0001 C CNN
F 3 "" H 7175 4925 50  0001 C CNN
	1    7175 4925
	1    0    0    -1  
$EndComp
$Comp
L power:+3V3 #PWR0118
U 1 1 5E534557
P 7025 5000
F 0 "#PWR0118" H 7025 4850 50  0001 C CNN
F 1 "+3V3" H 7040 5173 50  0000 C CNN
F 2 "" H 7025 5000 50  0001 C CNN
F 3 "" H 7025 5000 50  0001 C CNN
	1    7025 5000
	1    0    0    -1  
$EndComp
$Comp
L power:+5V #PWR0119
U 1 1 5E535188
P 6875 5075
F 0 "#PWR0119" H 6875 4925 50  0001 C CNN
F 1 "+5V" H 6890 5248 50  0000 C CNN
F 2 "" H 6875 5075 50  0001 C CNN
F 3 "" H 6875 5075 50  0001 C CNN
	1    6875 5075
	1    0    0    -1  
$EndComp
Wire Wire Line
	7175 4925 7300 4925
Wire Wire Line
	7300 5000 7025 5000
Wire Wire Line
	6875 5075 7300 5075
Text Label 7200 5725 2    50   ~ 0
POWERSPI_MOSI
Text Label 7200 5800 2    50   ~ 0
POWERSPI_MISO
Text Label 7200 5650 2    50   ~ 0
POWERSPI_SCK
Wire Wire Line
	7200 5650 7300 5650
Wire Wire Line
	7200 5725 7300 5725
Wire Wire Line
	7300 5800 7200 5800
Text Label 7200 5575 2    50   ~ 0
HALFH_CS
Text Label 7200 6175 2    50   ~ 0
BRAKE_SENSE
Wire Wire Line
	7200 6175 7300 6175
Text Label 7200 6025 2    50   ~ 0
BRAKE_L
Text Label 7200 5950 2    50   ~ 0
BRAKE_H
Wire Wire Line
	7200 5950 7300 5950
Wire Wire Line
	7300 6025 7200 6025
Text Label 7225 5275 2    50   ~ 0
HALFH_RESET
Text Label 7225 5350 2    50   ~ 0
HALFH_DIAG
Text Label 7225 5200 2    50   ~ 0
HALFH_ENABLE
Wire Wire Line
	7225 5200 7300 5200
Wire Wire Line
	7300 5275 7225 5275
Wire Wire Line
	7225 5350 7300 5350
Wire Wire Line
	7300 5425 7100 5425
Text Label 7100 5425 2    50   ~ 0
HALFH_OOS
Text Label 8525 4975 0    50   ~ 0
SDA
Text Label 8525 5050 0    50   ~ 0
SCL
Wire Wire Line
	8525 5050 8475 5050
Wire Wire Line
	8475 4975 8525 4975
Wire Wire Line
	7200 5575 7300 5575
Text Notes 8625 5350 0    50   ~ 0
Wurth  691256610002
Wire Wire Line
	8475 5550 9375 5550
$Comp
L power:GND #PWR0193
U 1 1 5ED4A5B3
P 9100 6025
F 0 "#PWR0193" H 9100 5775 50  0001 C CNN
F 1 "GND" H 9105 5852 50  0000 C CNN
F 2 "" H 9100 6025 50  0001 C CNN
F 3 "" H 9100 6025 50  0001 C CNN
	1    9100 6025
	1    0    0    -1  
$EndComp
Wire Wire Line
	9100 6025 9375 6025
$Comp
L Device:D_TVS D?
U 1 1 5ED4A768
P 9375 5825
AR Path="/5E3A749B/5ED4A768" Ref="D?"  Part="1" 
AR Path="/5ED4A768" Ref="D13"  Part="1" 
F 0 "D13" V 9329 5904 50  0000 L CNN
F 1 "SMAJ33CA" V 9420 5904 50  0000 L CNN
F 2 "Diode_SMD:D_SMA" H 9375 5825 50  0001 C CNN
F 3 "~" H 9375 5825 50  0001 C CNN
	1    9375 5825
	0    1    1    0   
$EndComp
Wire Wire Line
	9375 5675 9375 5550
Connection ~ 9375 5550
Wire Wire Line
	9375 5550 9950 5550
Wire Wire Line
	9375 6025 9375 5975
Wire Wire Line
	8725 3600 8850 3600
Wire Wire Line
	8650 3700 8850 3700
Wire Wire Line
	8475 5650 9950 5650
Text Label 2200 3750 0    50   ~ 0
SD_CS
Wire Wire Line
	1950 3750 2200 3750
Text Label 1200 3950 2    50   ~ 0
SD_DETECT
Wire Wire Line
	1200 3950 1450 3950
$Sheet
S 9750 1975 825  1625
U 5E780C12
F0 "ADC" 50
F1 "ADC.sch" 50
F2 "REF_3V3" I L 9750 2100 50 
F3 "3v3" I L 9750 2175 50 
F4 "CS" I L 9750 2325 50 
F5 "MOSI" I L 9750 2400 50 
F6 "MISO" O L 9750 2475 50 
F7 "SCK" I L 9750 2550 50 
F8 "TH1_A" I R 10575 2050 50 
F9 "TH1_B" I R 10575 2125 50 
F10 "TH2_A" I R 10575 2250 50 
F11 "TH3_A" I R 10575 2450 50 
F12 "TH4_A" I R 10575 2650 50 
F13 "TH5_A" I R 10575 2850 50 
F14 "TH6_A" I R 10575 3050 50 
F15 "TH7_A" I R 10575 3250 50 
F16 "TH8_A" I R 10575 3450 50 
F17 "TH2_B" I R 10575 2325 50 
F18 "TH3_B" I R 10575 2525 50 
F19 "TH4_B" I R 10575 2725 50 
F20 "TH5_B" I R 10575 2925 50 
F21 "TH6_B" I R 10575 3125 50 
F22 "TH7_B" I R 10575 3325 50 
F23 "TH8_B" I R 10575 3525 50 
$EndSheet
Text Label 9700 2400 2    50   ~ 0
POWERSPI_MOSI
Text Label 9700 2475 2    50   ~ 0
POWERSPI_MISO
Text Label 9700 2550 2    50   ~ 0
POWERSPI_SCK
Text Label 9700 2325 2    50   ~ 0
ADC_CS
Wire Wire Line
	9700 2325 9750 2325
Wire Wire Line
	9750 2400 9700 2400
Wire Wire Line
	9700 2475 9750 2475
Wire Wire Line
	9750 2550 9700 2550
$Comp
L power:+3V3 #PWR0196
U 1 1 5EB51FE4
P 9250 2175
F 0 "#PWR0196" H 9250 2025 50  0001 C CNN
F 1 "+3V3" H 9265 2348 50  0000 C CNN
F 2 "" H 9250 2175 50  0001 C CNN
F 3 "" H 9250 2175 50  0001 C CNN
	1    9250 2175
	1    0    0    -1  
$EndComp
Wire Wire Line
	9250 2175 9750 2175
Text Label 9700 2100 2    50   ~ 0
REF_3v3
Wire Wire Line
	9700 2100 9750 2100
$Comp
L Connector_Generic:Conn_01x16 J6
U 1 1 5EBF9E2A
P 10850 2750
F 0 "J6" H 10930 2742 50  0000 L CNN
F 1 "THERM_HEADER" H 10930 2651 50  0000 L CNN
F 2 "Connector_PinHeader_2.54mm:PinHeader_2x08_P2.54mm_Vertical_SMD" H 10850 2750 50  0001 C CNN
F 3 "~" H 10850 2750 50  0001 C CNN
	1    10850 2750
	1    0    0    -1  
$EndComp
Wire Wire Line
	10650 2050 10575 2050
Wire Wire Line
	10575 2125 10600 2125
Wire Wire Line
	10600 2125 10600 2150
Wire Wire Line
	10600 2150 10650 2150
Wire Wire Line
	10575 2250 10650 2250
Wire Wire Line
	10575 2325 10600 2325
Wire Wire Line
	10600 2325 10600 2350
Wire Wire Line
	10600 2350 10650 2350
Wire Wire Line
	10575 2450 10650 2450
Wire Wire Line
	10575 2525 10600 2525
Wire Wire Line
	10600 2525 10600 2550
Wire Wire Line
	10600 2550 10650 2550
Wire Wire Line
	10575 2650 10650 2650
Wire Wire Line
	10575 2725 10600 2725
Wire Wire Line
	10600 2725 10600 2750
Wire Wire Line
	10600 2750 10650 2750
Wire Wire Line
	10575 2850 10650 2850
Wire Wire Line
	10575 2925 10600 2925
Wire Wire Line
	10600 2925 10600 2950
Wire Wire Line
	10600 2950 10650 2950
Wire Wire Line
	10575 3050 10650 3050
Wire Wire Line
	10575 3125 10600 3125
Wire Wire Line
	10600 3125 10600 3150
Wire Wire Line
	10600 3150 10650 3150
Wire Wire Line
	10575 3250 10650 3250
Wire Wire Line
	10575 3325 10600 3325
Wire Wire Line
	10600 3325 10600 3350
Wire Wire Line
	10600 3350 10650 3350
Wire Wire Line
	10575 3450 10650 3450
Wire Wire Line
	10575 3525 10600 3525
Wire Wire Line
	10600 3525 10600 3550
Wire Wire Line
	10600 3550 10650 3550
Text Label 1150 5350 2    50   ~ 0
ADC_CS
Wire Wire Line
	1150 5350 1450 5350
$Comp
L Connector_Generic:Conn_01x03 J4
U 1 1 5E896FC7
P 9050 3600
F 0 "J4" H 9130 3642 50  0000 L CNN
F 1 "Motor" H 9130 3551 50  0000 L CNN
F 2 "copperforge:EM2929_3pole" H 9050 3600 50  0001 C CNN
F 3 "~" H 9050 3600 50  0001 C CNN
	1    9050 3600
	1    0    0    -1  
$EndComp
Wire Wire Line
	8475 3525 8650 3525
Wire Wire Line
	8600 3675 8475 3675
Wire Wire Line
	8650 3675 8600 3675
Connection ~ 8600 3675
Wire Wire Line
	8600 3750 8600 3675
Wire Wire Line
	8850 3750 8825 3750
Wire Wire Line
	8825 3750 8825 3500
Wire Wire Line
	8650 3500 8825 3500
Connection ~ 8825 3500
Wire Wire Line
	8825 3500 8850 3500
Wire Wire Line
	1950 4650 3500 4650
Wire Wire Line
	1950 4750 3500 4750
$Comp
L copperforge:AP7366 U9
U 1 1 5F422D67
P 1325 2100
F 0 "U9" H 1425 2365 50  0000 C CNN
F 1 "AP7366" H 1425 2274 50  0000 C CNN
F 2 "Package_SO:TSOP-5_1.65x3.05mm_P0.95mm" H 1325 2300 50  0001 C CNN
F 3 "" H 1325 2300 50  0001 C CNN
	1    1325 2100
	1    0    0    -1  
$EndComp
$Comp
L Device:C_Small C53
U 1 1 5F42498E
P 700 2275
F 0 "C53" H 792 2321 50  0000 L CNN
F 1 "2.2u" H 792 2230 50  0000 L CNN
F 2 "Capacitor_SMD:C_0603_1608Metric" H 700 2275 50  0001 C CNN
F 3 "~" H 700 2275 50  0001 C CNN
	1    700  2275
	1    0    0    -1  
$EndComp
$Comp
L power:+5V #PWR0113
U 1 1 5F425A64
P 700 2100
F 0 "#PWR0113" H 700 1950 50  0001 C CNN
F 1 "+5V" H 715 2273 50  0000 C CNN
F 2 "" H 700 2100 50  0001 C CNN
F 3 "" H 700 2100 50  0001 C CNN
	1    700  2100
	1    0    0    -1  
$EndComp
Wire Wire Line
	700  2100 975  2100
Wire Wire Line
	1075 2250 975  2250
Wire Wire Line
	975  2250 975  2100
Connection ~ 975  2100
Wire Wire Line
	975  2100 1075 2100
Wire Wire Line
	700  2175 700  2100
Connection ~ 700  2100
$Comp
L power:GND #PWR0161
U 1 1 5F4DA303
P 1425 2600
F 0 "#PWR0161" H 1425 2350 50  0001 C CNN
F 1 "GND" H 1430 2427 50  0000 C CNN
F 2 "" H 1425 2600 50  0001 C CNN
F 3 "" H 1425 2600 50  0001 C CNN
	1    1425 2600
	1    0    0    -1  
$EndComp
Wire Wire Line
	1425 2600 700  2600
Wire Wire Line
	700  2600 700  2375
Connection ~ 1425 2600
$Comp
L Device:C_Small C54
U 1 1 5F5177F4
P 1775 2275
F 0 "C54" H 1867 2321 50  0000 L CNN
F 1 "2.2u" H 1867 2230 50  0000 L CNN
F 2 "Capacitor_SMD:C_0603_1608Metric" H 1775 2275 50  0001 C CNN
F 3 "~" H 1775 2275 50  0001 C CNN
	1    1775 2275
	1    0    0    -1  
$EndComp
Wire Wire Line
	1775 2175 1775 2100
Wire Wire Line
	1425 2600 1775 2600
Wire Wire Line
	1775 2600 1775 2375
Wire Wire Line
	1775 2100 3350 2100
Connection ~ 1775 2100
Connection ~ 3350 2100
Wire Wire Line
	3350 2100 3350 2325
Text Label 1950 2100 0    50   ~ 0
3v3_local
Text Notes 950  800  0    50   ~ 0
12-28v\n100A
$Comp
L Device:R_Small_US R34
U 1 1 5EEEA718
P 3600 6725
F 0 "R34" H 3668 6771 50  0000 L CNN
F 1 "1k" H 3668 6680 50  0000 L CNN
F 2 "Resistor_SMD:R_0603_1608Metric" H 3600 6725 50  0001 C CNN
F 3 "~" H 3600 6725 50  0001 C CNN
	1    3600 6725
	-1   0    0    -1  
$EndComp
$Comp
L Device:R_Small_US R11
U 1 1 5EEEA711
P 3600 6500
F 0 "R11" H 3668 6546 50  0000 L CNN
F 1 "18k" H 3668 6455 50  0000 L CNN
F 2 "Resistor_SMD:R_0603_1608Metric" H 3600 6500 50  0001 C CNN
F 3 "~" H 3600 6500 50  0001 C CNN
	1    3600 6500
	-1   0    0    -1  
$EndComp
$Comp
L Device:R_Small_US R48
U 1 1 5E6A7492
P 3600 6925
F 0 "R48" H 3668 6971 50  0000 L CNN
F 1 "1k" H 3668 6880 50  0000 L CNN
F 2 "Resistor_SMD:R_0603_1608Metric" H 3600 6925 50  0001 C CNN
F 3 "~" H 3600 6925 50  0001 C CNN
	1    3600 6925
	-1   0    0    -1  
$EndComp
Wire Wire Line
	1050 3250 1050 3150
Connection ~ 1050 3250
Wire Wire Line
	1050 3250 1225 3250
Connection ~ 1050 3150
Wire Wire Line
	1050 3150 1225 3150
Wire Wire Line
	1050 3250 1050 3350
Connection ~ 1050 3350
Wire Wire Line
	1050 3350 1225 3350
$EndSCHEMATC
