EESchema Schematic File Version 4
EELAYER 30 0
EELAYER END
$Descr A4 11693 8268
encoding utf-8
Sheet 3 6
Title ""
Date ""
Rev ""
Comp ""
Comment1 ""
Comment2 ""
Comment3 ""
Comment4 ""
$EndDescr
$Comp
L copperforge:DRV8323S U?
U 1 1 5E54A708
P 2475 1375
AR Path="/5E54A708" Ref="U?"  Part="1" 
AR Path="/5E53FE8F/5E54A708" Ref="U4"  Part="1" 
F 0 "U4" H 2453 1071 50  0000 L CNN
F 1 "DRV8323S" H 2453 980 50  0000 L CNN
F 2 "Package_DFN_QFN:QFN-40-1EP_6x6mm_P0.5mm_EP4.6x4.6mm_ThermalVias" H 2625 1425 50  0001 C CNN
F 3 "" H 2625 1425 50  0001 C CNN
	1    2475 1375
	1    0    0    -1  
$EndComp
$Comp
L copperforge:DRV8323S U?
U 2 1 5E54A70E
P 2475 3875
AR Path="/5E54A70E" Ref="U?"  Part="2" 
AR Path="/5E53FE8F/5E54A70E" Ref="U4"  Part="2" 
F 0 "U4" H 2553 3371 50  0000 L CNN
F 1 "DRV8323S" H 2553 3280 50  0000 L CNN
F 2 "Package_DFN_QFN:QFN-40-1EP_6x6mm_P0.5mm_EP4.6x4.6mm_ThermalVias" H 2625 3925 50  0001 C CNN
F 3 "" H 2625 3925 50  0001 C CNN
	2    2475 3875
	1    0    0    -1  
$EndComp
$Comp
L copperforge:DRV8323S U?
U 4 1 5E54A71A
P 2475 2900
AR Path="/5E54A71A" Ref="U?"  Part="4" 
AR Path="/5E53FE8F/5E54A71A" Ref="U4"  Part="4" 
F 0 "U4" H 2503 2596 50  0000 L CNN
F 1 "DRV8323S" H 2503 2505 50  0000 L CNN
F 2 "Package_DFN_QFN:QFN-40-1EP_6x6mm_P0.5mm_EP4.6x4.6mm_ThermalVias" H 2625 2950 50  0001 C CNN
F 3 "" H 2625 2950 50  0001 C CNN
	4    2475 2900
	1    0    0    -1  
$EndComp
$Comp
L copperforge:DRV8323S U?
U 7 1 5E54A720
P 8725 3125
AR Path="/5E54A720" Ref="U?"  Part="7" 
AR Path="/5E53FE8F/5E54A720" Ref="U4"  Part="7" 
F 0 "U4" H 8753 2921 50  0000 L CNN
F 1 "DRV8323S" H 8753 2830 50  0000 L CNN
F 2 "Package_DFN_QFN:QFN-40-1EP_6x6mm_P0.5mm_EP4.6x4.6mm_ThermalVias" H 8875 3175 50  0001 C CNN
F 3 "" H 8875 3175 50  0001 C CNN
	7    8725 3125
	-1   0    0    -1  
$EndComp
$Comp
L copperforge:DRV8323S U?
U 8 1 5E54A726
P 8725 3900
AR Path="/5E54A726" Ref="U?"  Part="8" 
AR Path="/5E53FE8F/5E54A726" Ref="U4"  Part="8" 
F 0 "U4" H 8703 3771 50  0000 L CNN
F 1 "DRV8323S" H 8703 3680 50  0000 L CNN
F 2 "Package_DFN_QFN:QFN-40-1EP_6x6mm_P0.5mm_EP4.6x4.6mm_ThermalVias" H 8875 3950 50  0001 C CNN
F 3 "" H 8875 3950 50  0001 C CNN
	8    8725 3900
	-1   0    0    -1  
$EndComp
$Comp
L copperforge:DRV8323S U?
U 9 1 5E54A72C
P 6250 3900
AR Path="/5E54A72C" Ref="U?"  Part="9" 
AR Path="/5E53FE8F/5E54A72C" Ref="U4"  Part="9" 
F 0 "U4" H 6017 4065 50  0000 C CNN
F 1 "DRV8323S" H 6017 3974 50  0000 C CNN
F 2 "Package_DFN_QFN:QFN-40-1EP_6x6mm_P0.5mm_EP4.6x4.6mm_ThermalVias" H 6400 3950 50  0001 C CNN
F 3 "" H 6400 3950 50  0001 C CNN
	9    6250 3900
	-1   0    0    -1  
$EndComp
$Comp
L copperforge:DRV8323S U?
U 5 1 5E54A73E
P 3775 2975
AR Path="/5E54A73E" Ref="U?"  Part="5" 
AR Path="/5E53FE8F/5E54A73E" Ref="U4"  Part="5" 
F 0 "U4" H 3617 3140 50  0000 C CNN
F 1 "DRV8323S" H 3617 3049 50  0000 C CNN
F 2 "Package_DFN_QFN:QFN-40-1EP_6x6mm_P0.5mm_EP4.6x4.6mm_ThermalVias" H 3925 3025 50  0001 C CNN
F 3 "" H 3925 3025 50  0001 C CNN
	5    3775 2975
	-1   0    0    -1  
$EndComp
$Comp
L Device:Q_NMOS_GSD Q?
U 1 1 5E54A744
P 4825 3150
AR Path="/5E54A744" Ref="Q?"  Part="1" 
AR Path="/5E53FE8F/5E54A744" Ref="Q1"  Part="1" 
F 0 "Q1" H 5029 3196 50  0000 L CNN
F 1 "NVMFSC0D9N04C" H 5029 3105 50  0000 L CNN
F 2 "copperforge:8-DFN_5.1x6.15" H 5025 3250 50  0001 C CNN
F 3 "~" H 4825 3150 50  0001 C CNN
	1    4825 3150
	1    0    0    -1  
$EndComp
Wire Wire Line
	4925 3350 4925 3375
Wire Wire Line
	4925 3375 5150 3375
Connection ~ 4925 3375
Wire Wire Line
	4925 3375 4925 3400
Text HLabel 5250 3375 2    50   Output ~ 0
MOT_A
Text HLabel 7225 2000 0    50   Input ~ 0
VBUS
Wire Wire Line
	4525 3225 4525 3150
Wire Wire Line
	4525 3150 4575 3150
Wire Wire Line
	4525 3525 4525 3600
Wire Wire Line
	4525 3600 4575 3600
$Comp
L Device:R_Small_US R12
U 1 1 5E553D87
P 4350 3225
F 0 "R12" V 4250 3325 50  0000 C CNN
F 1 "0" V 4250 3225 50  0000 C CNN
F 2 "Resistor_SMD:R_0603_1608Metric" H 4350 3225 50  0001 C CNN
F 3 "~" H 4350 3225 50  0001 C CNN
	1    4350 3225
	0    1    1    0   
$EndComp
$Comp
L Device:R_Small_US R13
U 1 1 5E5541B6
P 4350 3525
F 0 "R13" V 4450 3625 50  0000 C CNN
F 1 "0" V 4450 3525 50  0000 C CNN
F 2 "Resistor_SMD:R_0603_1608Metric" H 4350 3525 50  0001 C CNN
F 3 "~" H 4350 3525 50  0001 C CNN
	1    4350 3525
	0    1    1    0   
$EndComp
Wire Wire Line
	4450 3525 4525 3525
Wire Wire Line
	4250 3525 4200 3525
Wire Wire Line
	4175 3225 4225 3225
Wire Wire Line
	4525 3225 4450 3225
Wire Wire Line
	4175 3075 4275 3075
Wire Wire Line
	4275 3075 4275 2900
Wire Wire Line
	4275 2900 4925 2900
Wire Wire Line
	4925 2900 4925 2950
$Comp
L power:GND #PWR0127
U 1 1 5E55C7E4
P 4925 4325
F 0 "#PWR0127" H 4925 4075 50  0001 C CNN
F 1 "GND" H 4930 4152 50  0000 C CNN
F 2 "" H 4925 4325 50  0001 C CNN
F 3 "" H 4925 4325 50  0001 C CNN
	1    4925 4325
	1    0    0    -1  
$EndComp
Text Notes 4975 4325 0    50   ~ 0
CSS4J-4026R-L500F
$Comp
L Device:R_Shunt_US R16
U 1 1 5E566EA1
P 4925 4075
F 0 "R16" H 4837 4121 50  0000 R CNN
F 1 "500u" H 4837 4030 50  0000 R CNN
F 2 "copperforge:CSS4J-4026" V 4855 4075 50  0001 C CNN
F 3 "~" H 4925 4075 50  0001 C CNN
	1    4925 4075
	-1   0    0    -1  
$EndComp
Wire Wire Line
	4925 3875 4925 3800
Wire Wire Line
	4925 4325 4925 4275
$Comp
L Device:Q_NMOS_GSD Q?
U 1 1 5E57E3FB
P 7300 3150
AR Path="/5E57E3FB" Ref="Q?"  Part="1" 
AR Path="/5E53FE8F/5E57E3FB" Ref="Q3"  Part="1" 
F 0 "Q3" H 7504 3196 50  0000 L CNN
F 1 "NVMFSC0D9N04C" H 7504 3105 50  0000 L CNN
F 2 "copperforge:8-DFN_5.1x6.15" H 7500 3250 50  0001 C CNN
F 3 "~" H 7300 3150 50  0001 C CNN
	1    7300 3150
	1    0    0    -1  
$EndComp
$Comp
L Device:Q_NMOS_GSD Q?
U 1 1 5E57E401
P 7300 3600
AR Path="/5E57E401" Ref="Q?"  Part="1" 
AR Path="/5E53FE8F/5E57E401" Ref="Q4"  Part="1" 
F 0 "Q4" H 7504 3646 50  0000 L CNN
F 1 "NVMFSC0D9N04C" H 7504 3555 50  0000 L CNN
F 2 "copperforge:8-DFN_5.1x6.15" H 7500 3700 50  0001 C CNN
F 3 "~" H 7300 3600 50  0001 C CNN
	1    7300 3600
	1    0    0    -1  
$EndComp
Wire Wire Line
	7400 3350 7400 3375
Wire Wire Line
	7400 3375 7625 3375
Connection ~ 7400 3375
Wire Wire Line
	7400 3375 7400 3400
Text HLabel 7725 3375 2    50   Output ~ 0
MOT_B
Wire Wire Line
	7000 3225 7000 3150
Wire Wire Line
	7000 3150 7050 3150
Wire Wire Line
	7000 3525 7000 3600
Wire Wire Line
	7000 3600 7050 3600
$Comp
L Device:R_Small_US R17
U 1 1 5E57E410
P 6825 3225
F 0 "R17" V 6725 3325 50  0000 C CNN
F 1 "0" V 6725 3225 50  0000 C CNN
F 2 "Resistor_SMD:R_0603_1608Metric" H 6825 3225 50  0001 C CNN
F 3 "~" H 6825 3225 50  0001 C CNN
	1    6825 3225
	0    1    1    0   
$EndComp
$Comp
L Device:R_Small_US R18
U 1 1 5E57E416
P 6825 3525
F 0 "R18" V 6925 3625 50  0000 C CNN
F 1 "0" V 6925 3525 50  0000 C CNN
F 2 "Resistor_SMD:R_0603_1608Metric" H 6825 3525 50  0001 C CNN
F 3 "~" H 6825 3525 50  0001 C CNN
	1    6825 3525
	0    1    1    0   
$EndComp
Wire Wire Line
	6925 3525 7000 3525
Wire Wire Line
	7000 3225 6925 3225
$Comp
L power:GND #PWR0128
U 1 1 5E57E425
P 7400 4325
F 0 "#PWR0128" H 7400 4075 50  0001 C CNN
F 1 "GND" H 7405 4152 50  0000 C CNN
F 2 "" H 7400 4325 50  0001 C CNN
F 3 "" H 7400 4325 50  0001 C CNN
	1    7400 4325
	1    0    0    -1  
$EndComp
Text Notes 7450 4325 0    50   ~ 0
CSS4J-4026R-L500F
$Comp
L Device:R_Shunt_US R21
U 1 1 5E57E438
P 7400 4075
F 0 "R21" H 7312 4121 50  0000 R CNN
F 1 "500u" H 7312 4030 50  0000 R CNN
F 2 "copperforge:CSS4J-4026" V 7330 4075 50  0001 C CNN
F 3 "~" H 7400 4075 50  0001 C CNN
	1    7400 4075
	-1   0    0    -1  
$EndComp
Wire Wire Line
	7400 3875 7400 3800
Wire Wire Line
	7400 4325 7400 4275
$Comp
L Device:Q_NMOS_GSD Q?
U 1 1 5E596D8A
P 9775 3150
AR Path="/5E596D8A" Ref="Q?"  Part="1" 
AR Path="/5E53FE8F/5E596D8A" Ref="Q5"  Part="1" 
F 0 "Q5" H 9979 3196 50  0000 L CNN
F 1 "NVMFSC0D9N04C" H 9979 3105 50  0000 L CNN
F 2 "copperforge:8-DFN_5.1x6.15" H 9975 3250 50  0001 C CNN
F 3 "~" H 9775 3150 50  0001 C CNN
	1    9775 3150
	1    0    0    -1  
$EndComp
$Comp
L Device:Q_NMOS_GSD Q?
U 1 1 5E596D90
P 9775 3600
AR Path="/5E596D90" Ref="Q?"  Part="1" 
AR Path="/5E53FE8F/5E596D90" Ref="Q6"  Part="1" 
F 0 "Q6" H 9979 3646 50  0000 L CNN
F 1 "NVMFSC0D9N04C" H 9979 3555 50  0000 L CNN
F 2 "copperforge:8-DFN_5.1x6.15" H 9975 3700 50  0001 C CNN
F 3 "~" H 9775 3600 50  0001 C CNN
	1    9775 3600
	1    0    0    -1  
$EndComp
Wire Wire Line
	9875 3350 9875 3375
Wire Wire Line
	9875 3375 10100 3375
Connection ~ 9875 3375
Wire Wire Line
	9875 3375 9875 3400
Text HLabel 10200 3375 2    50   Output ~ 0
MOT_C
Wire Wire Line
	9475 3225 9475 3150
Wire Wire Line
	9475 3150 9525 3150
Wire Wire Line
	9475 3525 9475 3600
Wire Wire Line
	9475 3600 9525 3600
$Comp
L Device:R_Small_US R22
U 1 1 5E596D9F
P 9300 3225
F 0 "R22" V 9200 3325 50  0000 C CNN
F 1 "0" V 9200 3225 50  0000 C CNN
F 2 "Resistor_SMD:R_0603_1608Metric" H 9300 3225 50  0001 C CNN
F 3 "~" H 9300 3225 50  0001 C CNN
	1    9300 3225
	0    1    1    0   
$EndComp
$Comp
L Device:R_Small_US R23
U 1 1 5E596DA5
P 9300 3525
F 0 "R23" V 9400 3625 50  0000 C CNN
F 1 "0" V 9400 3525 50  0000 C CNN
F 2 "Resistor_SMD:R_0603_1608Metric" H 9300 3525 50  0001 C CNN
F 3 "~" H 9300 3525 50  0001 C CNN
	1    9300 3525
	0    1    1    0   
$EndComp
Wire Wire Line
	9400 3525 9475 3525
Wire Wire Line
	9200 3525 9175 3525
Wire Wire Line
	9125 3225 9175 3225
Wire Wire Line
	9475 3225 9400 3225
Wire Wire Line
	9125 3375 9875 3375
$Comp
L power:GND #PWR0129
U 1 1 5E596DB0
P 9875 4325
F 0 "#PWR0129" H 9875 4075 50  0001 C CNN
F 1 "GND" H 9880 4152 50  0000 C CNN
F 2 "" H 9875 4325 50  0001 C CNN
F 3 "" H 9875 4325 50  0001 C CNN
	1    9875 4325
	1    0    0    -1  
$EndComp
Text Notes 9925 4325 0    50   ~ 0
CSS4J-4026R-L500F
$Comp
L Device:R_Shunt_US R26
U 1 1 5E596DC3
P 9875 4075
F 0 "R26" H 9787 4121 50  0000 R CNN
F 1 "500u" H 9787 4030 50  0000 R CNN
F 2 "copperforge:CSS4J-4026" V 9805 4075 50  0001 C CNN
F 3 "~" H 9875 4075 50  0001 C CNN
	1    9875 4075
	-1   0    0    -1  
$EndComp
Wire Wire Line
	9875 3875 9875 3800
Wire Wire Line
	9875 4325 9875 4275
$Comp
L Device:C_Small C36
U 1 1 5E5D5FE3
P 5100 2725
F 0 "C36" H 5192 2771 50  0000 L CNN
F 1 "10u" H 5192 2680 50  0000 L CNN
F 2 "Capacitor_SMD:C_1206_3216Metric" H 5100 2725 50  0001 C CNN
F 3 "~" H 5100 2725 50  0001 C CNN
	1    5100 2725
	1    0    0    -1  
$EndComp
$Comp
L power:GND #PWR0130
U 1 1 5E5D7DA1
P 5100 2825
F 0 "#PWR0130" H 5100 2575 50  0001 C CNN
F 1 "GND" H 5105 2652 50  0000 C CNN
F 2 "" H 5100 2825 50  0001 C CNN
F 3 "" H 5100 2825 50  0001 C CNN
	1    5100 2825
	1    0    0    -1  
$EndComp
Wire Wire Line
	4925 2900 4925 2825
Wire Wire Line
	4925 2625 5100 2625
Connection ~ 4925 2900
$Comp
L Device:C_Small C38
U 1 1 5E5E3ED1
P 7575 2725
F 0 "C38" H 7667 2771 50  0000 L CNN
F 1 "10u" H 7667 2680 50  0000 L CNN
F 2 "Capacitor_SMD:C_1206_3216Metric" H 7575 2725 50  0001 C CNN
F 3 "~" H 7575 2725 50  0001 C CNN
	1    7575 2725
	1    0    0    -1  
$EndComp
$Comp
L power:GND #PWR0131
U 1 1 5E5E3EDB
P 7575 2825
F 0 "#PWR0131" H 7575 2575 50  0001 C CNN
F 1 "GND" H 7580 2652 50  0000 C CNN
F 2 "" H 7575 2825 50  0001 C CNN
F 3 "" H 7575 2825 50  0001 C CNN
	1    7575 2825
	1    0    0    -1  
$EndComp
Wire Wire Line
	7400 2625 7575 2625
Wire Wire Line
	7400 2625 7400 2825
$Comp
L Device:C_Small C41
U 1 1 5E5E8889
P 10050 2725
F 0 "C41" H 10142 2771 50  0000 L CNN
F 1 "10u" H 10142 2680 50  0000 L CNN
F 2 "Capacitor_SMD:C_1206_3216Metric" H 10050 2725 50  0001 C CNN
F 3 "~" H 10050 2725 50  0001 C CNN
	1    10050 2725
	1    0    0    -1  
$EndComp
$Comp
L power:GND #PWR0132
U 1 1 5E5E8893
P 10050 2825
F 0 "#PWR0132" H 10050 2575 50  0001 C CNN
F 1 "GND" H 10055 2652 50  0000 C CNN
F 2 "" H 10050 2825 50  0001 C CNN
F 3 "" H 10050 2825 50  0001 C CNN
	1    10050 2825
	1    0    0    -1  
$EndComp
Wire Wire Line
	9875 2625 10050 2625
Wire Wire Line
	9875 2625 9875 2800
$Comp
L Device:CP1_Small C39
U 1 1 5E5F2587
P 7650 2100
F 0 "C39" H 7741 2146 50  0000 L CNN
F 1 "100u" H 7741 2055 50  0000 L CNN
F 2 "Capacitor_SMD:CP_Elec_10x12.6" H 7650 2100 50  0001 C CNN
F 3 "~" H 7650 2100 50  0001 C CNN
	1    7650 2100
	1    0    0    -1  
$EndComp
Wire Wire Line
	4925 2625 4925 2425
Connection ~ 4925 2625
Wire Wire Line
	7400 2625 7400 2425
Wire Wire Line
	4925 2425 7400 2425
Connection ~ 7400 2625
Wire Wire Line
	9875 2625 9875 2425
Wire Wire Line
	9875 2425 7400 2425
Connection ~ 9875 2625
Connection ~ 7400 2425
Wire Wire Line
	7225 2000 7400 2000
Wire Wire Line
	7650 2000 7400 2000
Connection ~ 7400 2000
Wire Wire Line
	7400 2000 7400 2425
$Comp
L power:GND #PWR0133
U 1 1 5E606077
P 7650 2200
F 0 "#PWR0133" H 7650 1950 50  0001 C CNN
F 1 "GND" H 7655 2027 50  0000 C CNN
F 2 "" H 7650 2200 50  0001 C CNN
F 3 "" H 7650 2200 50  0001 C CNN
	1    7650 2200
	1    0    0    -1  
$EndComp
Text Notes 7950 2175 0    50   ~ 0
A767MU107M1JLAE028\n28 mOhm
Text HLabel 1075 1475 0    50   Input ~ 0
VBUS
Wire Wire Line
	1075 1475 1175 1475
$Comp
L Device:C_Small C34
U 1 1 5E615219
P 1825 1575
F 0 "C34" H 1917 1621 50  0000 L CNN
F 1 "1u" H 1917 1530 50  0000 L CNN
F 2 "Capacitor_SMD:C_0603_1608Metric" H 1825 1575 50  0001 C CNN
F 3 "~" H 1825 1575 50  0001 C CNN
	1    1825 1575
	1    0    0    -1  
$EndComp
Connection ~ 1825 1475
Wire Wire Line
	1825 1475 2075 1475
Wire Wire Line
	1825 1675 2075 1675
Wire Wire Line
	2075 1675 2075 1625
$Comp
L Device:C_Small C31
U 1 1 5E619B5A
P 1475 1575
F 0 "C31" H 1567 1621 50  0000 L CNN
F 1 "100n" H 1567 1530 50  0000 L CNN
F 2 "Capacitor_SMD:C_0603_1608Metric" H 1475 1575 50  0001 C CNN
F 3 "~" H 1475 1575 50  0001 C CNN
	1    1475 1575
	1    0    0    -1  
$EndComp
Connection ~ 1475 1475
Wire Wire Line
	1475 1475 1825 1475
$Comp
L Device:C_Small C29
U 1 1 5E619BDA
P 1175 1575
F 0 "C29" H 1267 1621 50  0000 L CNN
F 1 "10u" H 1267 1530 50  0000 L CNN
F 2 "Capacitor_SMD:C_1206_3216Metric" H 1175 1575 50  0001 C CNN
F 3 "~" H 1175 1575 50  0001 C CNN
	1    1175 1575
	1    0    0    -1  
$EndComp
Connection ~ 1175 1475
Wire Wire Line
	1175 1475 1475 1475
$Comp
L power:GND #PWR0134
U 1 1 5E620A13
P 1325 1725
F 0 "#PWR0134" H 1325 1475 50  0001 C CNN
F 1 "GND" H 1330 1552 50  0000 C CNN
F 2 "" H 1325 1725 50  0001 C CNN
F 3 "" H 1325 1725 50  0001 C CNN
	1    1325 1725
	1    0    0    -1  
$EndComp
Wire Wire Line
	1175 1675 1175 1725
Wire Wire Line
	1175 1725 1325 1725
Wire Wire Line
	1475 1725 1475 1675
Connection ~ 1325 1725
Wire Wire Line
	1325 1725 1475 1725
$Comp
L Device:C_Small C33
U 1 1 5E6245CD
P 1775 1900
F 0 "C33" H 1867 1946 50  0000 L CNN
F 1 "47n" H 1867 1855 50  0000 L CNN
F 2 "Capacitor_SMD:C_0603_1608Metric" H 1775 1900 50  0001 C CNN
F 3 "~" H 1775 1900 50  0001 C CNN
	1    1775 1900
	1    0    0    -1  
$EndComp
Wire Wire Line
	1775 1800 2025 1800
Wire Wire Line
	2025 1800 2025 1825
Wire Wire Line
	2025 1825 2075 1825
Wire Wire Line
	1775 2000 2025 2000
Wire Wire Line
	2025 2000 2025 1975
Wire Wire Line
	2025 1975 2075 1975
Text HLabel 1425 3575 0    50   Input ~ 0
EN
$Comp
L copperforge:DRV8323S U?
U 11 1 5E6419E3
P 2475 2150
AR Path="/5E6419E3" Ref="U?"  Part="4" 
AR Path="/5E53FE8F/5E6419E3" Ref="U4"  Part="11" 
F 0 "U4" H 2503 1921 50  0000 L CNN
F 1 "DRV8323S" H 2503 1830 50  0000 L CNN
F 2 "Package_DFN_QFN:QFN-40-1EP_6x6mm_P0.5mm_EP4.6x4.6mm_ThermalVias" H 2625 2200 50  0001 C CNN
F 3 "" H 2625 2200 50  0001 C CNN
	11   2475 2150
	1    0    0    -1  
$EndComp
$Comp
L Device:C_Small C32
U 1 1 5E64FA69
P 1700 2400
F 0 "C32" H 1792 2446 50  0000 L CNN
F 1 "1u" H 1792 2355 50  0000 L CNN
F 2 "Capacitor_SMD:C_0603_1608Metric" H 1700 2400 50  0001 C CNN
F 3 "~" H 1700 2400 50  0001 C CNN
	1    1700 2400
	1    0    0    -1  
$EndComp
Wire Wire Line
	1700 2300 2075 2300
Wire Wire Line
	2075 2450 1925 2450
Wire Wire Line
	1925 2450 1925 2500
Wire Wire Line
	1925 2500 1700 2500
Wire Wire Line
	2075 2550 1925 2550
Wire Wire Line
	1925 2550 1925 2500
Connection ~ 1925 2500
Connection ~ 1700 2500
$Comp
L power:GND #PWR0135
U 1 1 5E65B95B
P 1700 2500
F 0 "#PWR0135" H 1700 2250 50  0001 C CNN
F 1 "GND" H 1705 2327 50  0000 C CNN
F 2 "" H 1700 2500 50  0001 C CNN
F 3 "" H 1700 2500 50  0001 C CNN
	1    1700 2500
	1    0    0    -1  
$EndComp
$Comp
L copperforge:DRV8323S U?
U 3 1 5E54A714
P 2475 5150
AR Path="/5E54A714" Ref="U?"  Part="3" 
AR Path="/5E53FE8F/5E54A714" Ref="U4"  Part="3" 
F 0 "U4" H 2503 4946 50  0000 L CNN
F 1 "DRV8323S" H 2503 4855 50  0000 L CNN
F 2 "Package_DFN_QFN:QFN-40-1EP_6x6mm_P0.5mm_EP4.6x4.6mm_ThermalVias" H 2625 5200 50  0001 C CNN
F 3 "" H 2625 5200 50  0001 C CNN
	3    2475 5150
	1    0    0    -1  
$EndComp
$Comp
L Device:C_Small C30
U 1 1 5E67D9C6
P 1225 3100
F 0 "C30" H 1133 3146 50  0000 R CNN
F 1 "100n" H 1133 3055 50  0000 R CNN
F 2 "Capacitor_SMD:C_0603_1608Metric" H 1225 3100 50  0001 C CNN
F 3 "~" H 1225 3100 50  0001 C CNN
	1    1225 3100
	-1   0    0    -1  
$EndComp
Text HLabel 1050 3000 0    50   Input ~ 0
VREF
Wire Wire Line
	1225 3000 1050 3000
Connection ~ 1225 3000
$Comp
L power:GND #PWR0136
U 1 1 5E68E050
P 1225 3200
F 0 "#PWR0136" H 1225 2950 50  0001 C CNN
F 1 "GND" H 1230 3027 50  0000 C CNN
F 2 "" H 1225 3200 50  0001 C CNN
F 3 "" H 1225 3200 50  0001 C CNN
	1    1225 3200
	-1   0    0    -1  
$EndComp
Text HLabel 1825 3150 0    50   Output ~ 0
I_C
Text HLabel 1825 3250 0    50   Output ~ 0
I_B
Text HLabel 1825 3350 0    50   Output ~ 0
I_A
Text Label 1575 2300 2    50   ~ 0
LDO_INTERNAL
Wire Wire Line
	1575 2300 1700 2300
Connection ~ 1700 2300
Text HLabel 1750 4275 0    50   Input ~ 0
INHA
Text HLabel 1750 4375 0    50   Input ~ 0
INLA
Text HLabel 1750 4625 0    50   Input ~ 0
INLB
Text HLabel 1750 4525 0    50   Input ~ 0
INHB
Text HLabel 1750 4775 0    50   Input ~ 0
INHC
Text HLabel 1750 4875 0    50   Input ~ 0
INLC
Text HLabel 2000 5250 0    50   Input ~ 0
SDI
Text HLabel 1500 5350 0    50   Output ~ 0
SDO
Text HLabel 2000 5450 0    50   Input ~ 0
SCLK
Text HLabel 950  5550 0    50   Input ~ 0
nSCS
Text Notes 1100 2200 0    50   ~ 0
3v3, 30mA
Wire Wire Line
	9475 4175 9275 4175
Wire Wire Line
	9175 3975 9275 3975
$Comp
L Device:C_Small C40
U 1 1 5E596DB7
P 9275 4075
F 0 "C40" H 9367 4121 50  0000 L CNN
F 1 "DNP" H 9367 4030 50  0000 L CNN
F 2 "Capacitor_SMD:C_0603_1608Metric" H 9275 4075 50  0001 C CNN
F 3 "~" H 9275 4075 50  0001 C CNN
	1    9275 4075
	1    0    0    -1  
$EndComp
$Comp
L Device:R_Small_US R24
U 1 1 5E7A998D
P 9575 3975
F 0 "R24" V 9475 4075 50  0000 C CNN
F 1 "0" V 9475 3925 50  0000 C CNN
F 2 "Resistor_SMD:R_0603_1608Metric" H 9575 3975 50  0001 C CNN
F 3 "~" H 9575 3975 50  0001 C CNN
	1    9575 3975
	0    1    1    0   
$EndComp
$Comp
L Device:R_Small_US R25
U 1 1 5E7A9D58
P 9575 4175
F 0 "R25" V 9675 4275 50  0000 C CNN
F 1 "0" V 9675 4125 50  0000 C CNN
F 2 "Resistor_SMD:R_0603_1608Metric" H 9575 4175 50  0001 C CNN
F 3 "~" H 9575 4175 50  0001 C CNN
	1    9575 4175
	0    1    1    0   
$EndComp
Connection ~ 9275 3975
Wire Wire Line
	9275 3975 9475 3975
Connection ~ 9275 4175
Wire Wire Line
	9275 4175 9175 4175
Wire Wire Line
	9175 3975 9175 4000
Wire Wire Line
	9175 4000 9125 4000
Wire Wire Line
	9175 4175 9175 4150
Wire Wire Line
	9175 4150 9125 4150
$Comp
L Device:Q_NMOS_GSD Q?
U 1 1 5E54A74A
P 4825 3600
AR Path="/5E54A74A" Ref="Q?"  Part="1" 
AR Path="/5E53FE8F/5E54A74A" Ref="Q2"  Part="1" 
F 0 "Q2" H 5029 3646 50  0000 L CNN
F 1 "NVMFSC0D9N04C" H 5029 3555 50  0000 L CNN
F 2 "copperforge:8-DFN_5.1x6.15" H 5025 3700 50  0001 C CNN
F 3 "~" H 4825 3600 50  0001 C CNN
	1    4825 3600
	1    0    0    -1  
$EndComp
$Comp
L copperforge:DRV8323S U?
U 10 1 5E54A732
P 3775 3900
AR Path="/5E54A732" Ref="U?"  Part="10" 
AR Path="/5E53FE8F/5E54A732" Ref="U4"  Part="10" 
F 0 "U4" H 3542 4065 50  0000 C CNN
F 1 "DRV8323S" H 3542 3974 50  0000 C CNN
F 2 "Package_DFN_QFN:QFN-40-1EP_6x6mm_P0.5mm_EP4.6x4.6mm_ThermalVias" H 3925 3950 50  0001 C CNN
F 3 "" H 3925 3950 50  0001 C CNN
	10   3775 3900
	-1   0    0    -1  
$EndComp
Wire Wire Line
	9675 4175 9725 4175
Wire Wire Line
	9675 3975 9725 3975
Wire Wire Line
	7000 4175 6800 4175
Wire Wire Line
	6700 3975 6800 3975
$Comp
L Device:C_Small C37
U 1 1 5E7DE1CE
P 6800 4075
F 0 "C37" H 6892 4121 50  0000 L CNN
F 1 "DNP" H 6892 4030 50  0000 L CNN
F 2 "Capacitor_SMD:C_0603_1608Metric" H 6800 4075 50  0001 C CNN
F 3 "~" H 6800 4075 50  0001 C CNN
	1    6800 4075
	1    0    0    -1  
$EndComp
$Comp
L Device:R_Small_US R19
U 1 1 5E7DE1D8
P 7100 3975
F 0 "R19" V 7000 4075 50  0000 C CNN
F 1 "0" V 7000 3925 50  0000 C CNN
F 2 "Resistor_SMD:R_0603_1608Metric" H 7100 3975 50  0001 C CNN
F 3 "~" H 7100 3975 50  0001 C CNN
	1    7100 3975
	0    1    1    0   
$EndComp
$Comp
L Device:R_Small_US R20
U 1 1 5E7DE1E2
P 7100 4175
F 0 "R20" V 7200 4275 50  0000 C CNN
F 1 "0" V 7200 4125 50  0000 C CNN
F 2 "Resistor_SMD:R_0603_1608Metric" H 7100 4175 50  0001 C CNN
F 3 "~" H 7100 4175 50  0001 C CNN
	1    7100 4175
	0    1    1    0   
$EndComp
Connection ~ 6800 3975
Wire Wire Line
	6800 3975 7000 3975
Connection ~ 6800 4175
Wire Wire Line
	6800 4175 6700 4175
Wire Wire Line
	6700 3975 6700 4000
Wire Wire Line
	6700 4000 6650 4000
Wire Wire Line
	6700 4175 6700 4150
Wire Wire Line
	6700 4150 6650 4150
Wire Wire Line
	7200 4175 7250 4175
Wire Wire Line
	7200 3975 7250 3975
Wire Wire Line
	4525 4175 4325 4175
Wire Wire Line
	4225 3975 4325 3975
$Comp
L Device:C_Small C35
U 1 1 5E7E4442
P 4325 4075
F 0 "C35" H 4417 4121 50  0000 L CNN
F 1 "DNP" H 4417 4030 50  0000 L CNN
F 2 "Capacitor_SMD:C_0603_1608Metric" H 4325 4075 50  0001 C CNN
F 3 "~" H 4325 4075 50  0001 C CNN
	1    4325 4075
	1    0    0    -1  
$EndComp
$Comp
L Device:R_Small_US R14
U 1 1 5E7E444C
P 4625 3975
F 0 "R14" V 4525 4075 50  0000 C CNN
F 1 "0" V 4525 3925 50  0000 C CNN
F 2 "Resistor_SMD:R_0603_1608Metric" H 4625 3975 50  0001 C CNN
F 3 "~" H 4625 3975 50  0001 C CNN
	1    4625 3975
	0    1    1    0   
$EndComp
$Comp
L Device:R_Small_US R15
U 1 1 5E7E4456
P 4625 4175
F 0 "R15" V 4725 4275 50  0000 C CNN
F 1 "0" V 4725 4125 50  0000 C CNN
F 2 "Resistor_SMD:R_0603_1608Metric" H 4625 4175 50  0001 C CNN
F 3 "~" H 4625 4175 50  0001 C CNN
	1    4625 4175
	0    1    1    0   
$EndComp
Connection ~ 4325 3975
Wire Wire Line
	4325 3975 4525 3975
Connection ~ 4325 4175
Wire Wire Line
	4325 4175 4225 4175
Wire Wire Line
	4225 3975 4225 4000
Wire Wire Line
	4225 4000 4175 4000
Wire Wire Line
	4225 4175 4225 4150
Wire Wire Line
	4225 4150 4175 4150
Wire Wire Line
	4725 4175 4775 4175
Wire Wire Line
	4725 3975 4775 3975
$Comp
L Connector:TestPoint TP?
U 1 1 5E8AD6F3
P 4575 3150
AR Path="/5E8AD6F3" Ref="TP?"  Part="1" 
AR Path="/5E53FE8F/5E8AD6F3" Ref="TP19"  Part="1" 
F 0 "TP19" H 4633 3222 50  0001 L CNN
F 1 "TestPoint" H 4633 3177 50  0001 L CNN
F 2 "copperforge:TestPoint_Keystone_5019_Minature-3dmodel" H 4775 3150 50  0001 C CNN
F 3 "~" H 4775 3150 50  0001 C CNN
	1    4575 3150
	1    0    0    -1  
$EndComp
Connection ~ 4575 3150
Wire Wire Line
	4575 3150 4625 3150
$Comp
L Connector:TestPoint TP?
U 1 1 5E8B33CE
P 4575 3600
AR Path="/5E8B33CE" Ref="TP?"  Part="1" 
AR Path="/5E53FE8F/5E8B33CE" Ref="TP20"  Part="1" 
F 0 "TP20" H 4633 3672 50  0001 L CNN
F 1 "TestPoint" H 4633 3627 50  0001 L CNN
F 2 "copperforge:TestPoint_Keystone_5019_Minature-3dmodel" H 4775 3600 50  0001 C CNN
F 3 "~" H 4775 3600 50  0001 C CNN
	1    4575 3600
	1    0    0    -1  
$EndComp
Connection ~ 4575 3600
Wire Wire Line
	4575 3600 4625 3600
Wire Wire Line
	4175 3375 4925 3375
$Comp
L Connector:TestPoint TP?
U 1 1 5E8B385B
P 7050 3150
AR Path="/5E8B385B" Ref="TP?"  Part="1" 
AR Path="/5E53FE8F/5E8B385B" Ref="TP24"  Part="1" 
F 0 "TP24" H 7108 3222 50  0001 L CNN
F 1 "TestPoint" H 7108 3177 50  0001 L CNN
F 2 "copperforge:TestPoint_Keystone_5019_Minature-3dmodel" H 7250 3150 50  0001 C CNN
F 3 "~" H 7250 3150 50  0001 C CNN
	1    7050 3150
	1    0    0    -1  
$EndComp
Connection ~ 7050 3150
Wire Wire Line
	7050 3150 7100 3150
$Comp
L Connector:TestPoint TP?
U 1 1 5E8B470D
P 7050 3600
AR Path="/5E8B470D" Ref="TP?"  Part="1" 
AR Path="/5E53FE8F/5E8B470D" Ref="TP25"  Part="1" 
F 0 "TP25" H 7108 3672 50  0001 L CNN
F 1 "TestPoint" H 7108 3627 50  0001 L CNN
F 2 "copperforge:TestPoint_Keystone_5019_Minature-3dmodel" H 7250 3600 50  0001 C CNN
F 3 "~" H 7250 3600 50  0001 C CNN
	1    7050 3600
	1    0    0    -1  
$EndComp
Connection ~ 7050 3600
Wire Wire Line
	7050 3600 7100 3600
$Comp
L Connector:TestPoint TP?
U 1 1 5E8B482A
P 9525 3600
AR Path="/5E8B482A" Ref="TP?"  Part="1" 
AR Path="/5E53FE8F/5E8B482A" Ref="TP30"  Part="1" 
F 0 "TP30" H 9583 3672 50  0001 L CNN
F 1 "TestPoint" H 9583 3627 50  0001 L CNN
F 2 "copperforge:TestPoint_Keystone_5019_Minature-3dmodel" H 9725 3600 50  0001 C CNN
F 3 "~" H 9725 3600 50  0001 C CNN
	1    9525 3600
	1    0    0    -1  
$EndComp
Connection ~ 9525 3600
Wire Wire Line
	9525 3600 9575 3600
$Comp
L Connector:TestPoint TP?
U 1 1 5E8B4D5E
P 9525 3150
AR Path="/5E8B4D5E" Ref="TP?"  Part="1" 
AR Path="/5E53FE8F/5E8B4D5E" Ref="TP29"  Part="1" 
F 0 "TP29" H 9583 3222 50  0001 L CNN
F 1 "TestPoint" H 9583 3177 50  0001 L CNN
F 2 "copperforge:TestPoint_Keystone_5019_Minature-3dmodel" H 9725 3150 50  0001 C CNN
F 3 "~" H 9725 3150 50  0001 C CNN
	1    9525 3150
	1    0    0    -1  
$EndComp
Connection ~ 9525 3150
Wire Wire Line
	9525 3150 9575 3150
Wire Wire Line
	1225 3000 1475 3000
Wire Wire Line
	1825 3250 1975 3250
Wire Wire Line
	1825 3150 1925 3150
Wire Wire Line
	1825 3350 2025 3350
$Comp
L Connector:TestPoint TP?
U 1 1 5E8DD905
P 2025 3350
AR Path="/5E8DD905" Ref="TP?"  Part="1" 
AR Path="/5E53FE8F/5E8DD905" Ref="TP13"  Part="1" 
F 0 "TP13" H 2083 3422 50  0001 L CNN
F 1 "TestPoint" H 2083 3377 50  0001 L CNN
F 2 "copperforge:TestPoint_Keystone_5019_Minature-3dmodel" H 2225 3350 50  0001 C CNN
F 3 "~" H 2225 3350 50  0001 C CNN
	1    2025 3350
	1    0    0    -1  
$EndComp
Connection ~ 2025 3350
Wire Wire Line
	2025 3350 2075 3350
$Comp
L Connector:TestPoint TP?
U 1 1 5E8DDEEF
P 1975 3250
AR Path="/5E8DDEEF" Ref="TP?"  Part="1" 
AR Path="/5E53FE8F/5E8DDEEF" Ref="TP9"  Part="1" 
F 0 "TP9" H 2033 3322 50  0001 L CNN
F 1 "TestPoint" H 2033 3277 50  0001 L CNN
F 2 "copperforge:TestPoint_Keystone_5019_Minature-3dmodel" H 2175 3250 50  0001 C CNN
F 3 "~" H 2175 3250 50  0001 C CNN
	1    1975 3250
	1    0    0    -1  
$EndComp
Connection ~ 1975 3250
Wire Wire Line
	1975 3250 2075 3250
$Comp
L Connector:TestPoint TP?
U 1 1 5E8DE18C
P 1925 3150
AR Path="/5E8DE18C" Ref="TP?"  Part="1" 
AR Path="/5E53FE8F/5E8DE18C" Ref="TP8"  Part="1" 
F 0 "TP8" H 1983 3222 50  0001 L CNN
F 1 "TestPoint" H 1983 3177 50  0001 L CNN
F 2 "copperforge:TestPoint_Keystone_5019_Minature-3dmodel" H 2125 3150 50  0001 C CNN
F 3 "~" H 2125 3150 50  0001 C CNN
	1    1925 3150
	1    0    0    -1  
$EndComp
Connection ~ 1925 3150
Wire Wire Line
	1925 3150 2075 3150
Wire Wire Line
	2000 3975 2050 3975
Wire Wire Line
	2000 5450 2025 5450
$Comp
L Connector:TestPoint TP?
U 1 1 5E8FD469
P 7625 3375
AR Path="/5E8FD469" Ref="TP?"  Part="1" 
AR Path="/5E53FE8F/5E8FD469" Ref="TP26"  Part="1" 
F 0 "TP26" H 7683 3447 50  0001 L CNN
F 1 "TestPoint" H 7683 3402 50  0001 L CNN
F 2 "copperforge:TestPoint_Keystone_5019_Minature-3dmodel" H 7825 3375 50  0001 C CNN
F 3 "~" H 7825 3375 50  0001 C CNN
	1    7625 3375
	1    0    0    -1  
$EndComp
Connection ~ 7625 3375
Wire Wire Line
	7625 3375 7725 3375
$Comp
L Connector:TestPoint TP?
U 1 1 5E8FD7F8
P 10100 3375
AR Path="/5E8FD7F8" Ref="TP?"  Part="1" 
AR Path="/5E53FE8F/5E8FD7F8" Ref="TP31"  Part="1" 
F 0 "TP31" H 10158 3447 50  0001 L CNN
F 1 "TestPoint" H 10158 3402 50  0001 L CNN
F 2 "copperforge:TestPoint_Keystone_5019_Minature-3dmodel" H 10300 3375 50  0001 C CNN
F 3 "~" H 10300 3375 50  0001 C CNN
	1    10100 3375
	1    0    0    -1  
$EndComp
Connection ~ 10100 3375
Wire Wire Line
	10100 3375 10200 3375
$Comp
L Connector:TestPoint TP?
U 1 1 5E8FDC86
P 5150 3375
AR Path="/5E8FDC86" Ref="TP?"  Part="1" 
AR Path="/5E53FE8F/5E8FDC86" Ref="TP21"  Part="1" 
F 0 "TP21" H 5208 3447 50  0001 L CNN
F 1 "TestPoint" H 5208 3402 50  0001 L CNN
F 2 "copperforge:TestPoint_Keystone_5019_Minature-3dmodel" H 5350 3375 50  0001 C CNN
F 3 "~" H 5350 3375 50  0001 C CNN
	1    5150 3375
	1    0    0    -1  
$EndComp
Connection ~ 5150 3375
Wire Wire Line
	5150 3375 5250 3375
Wire Wire Line
	1075 3825 1100 3825
Text HLabel 850  4125 0    50   Output ~ 0
nFAULT
Text Label 1075 3825 2    50   ~ 0
LDO_INTERNAL
Wire Wire Line
	2050 4775 1750 4775
Wire Wire Line
	2075 4775 2050 4775
Connection ~ 2050 4775
$Comp
L Connector:TestPoint TP?
U 1 1 5E92E5F2
P 2050 4775
AR Path="/5E92E5F2" Ref="TP?"  Part="1" 
AR Path="/5E53FE8F/5E92E5F2" Ref="TP16"  Part="1" 
F 0 "TP16" H 2108 4847 50  0001 L CNN
F 1 "TestPoint" H 2108 4802 50  0001 L CNN
F 2 "copperforge:TestPoint_Keystone_5019_Minature-3dmodel" H 2250 4775 50  0001 C CNN
F 3 "~" H 2250 4775 50  0001 C CNN
	1    2050 4775
	1    0    0    -1  
$EndComp
Wire Wire Line
	2050 4525 1750 4525
Wire Wire Line
	2075 4525 2050 4525
Connection ~ 2050 4525
$Comp
L Connector:TestPoint TP?
U 1 1 5E92D35D
P 2050 4525
AR Path="/5E92D35D" Ref="TP?"  Part="1" 
AR Path="/5E53FE8F/5E92D35D" Ref="TP15"  Part="1" 
F 0 "TP15" H 2108 4597 50  0001 L CNN
F 1 "TestPoint" H 2108 4552 50  0001 L CNN
F 2 "copperforge:TestPoint_Keystone_5019_Minature-3dmodel" H 2250 4525 50  0001 C CNN
F 3 "~" H 2250 4525 50  0001 C CNN
	1    2050 4525
	1    0    0    -1  
$EndComp
Wire Wire Line
	2050 4275 1750 4275
Wire Wire Line
	2075 4275 2050 4275
Connection ~ 2050 4275
$Comp
L Connector:TestPoint TP?
U 1 1 5E8FFA28
P 2050 4275
AR Path="/5E8FFA28" Ref="TP?"  Part="1" 
AR Path="/5E53FE8F/5E8FFA28" Ref="TP14"  Part="1" 
F 0 "TP14" H 2108 4347 50  0001 L CNN
F 1 "TestPoint" H 2108 4302 50  0001 L CNN
F 2 "copperforge:TestPoint_Keystone_5019_Minature-3dmodel" H 2250 4275 50  0001 C CNN
F 3 "~" H 2250 4275 50  0001 C CNN
	1    2050 4275
	1    0    0    -1  
$EndComp
$Comp
L Connector:TestPoint TP?
U 1 1 5ED5427E
P 4925 2825
AR Path="/5ED5427E" Ref="TP?"  Part="1" 
AR Path="/5E53FE8F/5ED5427E" Ref="TP41"  Part="1" 
F 0 "TP41" H 4983 2897 50  0001 L CNN
F 1 "TestPoint" H 4983 2852 50  0001 L CNN
F 2 "copperforge:TestPoint_Keystone_5019_Minature-3dmodel" H 5125 2825 50  0001 C CNN
F 3 "~" H 5125 2825 50  0001 C CNN
	1    4925 2825
	0    -1   -1   0   
$EndComp
Connection ~ 4925 2825
Wire Wire Line
	4925 2825 4925 2625
$Comp
L Connector:TestPoint TP?
U 1 1 5ED55F9D
P 7400 2825
AR Path="/5ED55F9D" Ref="TP?"  Part="1" 
AR Path="/5E53FE8F/5ED55F9D" Ref="TP42"  Part="1" 
F 0 "TP42" H 7458 2897 50  0001 L CNN
F 1 "TestPoint" H 7458 2852 50  0001 L CNN
F 2 "copperforge:TestPoint_Keystone_5019_Minature-3dmodel" H 7600 2825 50  0001 C CNN
F 3 "~" H 7600 2825 50  0001 C CNN
	1    7400 2825
	0    -1   -1   0   
$EndComp
Connection ~ 7400 2825
Wire Wire Line
	7400 2825 7400 2950
$Comp
L Connector:TestPoint TP?
U 1 1 5ED562A3
P 9875 2800
AR Path="/5ED562A3" Ref="TP?"  Part="1" 
AR Path="/5E53FE8F/5ED562A3" Ref="TP43"  Part="1" 
F 0 "TP43" H 9933 2872 50  0001 L CNN
F 1 "TestPoint" H 9933 2827 50  0001 L CNN
F 2 "copperforge:TestPoint_Keystone_5019_Minature-3dmodel" H 10075 2800 50  0001 C CNN
F 3 "~" H 10075 2800 50  0001 C CNN
	1    9875 2800
	0    -1   -1   0   
$EndComp
Connection ~ 9875 2800
Wire Wire Line
	9875 2800 9875 2950
Text Label 1050 5250 2    50   ~ 0
LDO_INTERNAL
$Comp
L Device:R_Pack04_Split R9
U 3 1 5EB91800
P 1600 5200
F 0 "R9" H 1670 5246 50  0000 L CNN
F 1 "1k" H 1670 5155 50  0000 L CNN
F 2 "Resistor_SMD:R_Array_Convex_4x0603" V 1530 5200 50  0001 C CNN
F 3 "~" H 1600 5200 50  0001 C CNN
	3    1600 5200
	1    0    0    -1  
$EndComp
$Comp
L Device:R_Pack04_Split R9
U 1 1 5EB91EED
P 1650 3725
F 0 "R9" H 1720 3771 50  0000 L CNN
F 1 "1k" H 1720 3680 50  0000 L CNN
F 2 "Resistor_SMD:R_Array_Convex_4x0603" V 1580 3725 50  0001 C CNN
F 3 "~" H 1650 3725 50  0001 C CNN
	1    1650 3725
	-1   0    0    1   
$EndComp
$Comp
L Device:R_Pack04_Split R9
U 4 1 5EB9BE9F
P 1100 3975
F 0 "R9" H 1170 4021 50  0000 L CNN
F 1 "1k" H 1170 3930 50  0000 L CNN
F 2 "Resistor_SMD:R_Array_Convex_4x0603" V 1030 3975 50  0001 C CNN
F 3 "~" H 1100 3975 50  0001 C CNN
	4    1100 3975
	1    0    0    -1  
$EndComp
$Comp
L Device:R_Pack04_Split R9
U 2 1 5EB9C110
P 1075 5400
F 0 "R9" H 1145 5446 50  0000 L CNN
F 1 "1k" H 1145 5355 50  0000 L CNN
F 2 "Resistor_SMD:R_Array_Convex_4x0603" V 1005 5400 50  0001 C CNN
F 3 "~" H 1075 5400 50  0001 C CNN
	2    1075 5400
	1    0    0    -1  
$EndComp
Wire Wire Line
	1500 5350 1600 5350
Connection ~ 1600 5350
Wire Wire Line
	1575 5050 1600 5050
Text Label 1575 5050 2    50   ~ 0
LDO_INTERNAL
Wire Wire Line
	1075 5250 1050 5250
$Comp
L power:GND #PWR0173
U 1 1 5EC3DB7E
P 1650 3875
F 0 "#PWR0173" H 1650 3625 50  0001 C CNN
F 1 "GND" H 1655 3702 50  0000 C CNN
F 2 "" H 1650 3875 50  0001 C CNN
F 3 "" H 1650 3875 50  0001 C CNN
	1    1650 3875
	1    0    0    -1  
$EndComp
Wire Wire Line
	2000 3575 2000 3975
Text Label 2000 3500 2    50   ~ 0
LDO_INTERNAL
Wire Wire Line
	2000 3500 2075 3500
$Comp
L Connector:TestPoint_Alt TP?
U 1 1 5EF9B55E
P 1700 2300
AR Path="/5EF9B55E" Ref="TP?"  Part="1" 
AR Path="/5E3FC3A3/5EF9B55E" Ref="TP?"  Part="1" 
AR Path="/5E53FE8F/5EF9B55E" Ref="TP18"  Part="1" 
F 0 "TP18" H 1758 2372 50  0001 L CNN
F 1 "TestPoint_Alt" H 1758 2327 50  0001 L CNN
F 2 "TestPoint:TestPoint_Pad_1.0x1.0mm" H 1900 2300 50  0001 C CNN
F 3 "~" H 1900 2300 50  0001 C CNN
	1    1700 2300
	1    0    0    -1  
$EndComp
$Comp
L Connector:TestPoint_Alt TP?
U 1 1 5EFA6315
P 1775 1800
AR Path="/5EFA6315" Ref="TP?"  Part="1" 
AR Path="/5E3FC3A3/5EFA6315" Ref="TP?"  Part="1" 
AR Path="/5E53FE8F/5EFA6315" Ref="TP22"  Part="1" 
F 0 "TP22" H 1833 1872 50  0001 L CNN
F 1 "TestPoint_Alt" H 1833 1827 50  0001 L CNN
F 2 "TestPoint:TestPoint_Pad_1.0x1.0mm" H 1975 1800 50  0001 C CNN
F 3 "~" H 1975 1800 50  0001 C CNN
	1    1775 1800
	1    0    0    -1  
$EndComp
$Comp
L Connector:TestPoint_Alt TP?
U 1 1 5EFB0FFD
P 1825 4125
AR Path="/5EFB0FFD" Ref="TP?"  Part="1" 
AR Path="/5E3FC3A3/5EFB0FFD" Ref="TP?"  Part="1" 
AR Path="/5E53FE8F/5EFB0FFD" Ref="TP23"  Part="1" 
F 0 "TP23" H 1883 4197 50  0001 L CNN
F 1 "TestPoint_Alt" H 1883 4152 50  0001 L CNN
F 2 "TestPoint:TestPoint_Pad_1.0x1.0mm" H 2025 4125 50  0001 C CNN
F 3 "~" H 2025 4125 50  0001 C CNN
	1    1825 4125
	1    0    0    -1  
$EndComp
$Comp
L Connector:TestPoint_Alt TP?
U 1 1 5EFBBDFA
P 2050 3975
AR Path="/5EFBBDFA" Ref="TP?"  Part="1" 
AR Path="/5E3FC3A3/5EFBBDFA" Ref="TP?"  Part="1" 
AR Path="/5E53FE8F/5EFBBDFA" Ref="TP27"  Part="1" 
F 0 "TP27" H 2108 4047 50  0001 L CNN
F 1 "TestPoint_Alt" H 2108 4002 50  0001 L CNN
F 2 "TestPoint:TestPoint_Pad_1.0x1.0mm" H 2250 3975 50  0001 C CNN
F 3 "~" H 2250 3975 50  0001 C CNN
	1    2050 3975
	1    0    0    -1  
$EndComp
$Comp
L Connector:TestPoint_Alt TP?
U 1 1 5EFC85E9
P 4325 3975
AR Path="/5EFC85E9" Ref="TP?"  Part="1" 
AR Path="/5E3FC3A3/5EFC85E9" Ref="TP?"  Part="1" 
AR Path="/5E53FE8F/5EFC85E9" Ref="TP28"  Part="1" 
F 0 "TP28" H 4383 4047 50  0001 L CNN
F 1 "TestPoint_Alt" H 4383 4002 50  0001 L CNN
F 2 "TestPoint:TestPoint_Pad_1.0x1.0mm" H 4525 3975 50  0001 C CNN
F 3 "~" H 4525 3975 50  0001 C CNN
	1    4325 3975
	1    0    0    -1  
$EndComp
$Comp
L Connector:TestPoint_Alt TP?
U 1 1 5EFD348E
P 4325 4175
AR Path="/5EFD348E" Ref="TP?"  Part="1" 
AR Path="/5E3FC3A3/5EFD348E" Ref="TP?"  Part="1" 
AR Path="/5E53FE8F/5EFD348E" Ref="TP35"  Part="1" 
F 0 "TP35" H 4383 4247 50  0001 L CNN
F 1 "TestPoint_Alt" H 4383 4202 50  0001 L CNN
F 2 "TestPoint:TestPoint_Pad_1.0x1.0mm" H 4525 4175 50  0001 C CNN
F 3 "~" H 4525 4175 50  0001 C CNN
	1    4325 4175
	-1   0    0    1   
$EndComp
$Comp
L Connector:TestPoint_Alt TP?
U 1 1 5EFDE2DB
P 6800 3975
AR Path="/5EFDE2DB" Ref="TP?"  Part="1" 
AR Path="/5E3FC3A3/5EFDE2DB" Ref="TP?"  Part="1" 
AR Path="/5E53FE8F/5EFDE2DB" Ref="TP36"  Part="1" 
F 0 "TP36" H 6858 4047 50  0001 L CNN
F 1 "TestPoint_Alt" H 6858 4002 50  0001 L CNN
F 2 "TestPoint:TestPoint_Pad_1.0x1.0mm" H 7000 3975 50  0001 C CNN
F 3 "~" H 7000 3975 50  0001 C CNN
	1    6800 3975
	1    0    0    -1  
$EndComp
$Comp
L Connector:TestPoint_Alt TP?
U 1 1 5EFE91F0
P 6800 4175
AR Path="/5EFE91F0" Ref="TP?"  Part="1" 
AR Path="/5E3FC3A3/5EFE91F0" Ref="TP?"  Part="1" 
AR Path="/5E53FE8F/5EFE91F0" Ref="TP37"  Part="1" 
F 0 "TP37" H 6858 4247 50  0001 L CNN
F 1 "TestPoint_Alt" H 6858 4202 50  0001 L CNN
F 2 "TestPoint:TestPoint_Pad_1.0x1.0mm" H 7000 4175 50  0001 C CNN
F 3 "~" H 7000 4175 50  0001 C CNN
	1    6800 4175
	-1   0    0    1   
$EndComp
$Comp
L Connector:TestPoint_Alt TP?
U 1 1 5EFF40D2
P 9275 3975
AR Path="/5EFF40D2" Ref="TP?"  Part="1" 
AR Path="/5E3FC3A3/5EFF40D2" Ref="TP?"  Part="1" 
AR Path="/5E53FE8F/5EFF40D2" Ref="TP38"  Part="1" 
F 0 "TP38" H 9333 4047 50  0001 L CNN
F 1 "TestPoint_Alt" H 9333 4002 50  0001 L CNN
F 2 "TestPoint:TestPoint_Pad_1.0x1.0mm" H 9475 3975 50  0001 C CNN
F 3 "~" H 9475 3975 50  0001 C CNN
	1    9275 3975
	1    0    0    -1  
$EndComp
$Comp
L Connector:TestPoint_Alt TP?
U 1 1 5EFFEF4A
P 9275 4175
AR Path="/5EFFEF4A" Ref="TP?"  Part="1" 
AR Path="/5E3FC3A3/5EFFEF4A" Ref="TP?"  Part="1" 
AR Path="/5E53FE8F/5EFFEF4A" Ref="TP39"  Part="1" 
F 0 "TP39" H 9333 4247 50  0001 L CNN
F 1 "TestPoint_Alt" H 9333 4202 50  0001 L CNN
F 2 "TestPoint:TestPoint_Pad_1.0x1.0mm" H 9475 4175 50  0001 C CNN
F 3 "~" H 9475 4175 50  0001 C CNN
	1    9275 4175
	-1   0    0    1   
$EndComp
Wire Wire Line
	6650 3225 6700 3225
Wire Wire Line
	6650 3375 7400 3375
Wire Wire Line
	6725 3525 6675 3525
$Comp
L copperforge:DRV8323S U?
U 6 1 5E54A738
P 6250 3125
AR Path="/5E54A738" Ref="U?"  Part="6" 
AR Path="/5E53FE8F/5E54A738" Ref="U4"  Part="6" 
F 0 "U4" H 6278 2921 50  0000 L CNN
F 1 "DRV8323S" H 6278 2830 50  0000 L CNN
F 2 "Package_DFN_QFN:QFN-40-1EP_6x6mm_P0.5mm_EP4.6x4.6mm_ThermalVias" H 6400 3175 50  0001 C CNN
F 3 "" H 6400 3175 50  0001 C CNN
	6    6250 3125
	-1   0    0    -1  
$EndComp
Connection ~ 2050 3975
Wire Wire Line
	2050 3975 2075 3975
Connection ~ 1825 4125
Wire Wire Line
	1825 4125 2075 4125
$Comp
L Connector:TestPoint_Alt TP?
U 1 1 5EFC192B
P 2025 5450
AR Path="/5EFC192B" Ref="TP?"  Part="1" 
AR Path="/5E3FC3A3/5EFC192B" Ref="TP?"  Part="1" 
AR Path="/5E53FE8F/5EFC192B" Ref="TP59"  Part="1" 
F 0 "TP59" H 2083 5522 50  0001 L CNN
F 1 "TestPoint_Alt" H 2083 5477 50  0001 L CNN
F 2 "TestPoint:TestPoint_Pad_1.0x1.0mm" H 2225 5450 50  0001 C CNN
F 3 "~" H 2225 5450 50  0001 C CNN
	1    2025 5450
	1    0    0    -1  
$EndComp
Connection ~ 2025 5450
Wire Wire Line
	2025 5450 2075 5450
$Comp
L Connector:TestPoint_Alt TP?
U 1 1 5EFC1C3B
P 1725 5550
AR Path="/5EFC1C3B" Ref="TP?"  Part="1" 
AR Path="/5E3FC3A3/5EFC1C3B" Ref="TP?"  Part="1" 
AR Path="/5E53FE8F/5EFC1C3B" Ref="TP56"  Part="1" 
F 0 "TP56" H 1783 5622 50  0001 L CNN
F 1 "TestPoint_Alt" H 1783 5577 50  0001 L CNN
F 2 "TestPoint:TestPoint_Pad_1.0x1.0mm" H 1925 5550 50  0001 C CNN
F 3 "~" H 1925 5550 50  0001 C CNN
	1    1725 5550
	1    0    0    -1  
$EndComp
Connection ~ 1725 5550
Wire Wire Line
	1725 5550 2075 5550
Wire Wire Line
	2075 4375 2000 4375
Wire Wire Line
	2000 4375 1750 4375
Connection ~ 2000 4375
$Comp
L Connector:TestPoint TP?
U 1 1 5E92D0AB
P 2000 4375
AR Path="/5E92D0AB" Ref="TP?"  Part="1" 
AR Path="/5E53FE8F/5E92D0AB" Ref="TP10"  Part="1" 
F 0 "TP10" H 2058 4447 50  0001 L CNN
F 1 "TestPoint" H 2058 4402 50  0001 L CNN
F 2 "copperforge:TestPoint_Keystone_5019_Minature-3dmodel" H 2200 4375 50  0001 C CNN
F 3 "~" H 2200 4375 50  0001 C CNN
	1    2000 4375
	1    0    0    -1  
$EndComp
Wire Wire Line
	2075 4625 2000 4625
Wire Wire Line
	2000 4625 1750 4625
Connection ~ 2000 4625
$Comp
L Connector:TestPoint TP?
U 1 1 5E92E38A
P 2000 4625
AR Path="/5E92E38A" Ref="TP?"  Part="1" 
AR Path="/5E53FE8F/5E92E38A" Ref="TP11"  Part="1" 
F 0 "TP11" H 2058 4697 50  0001 L CNN
F 1 "TestPoint" H 2058 4652 50  0001 L CNN
F 2 "copperforge:TestPoint_Keystone_5019_Minature-3dmodel" H 2200 4625 50  0001 C CNN
F 3 "~" H 2200 4625 50  0001 C CNN
	1    2000 4625
	1    0    0    -1  
$EndComp
Wire Wire Line
	2000 4875 1750 4875
Wire Wire Line
	2075 4875 2000 4875
Connection ~ 2000 4875
$Comp
L Connector:TestPoint TP?
U 1 1 5E92E9AC
P 2000 4875
AR Path="/5E92E9AC" Ref="TP?"  Part="1" 
AR Path="/5E53FE8F/5E92E9AC" Ref="TP12"  Part="1" 
F 0 "TP12" H 2058 4947 50  0001 L CNN
F 1 "TestPoint" H 2058 4902 50  0001 L CNN
F 2 "copperforge:TestPoint_Keystone_5019_Minature-3dmodel" H 2200 4875 50  0001 C CNN
F 3 "~" H 2200 4875 50  0001 C CNN
	1    2000 4875
	1    0    0    -1  
$EndComp
$Comp
L Connector:TestPoint TP?
U 1 1 5E556B1E
P 6450 5050
AR Path="/5E556B1E" Ref="TP?"  Part="1" 
AR Path="/5E53FE8F/5E556B1E" Ref="TP65"  Part="1" 
F 0 "TP65" H 6508 5122 50  0001 L CNN
F 1 "TestPoint" H 6508 5077 50  0001 L CNN
F 2 "copperforge:TestPoint_Keystone_5019_Minature-3dmodel" H 6650 5050 50  0001 C CNN
F 3 "~" H 6650 5050 50  0001 C CNN
	1    6450 5050
	1    0    0    -1  
$EndComp
$Comp
L power:GND #PWR0198
U 1 1 5E557893
P 6450 5050
F 0 "#PWR0198" H 6450 4800 50  0001 C CNN
F 1 "GND" H 6455 4877 50  0000 C CNN
F 2 "" H 6450 5050 50  0001 C CNN
F 3 "" H 6450 5050 50  0001 C CNN
	1    6450 5050
	1    0    0    -1  
$EndComp
$Comp
L Connector:TestPoint_Alt TP?
U 1 1 5E604243
P 1475 3000
AR Path="/5E604243" Ref="TP?"  Part="1" 
AR Path="/5E3FC3A3/5E604243" Ref="TP?"  Part="1" 
AR Path="/5E53FE8F/5E604243" Ref="TP68"  Part="1" 
F 0 "TP68" H 1533 3072 50  0001 L CNN
F 1 "TestPoint_Alt" H 1533 3027 50  0001 L CNN
F 2 "TestPoint:TestPoint_Pad_1.0x1.0mm" H 1675 3000 50  0001 C CNN
F 3 "~" H 1675 3000 50  0001 C CNN
	1    1475 3000
	1    0    0    -1  
$EndComp
Connection ~ 1475 3000
Wire Wire Line
	1475 3000 2075 3000
$Comp
L power:GND #PWR0200
U 1 1 5E6113D6
P 600 3225
F 0 "#PWR0200" H 600 2975 50  0001 C CNN
F 1 "GND" H 605 3052 50  0000 C CNN
F 2 "" H 600 3225 50  0001 C CNN
F 3 "" H 600 3225 50  0001 C CNN
	1    600  3225
	1    0    0    -1  
$EndComp
$Comp
L Connector:TestPoint TP?
U 1 1 5E611528
P 600 3225
AR Path="/5E611528" Ref="TP?"  Part="1" 
AR Path="/5E53FE8F/5E611528" Ref="TP67"  Part="1" 
F 0 "TP67" H 658 3297 50  0001 L CNN
F 1 "TestPoint" H 658 3252 50  0001 L CNN
F 2 "copperforge:TestPoint_Keystone_5019_Minature-3dmodel" H 800 3225 50  0001 C CNN
F 3 "~" H 800 3225 50  0001 C CNN
	1    600  3225
	1    0    0    -1  
$EndComp
$Comp
L Connector:TestPoint_Alt TP?
U 1 1 5E6167F2
P 4200 3525
AR Path="/5E6167F2" Ref="TP?"  Part="1" 
AR Path="/5E3FC3A3/5E6167F2" Ref="TP?"  Part="1" 
AR Path="/5E53FE8F/5E6167F2" Ref="TP69"  Part="1" 
F 0 "TP69" H 4258 3597 50  0001 L CNN
F 1 "TestPoint_Alt" H 4258 3552 50  0001 L CNN
F 2 "TestPoint:TestPoint_Pad_1.0x1.0mm" H 4400 3525 50  0001 C CNN
F 3 "~" H 4400 3525 50  0001 C CNN
	1    4200 3525
	1    0    0    -1  
$EndComp
Connection ~ 4200 3525
Wire Wire Line
	4200 3525 4175 3525
$Comp
L Connector:TestPoint_Alt TP?
U 1 1 5E6169AE
P 4225 3225
AR Path="/5E6169AE" Ref="TP?"  Part="1" 
AR Path="/5E3FC3A3/5E6169AE" Ref="TP?"  Part="1" 
AR Path="/5E53FE8F/5E6169AE" Ref="TP70"  Part="1" 
F 0 "TP70" H 4283 3297 50  0001 L CNN
F 1 "TestPoint_Alt" H 4283 3252 50  0001 L CNN
F 2 "TestPoint:TestPoint_Pad_1.0x1.0mm" H 4425 3225 50  0001 C CNN
F 3 "~" H 4425 3225 50  0001 C CNN
	1    4225 3225
	1    0    0    -1  
$EndComp
Connection ~ 4225 3225
Wire Wire Line
	4225 3225 4250 3225
$Comp
L Connector:TestPoint_Alt TP?
U 1 1 5E616C9C
P 6700 3225
AR Path="/5E616C9C" Ref="TP?"  Part="1" 
AR Path="/5E3FC3A3/5E616C9C" Ref="TP?"  Part="1" 
AR Path="/5E53FE8F/5E616C9C" Ref="TP72"  Part="1" 
F 0 "TP72" H 6758 3297 50  0001 L CNN
F 1 "TestPoint_Alt" H 6758 3252 50  0001 L CNN
F 2 "TestPoint:TestPoint_Pad_1.0x1.0mm" H 6900 3225 50  0001 C CNN
F 3 "~" H 6900 3225 50  0001 C CNN
	1    6700 3225
	1    0    0    -1  
$EndComp
Connection ~ 6700 3225
Wire Wire Line
	6700 3225 6725 3225
$Comp
L Connector:TestPoint_Alt TP?
U 1 1 5E617F2C
P 6675 3525
AR Path="/5E617F2C" Ref="TP?"  Part="1" 
AR Path="/5E3FC3A3/5E617F2C" Ref="TP?"  Part="1" 
AR Path="/5E53FE8F/5E617F2C" Ref="TP71"  Part="1" 
F 0 "TP71" H 6733 3597 50  0001 L CNN
F 1 "TestPoint_Alt" H 6733 3552 50  0001 L CNN
F 2 "TestPoint:TestPoint_Pad_1.0x1.0mm" H 6875 3525 50  0001 C CNN
F 3 "~" H 6875 3525 50  0001 C CNN
	1    6675 3525
	1    0    0    -1  
$EndComp
Connection ~ 6675 3525
Wire Wire Line
	6675 3525 6650 3525
$Comp
L Connector:TestPoint_Alt TP?
U 1 1 5E61816D
P 9175 3225
AR Path="/5E61816D" Ref="TP?"  Part="1" 
AR Path="/5E3FC3A3/5E61816D" Ref="TP?"  Part="1" 
AR Path="/5E53FE8F/5E61816D" Ref="TP73"  Part="1" 
F 0 "TP73" H 9233 3297 50  0001 L CNN
F 1 "TestPoint_Alt" H 9233 3252 50  0001 L CNN
F 2 "TestPoint:TestPoint_Pad_1.0x1.0mm" H 9375 3225 50  0001 C CNN
F 3 "~" H 9375 3225 50  0001 C CNN
	1    9175 3225
	1    0    0    -1  
$EndComp
Connection ~ 9175 3225
Wire Wire Line
	9175 3225 9200 3225
$Comp
L Connector:TestPoint_Alt TP?
U 1 1 5E6184A9
P 9175 3525
AR Path="/5E6184A9" Ref="TP?"  Part="1" 
AR Path="/5E3FC3A3/5E6184A9" Ref="TP?"  Part="1" 
AR Path="/5E53FE8F/5E6184A9" Ref="TP74"  Part="1" 
F 0 "TP74" H 9233 3597 50  0001 L CNN
F 1 "TestPoint_Alt" H 9233 3552 50  0001 L CNN
F 2 "TestPoint:TestPoint_Pad_1.0x1.0mm" H 9375 3525 50  0001 C CNN
F 3 "~" H 9375 3525 50  0001 C CNN
	1    9175 3525
	1    0    0    -1  
$EndComp
Connection ~ 9175 3525
Wire Wire Line
	9175 3525 9125 3525
Wire Wire Line
	2075 2700 1925 2700
Wire Wire Line
	1925 2700 1925 2550
Connection ~ 1925 2550
Wire Wire Line
	1425 3575 1650 3575
Connection ~ 1650 3575
Wire Wire Line
	1650 3575 2000 3575
Wire Wire Line
	950  5550 1075 5550
Connection ~ 1075 5550
Wire Wire Line
	1075 5550 1725 5550
Wire Wire Line
	850  4125 1100 4125
Connection ~ 1100 4125
Wire Wire Line
	1100 4125 1825 4125
Wire Wire Line
	1600 5350 2075 5350
Wire Wire Line
	2000 5250 2075 5250
$EndSCHEMATC
