EESchema Schematic File Version 4
EELAYER 30 0
EELAYER END
$Descr A4 11693 8268
encoding utf-8
Sheet 4 6
Title ""
Date ""
Rev ""
Comp ""
Comment1 ""
Comment2 ""
Comment3 ""
Comment4 ""
$EndDescr
Text Notes 3550 3575 0    50   ~ 0
high when enabled
Text Notes 3550 3675 0    50   ~ 0
low when fault
Text Notes 3550 3875 0    50   ~ 0
high when enabled
Text Notes 3550 3775 0    50   ~ 0
high when fault
$Comp
L Device:R_Pack04 RN?
U 1 1 5EB45113
P 5675 3675
AR Path="/5EB45113" Ref="RN?"  Part="1" 
AR Path="/5EB444B5/5EB45113" Ref="RN1"  Part="1" 
F 0 "RN1" V 5258 3675 50  0000 C CNN
F 1 "100" V 5349 3675 50  0000 C CNN
F 2 "Resistor_SMD:R_Array_Convex_4x0603" V 5950 3675 50  0001 C CNN
F 3 "~" H 5675 3675 50  0001 C CNN
	1    5675 3675
	0    1    -1   0   
$EndComp
Wire Wire Line
	5025 3875 5475 3875
Wire Wire Line
	5025 3775 5475 3775
Wire Wire Line
	5475 3575 5025 3575
Wire Wire Line
	5025 3675 5475 3675
Text HLabel 5025 3575 0    50   Input ~ 0
INVERTER_ENABLE
Text HLabel 5025 3675 0    50   Input ~ 0
INVERTER_FAULT
Text HLabel 5025 3775 0    50   Input ~ 0
HALFH_DIAG
Text HLabel 5025 3875 0    50   Input ~ 0
HALFH_ENABLE
$Comp
L Device:R_Pack04 RN?
U 1 1 5EB5F9A8
P 7075 4350
AR Path="/5EB5F9A8" Ref="RN?"  Part="1" 
AR Path="/5EB444B5/5EB5F9A8" Ref="RN2"  Part="1" 
F 0 "RN2" V 6658 4350 50  0000 C CNN
F 1 "10k" V 6749 4350 50  0000 C CNN
F 2 "Resistor_SMD:R_Array_Convex_4x0603" V 7350 4350 50  0001 C CNN
F 3 "~" H 7075 4350 50  0001 C CNN
	1    7075 4350
	1    0    0    -1  
$EndComp
Wire Wire Line
	6875 2275 6875 4150
Wire Wire Line
	5875 3575 6600 3575
Wire Wire Line
	6600 3575 6600 2275
Wire Wire Line
	6600 2275 6875 2275
Wire Wire Line
	6975 4150 6975 2850
Wire Wire Line
	6975 2850 6725 2850
Wire Wire Line
	6725 2850 6725 3675
Wire Wire Line
	6725 3675 5875 3675
Connection ~ 6975 2850
$Comp
L power:GND #PWR0174
U 1 1 5EB63CED
P 7025 4625
F 0 "#PWR0174" H 7025 4375 50  0001 C CNN
F 1 "GND" H 7030 4452 50  0000 C CNN
F 2 "" H 7025 4625 50  0001 C CNN
F 3 "" H 7025 4625 50  0001 C CNN
	1    7025 4625
	1    0    0    -1  
$EndComp
Wire Wire Line
	6875 4550 6875 4625
Wire Wire Line
	7175 4625 7175 4550
Connection ~ 7025 4625
Wire Wire Line
	7025 4625 7075 4625
Wire Wire Line
	7075 4550 7075 4625
Connection ~ 7075 4625
Wire Wire Line
	7075 4625 7175 4625
Wire Wire Line
	5875 3875 7175 3875
Wire Wire Line
	7175 4150 7175 3875
Connection ~ 7175 3875
$Comp
L Device:Q_NMOS_GSD Q?
U 1 1 5EB67ED9
P 9325 3875
AR Path="/5EB67ED9" Ref="Q?"  Part="1" 
AR Path="/5EB444B5/5EB67ED9" Ref="Q12"  Part="1" 
F 0 "Q12" H 9529 3921 50  0000 L CNN
F 1 "RE1C002UN" H 9529 3830 50  0000 L CNN
F 2 "Package_TO_SOT_SMD:SOT-416" H 9525 3975 50  0001 C CNN
F 3 "~" H 9325 3875 50  0001 C CNN
	1    9325 3875
	1    0    0    -1  
$EndComp
$Comp
L power:GND #PWR0175
U 1 1 5EB6AC21
P 9425 4075
F 0 "#PWR0175" H 9425 3825 50  0001 C CNN
F 1 "GND" H 9430 3902 50  0000 C CNN
F 2 "" H 9425 4075 50  0001 C CNN
F 3 "" H 9425 4075 50  0001 C CNN
	1    9425 4075
	1    0    0    -1  
$EndComp
$Comp
L Device:Q_NMOS_GSD Q?
U 1 1 5EB6C102
P 7100 2275
AR Path="/5EB6C102" Ref="Q?"  Part="1" 
AR Path="/5EB444B5/5EB6C102" Ref="Q9"  Part="1" 
F 0 "Q9" H 7304 2321 50  0000 L CNN
F 1 "RE1C002UN" H 7304 2230 50  0000 L CNN
F 2 "Package_TO_SOT_SMD:SOT-416" H 7300 2375 50  0001 C CNN
F 3 "~" H 7100 2275 50  0001 C CNN
	1    7100 2275
	1    0    0    -1  
$EndComp
$Comp
L power:GND #PWR0176
U 1 1 5EB6C114
P 7200 2475
F 0 "#PWR0176" H 7200 2225 50  0001 C CNN
F 1 "GND" H 7205 2302 50  0000 C CNN
F 2 "" H 7200 2475 50  0001 C CNN
F 3 "" H 7200 2475 50  0001 C CNN
	1    7200 2475
	1    0    0    -1  
$EndComp
$Comp
L power:GND #PWR0177
U 1 1 5EB6D67F
P 7050 3175
F 0 "#PWR0177" H 7050 2925 50  0001 C CNN
F 1 "GND" H 7055 3002 50  0000 C CNN
F 2 "" H 7050 3175 50  0001 C CNN
F 3 "" H 7050 3175 50  0001 C CNN
	1    7050 3175
	1    0    0    -1  
$EndComp
Text HLabel 7800 2550 2    50   Input ~ 0
3v3
Wire Wire Line
	7175 3875 9125 3875
$Comp
L power:GND #PWR0178
U 1 1 5EB708EB
P 8575 3625
F 0 "#PWR0178" H 8575 3375 50  0001 C CNN
F 1 "GND" H 8580 3452 50  0000 C CNN
F 2 "" H 8575 3625 50  0001 C CNN
F 3 "" H 8575 3625 50  0001 C CNN
	1    8575 3625
	1    0    0    -1  
$EndComp
Text HLabel 9175 3100 2    50   Input ~ 0
3v3
Wire Wire Line
	5875 3775 7075 3775
Wire Wire Line
	7100 3775 7100 3425
Wire Wire Line
	7100 3425 8275 3425
Wire Wire Line
	7075 4150 7075 3775
Connection ~ 7075 3775
Wire Wire Line
	7075 3775 7100 3775
Wire Wire Line
	6900 2275 6875 2275
Connection ~ 6875 2275
Wire Wire Line
	6975 2850 7500 2850
Wire Wire Line
	7800 2550 7800 2650
Wire Wire Line
	6875 4625 7025 4625
Text HLabel 6775 4600 0    50   Input ~ 0
3v3
Wire Wire Line
	6775 4600 6975 4600
Wire Wire Line
	6975 4600 6975 4550
$Comp
L Device:LED_Small D6
U 1 1 5EB7AFCA
P 7225 3175
F 0 "D6" H 7225 3410 50  0000 C CNN
F 1 "C190KRKT" H 7225 3319 50  0000 C CNN
F 2 "LED_SMD:LED_0603_1608Metric_Castellated" V 7225 3175 50  0001 C CNN
F 3 "~" V 7225 3175 50  0001 C CNN
	1    7225 3175
	1    0    0    -1  
$EndComp
Wire Wire Line
	7050 3175 7125 3175
Wire Wire Line
	7325 3175 7400 3175
Wire Wire Line
	7700 3175 7800 3175
Wire Wire Line
	7800 3175 7800 3050
$Comp
L Device:LED_Small D7
U 1 1 5EB7EF06
P 8675 3100
F 0 "D7" H 8675 3335 50  0000 C CNN
F 1 "C190KRKT" H 8675 3244 50  0000 C CNN
F 2 "LED_SMD:LED_0603_1608Metric_Castellated" V 8675 3100 50  0001 C CNN
F 3 "~" V 8675 3100 50  0001 C CNN
	1    8675 3100
	1    0    0    -1  
$EndComp
Wire Wire Line
	8575 3100 8575 3225
Wire Wire Line
	8775 3100 8825 3100
Wire Wire Line
	9125 3100 9175 3100
Text HLabel 7800 1950 2    50   Input ~ 0
3v3
$Comp
L Device:LED_Small D5
U 1 1 5EB843AB
P 7300 1950
F 0 "D5" H 7300 2185 50  0000 C CNN
F 1 "C190KFKT" H 7300 2094 50  0000 C CNN
F 2 "LED_SMD:LED_0603_1608Metric_Castellated" V 7300 1950 50  0001 C CNN
F 3 "~" V 7300 1950 50  0001 C CNN
	1    7300 1950
	1    0    0    -1  
$EndComp
Wire Wire Line
	7200 1950 7200 2075
Wire Wire Line
	7400 1950 7450 1950
Wire Wire Line
	7750 1950 7800 1950
Text HLabel 10025 3550 2    50   Input ~ 0
3v3
$Comp
L Device:LED_Small D8
U 1 1 5EB86497
P 9525 3550
F 0 "D8" H 9525 3785 50  0000 C CNN
F 1 "C190KFKT" H 9525 3694 50  0000 C CNN
F 2 "LED_SMD:LED_0603_1608Metric_Castellated" V 9525 3550 50  0001 C CNN
F 3 "~" V 9525 3550 50  0001 C CNN
	1    9525 3550
	1    0    0    -1  
$EndComp
Wire Wire Line
	9425 3550 9425 3675
Wire Wire Line
	9975 3550 10025 3550
$Comp
L Device:Q_NMOS_GSD Q?
U 1 1 5EB708D9
P 8475 3425
AR Path="/5EB708D9" Ref="Q?"  Part="1" 
AR Path="/5EB444B5/5EB708D9" Ref="Q11"  Part="1" 
F 0 "Q11" H 8679 3471 50  0000 L CNN
F 1 "RE1C002UN" H 8679 3380 50  0000 L CNN
F 2 "Package_TO_SOT_SMD:SOT-416" H 8675 3525 50  0001 C CNN
F 3 "~" H 8475 3425 50  0001 C CNN
	1    8475 3425
	1    0    0    -1  
$EndComp
$Comp
L Device:Q_PMOS_GSD Q10
U 1 1 5EB73B03
P 7700 2850
F 0 "Q10" H 7905 2804 50  0000 L CNN
F 1 "RE1E002SP" H 7905 2895 50  0000 L CNN
F 2 "Package_TO_SOT_SMD:SOT-416" H 7900 2950 50  0001 C CNN
F 3 "~" H 7700 2850 50  0001 C CNN
	1    7700 2850
	1    0    0    1   
$EndComp
Text Notes 7725 1825 0    50   ~ 0
Inverter EN
Text Notes 8000 2675 0    50   ~ 0
Inverter fault
Text Notes 9350 2975 0    50   ~ 0
Half H fault
Text Notes 10150 3425 0    50   ~ 0
Half H EN
$Comp
L Device:R_Pack04_Split R10
U 2 1 5E49B7F6
P 9825 3550
F 0 "R10" H 9895 3596 50  0000 L CNN
F 1 "150" H 9895 3505 50  0000 L CNN
F 2 "Resistor_SMD:R_Array_Convex_4x0603" V 9755 3550 50  0001 C CNN
F 3 "~" H 9825 3550 50  0001 C CNN
	2    9825 3550
	0    -1   -1   0   
$EndComp
$Comp
L Device:R_Pack04_Split R10
U 1 1 5E49C066
P 7600 1950
F 0 "R10" H 7670 1996 50  0000 L CNN
F 1 "150" H 7670 1905 50  0000 L CNN
F 2 "Resistor_SMD:R_Array_Convex_4x0603" V 7530 1950 50  0001 C CNN
F 3 "~" H 7600 1950 50  0001 C CNN
	1    7600 1950
	0    -1   -1   0   
$EndComp
$Comp
L Device:R_Pack04_Split R10
U 3 1 5E49C91E
P 8975 3100
F 0 "R10" H 9045 3146 50  0000 L CNN
F 1 "150" H 9045 3055 50  0000 L CNN
F 2 "Resistor_SMD:R_Array_Convex_4x0603" V 8905 3100 50  0001 C CNN
F 3 "~" H 8975 3100 50  0001 C CNN
	3    8975 3100
	0    -1   -1   0   
$EndComp
$Comp
L Device:R_Pack04_Split R10
U 4 1 5E49D16B
P 7550 3175
F 0 "R10" H 7620 3221 50  0000 L CNN
F 1 "150" H 7620 3130 50  0000 L CNN
F 2 "Resistor_SMD:R_Array_Convex_4x0603" V 7480 3175 50  0001 C CNN
F 3 "~" H 7550 3175 50  0001 C CNN
	4    7550 3175
	0    -1   -1   0   
$EndComp
Wire Wire Line
	9625 3550 9675 3550
$EndSCHEMATC
